alu.vcd
$date
	Thu May 14 05:29:14 2026
$end
$version
	Icarus Verilog
$end
$timescale
	1ps
$end
$scope module controller_alu $end
$var wire 16 ! reg_bus [15:0] $end
$var wire 2 " r2 [1:0] $end
$var wire 2 # r1 [1:0] $end
$var wire 2 $ r0 [1:0] $end
$var wire 16 % imm_bus [15:0] $end
$var wire 4 & bus_sel [3:0] $end
$var wire 16 ' bus [15:0] $end
$var wire 16 ( alu_bus [15:0] $end
$var wire 5 ) SR [4:0] $end
$var wire 2 * G [1:0] $end
$var wire 4 + ALU [3:0] $end
$var wire 2 , A [1:0] $end
$var reg 1 - clk $end
$var reg 16 . instruction [15:0] $end
$var reg 1 / status_register $end
$var integer 32 0 fail [31:0] $end
$var integer 32 1 pass [31:0] $end
$scope module alu $end
$var wire 1 - clk $end
$var wire 4 2 control_plane [3:0] $end
$var wire 1 3 rst $end
$var wire 16 4 output_bus [15:0] $end
$var wire 16 5 input_bus [15:0] $end
$var wire 16 6 g_reg_wire [15:0] $end
$var wire 4 7 alu_ctl [3:0] $end
$var wire 16 8 accumulator_wire [15:0] $end
$var wire 1 9 G_tri $end
$var wire 1 : G_en $end
$var wire 1 ; A_tri $end
$var wire 1 < A_en $end
$scope module A $end
$var wire 1 - clk $end
$var wire 1 < load $end
$var wire 1 ; o_en $end
$var wire 1 3 rst $end
$var wire 16 = o [15:0] $end
$var wire 16 > d [15:0] $end
$var reg 16 ? data_wire [15:0] $end
$upscope $end
$scope module G $end
$var wire 1 - clk $end
$var wire 1 : load $end
$var wire 1 9 o_en $end
$var wire 1 3 rst $end
$var wire 16 @ o [15:0] $end
$var wire 16 A d [15:0] $end
$var reg 16 B data_wire [15:0] $end
$upscope $end
$scope module alu_compute $end
$var wire 16 C a [15:0] $end
$var wire 16 D b [15:0] $end
$var wire 4 E alu_ctl [3:0] $end
$var reg 16 F result [15:0] $end
$var reg 5 G status [4:0] $end
$scope task add $end
$var reg 16 H a [15:0] $end
$var reg 16 I b [15:0] $end
$var reg 1 J carry $end
$var reg 1 K negative $end
$var reg 1 L overflow $end
$var reg 16 M result [15:0] $end
$var reg 4 N status [3:0] $end
$var reg 17 O tmp [16:0] $end
$var reg 1 P zero $end
$upscope $end
$scope task sub $end
$var reg 16 Q a [15:0] $end
$var reg 16 R b [15:0] $end
$var reg 1 S carry $end
$var reg 1 T negative $end
$var reg 16 U result [15:0] $end
$var reg 4 V status [3:0] $end
$var reg 17 W tmp [16:0] $end
$var reg 1 X underflow $end
$var reg 1 Y zero $end
$upscope $end
$upscope $end
$upscope $end
$scope module dut $end
$var wire 1 - clk $end
$var wire 16 Z instruction [15:0] $end
$var wire 1 / status_register $end
$var wire 16 [ curr_comm_bus [15:0] $end
$var parameter 3 \ C_DECODE $end
$var parameter 3 ] C_EXECUTE $end
$var parameter 3 ^ C_FETCH $end
$var parameter 3 _ C_LOAD $end
$var parameter 3 ` C_WRITE $end
$var reg 2 a A [1:0] $end
$var reg 4 b ALU [3:0] $end
$var reg 2 c G [1:0] $end
$var reg 5 d SR [4:0] $end
$var reg 4 e bus_sel [3:0] $end
$var reg 24 f control_plane [23:0] $end
$var reg 3 g controller_state [2:0] $end
$var reg 4 h op_code [3:0] $end
$var reg 16 i out_comm_bus [15:0] $end
$var reg 12 j params [11:0] $end
$var reg 2 k r0 [1:0] $end
$var reg 2 l r1 [1:0] $end
$var reg 2 m r2 [1:0] $end
$scope task execute_step $end
$var reg 4 n Ry [3:0] $end
$var reg 24 o control_plane [23:0] $end
$var reg 4 p opcode [3:0] $end
$var reg 12 q params [11:0] $end
$upscope $end
$scope task get_register $end
$var reg 24 r curr_control_plane [23:0] $end
$var reg 1 s is_output $end
$var reg 24 t output_control_plane [23:0] $end
$var reg 4 u rx [3:0] $end
$upscope $end
$scope task load_step $end
$var reg 4 v Rx [3:0] $end
$var reg 24 w control_plane [23:0] $end
$var reg 4 x opcode [3:0] $end
$var reg 12 y params [11:0] $end
$upscope $end
$scope task writeback_step $end
$var reg 16 z D [15:0] $end
$var reg 4 { Rx [3:0] $end
$var reg 4 | Ry [3:0] $end
$var reg 24 } control_plane [23:0] $end
$var reg 16 ~ imm_bus [15:0] $end
$var reg 4 !" opcode [3:0] $end
$var reg 12 "" params [11:0] $end
$upscope $end
$upscope $end
$scope module mux $end
$var wire 16 #" alu [15:0] $end
$var wire 4 $" bus_sel [3:0] $end
$var wire 16 %" immediate [15:0] $end
$var wire 16 &" registers [15:0] $end
$var reg 16 '" bus_out [15:0] $end
$upscope $end
$scope module rf $end
$var wire 1 - clk $end
$var wire 6 (" control_plane [5:0] $end
$var wire 16 )" input_bus [15:0] $end
$var wire 16 *" output_bus [15:0] $end
$var wire 1 +" rst $end
$var wire 1 ," R3_tri $end
$var wire 1 -" R3_en $end
$var wire 1 ." R2_tri $end
$var wire 1 /" R2_en $end
$var wire 1 0" R1_tri $end
$var wire 1 1" R1_en $end
$scope module R1 $end
$var wire 1 - clk $end
$var wire 16 2" d [15:0] $end
$var wire 1 1" load $end
$var wire 16 3" o [15:0] $end
$var wire 1 0" o_en $end
$var wire 1 +" rst $end
$var reg 16 4" data_wire [15:0] $end
$upscope $end
$scope module R2 $end
$var wire 1 - clk $end
$var wire 16 5" d [15:0] $end
$var wire 1 /" load $end
$var wire 16 6" o [15:0] $end
$var wire 1 ." o_en $end
$var wire 1 +" rst $end
$var reg 16 7" data_wire [15:0] $end
$upscope $end
$scope module R3 $end
$var wire 1 - clk $end
$var wire 16 8" d [15:0] $end
$var wire 1 -" load $end
$var wire 16 9" o [15:0] $end
$var wire 1 ," o_en $end
$var wire 1 +" rst $end
$var reg 16 :" data_wire [15:0] $end
$upscope $end
$upscope $end
$scope task check $end
$var reg 64 ;" cond [63:0] $end
$var reg 128 <" msg [127:0] $end
$upscope $end
$scope task tick $end
$upscope $end
$upscope $end
$enddefinitions $end
$comment Show the parameter values. $end
$dumpall
b100 `
b10 _
b0 ^
b11 ]
b1 \
$end
#0
$dumpvars
bx <"
bx ;"
bx :"
bz 9"
b0 8"
bx 7"
bz 6"
b0 5"
bx 4"
bz 3"
b0 2"
01"
00"
0/"
0."
0-"
0,"
0+"
bz *"
b0 )"
b0 ("
b0 '"
bz &"
bx %"
b0 $"
bz #"
bx ""
bx !"
bx ~
bx }
bx |
bx {
bx z
bx y
bx x
bx w
bx v
bx u
bx t
xs
bx r
bx q
bx p
bx o
bx n
b0 m
b0 l
b0 k
b0 j
bx i
b0 h
b0 g
b0 f
b0 e
b0 d
b0 c
b0 b
b0 a
b0 [
b100000100000101 Z
xY
xX
bx W
bx V
bx U
xT
xS
bx R
bx Q
xP
bx O
bx N
bx M
xL
xK
xJ
bx I
bx H
b10000 G
b1101111010101101 F
b0 E
b0 D
bz C
bx B
b1101111010101101 A
bz @
bx ?
b0 >
bz =
0<
0;
0:
09
bz 8
b0 7
b1101111010101101 6
b0 5
bz 4
03
b0 2
b0 1
b0 0
0/
b100000100000101 .
0-
b0 ,
b0 +
b0 *
b0 )
bz (
b0 '
b0 &
bx %
b0 $
b0 #
b0 "
bz !
$end
#5000
b1 g
1-
#10000
0-
#15000
b1 v
b0 w
b100000101 y
b100 x
b10 g
b100000101 j
b100 h
1-
#20000
0-
#25000
b0 n
b0 o
b100000101 q
b100 p
b11 g
1-
#30000
0-
#35000
b10000 G
b101 '
b101 5
b101 >
b101 D
b101 [
b101 '"
b101 )"
b101 2"
b101 5"
b101 8"
11"
b100000 ("
b10 $
b10 k
b1 &
b1 e
b1 $"
b101 %
b101 i
b101 %"
b110000000000000000000 f
b101 ~
b10000000000000000000 t
b0 r
0s
b1 u
b101 z
b0 |
b1 {
b110000000000000000000 }
b100000101 ""
b100 !"
b100 g
1-
#40000
0-
#45000
b10000 G
b0 '
b0 5
b0 >
b0 D
b0 [
b0 '"
b0 )"
b0 2"
b0 5"
b0 8"
01"
b0 ("
b0 $
b0 k
b0 &
b0 e
b0 $"
b0 f
b0 g
b101 4"
1-
#50000
0-
b100001000000011 .
b100001000000011 Z
#55000
b1 g
1-
#60000
0-
#65000
b10 v
b1000000011 y
b10 g
b1000000011 j
1-
#70000
0-
#75000
b1000000011 q
b11 g
1-
#80000
0-
#85000
b10000 G
b11 '
b11 5
b11 >
b11 D
b11 [
b11 '"
b11 )"
b11 2"
b11 5"
b11 8"
1/"
b1000 ("
b10 #
b10 l
b1 &
b1 e
b1 $"
b11 %
b11 i
b11 %"
b100100000000000000000 f
b11 ~
b100000000000000000 t
b10 u
b11 z
b10 {
b100100000000000000000 }
b1000000011 ""
b100 g
1-
#90000
0-
#95000
b10000 G
b0 '
b0 5
b0 >
b0 D
b0 [
b0 '"
b0 )"
b0 2"
b0 5"
b0 8"
0/"
b0 ("
b0 #
b0 l
b0 &
b0 e
b0 $"
b0 f
b0 g
b11 7"
1-
#100000
0-
b1000100100000 .
b1000100100000 Z
#105000
b1 g
1-
#110000
0-
#115000
b10000 G
b101 '
b101 5
b101 >
b101 D
b101 [
b101 '"
b101 )"
b101 2"
b101 5"
b101 8"
b101 !
b101 &"
b101 *"
b101 3"
b101 6"
b101 9"
1<
10"
b1000 2
b10000 ("
b10 ,
b10 a
b1 $
b1 k
b11 &
b11 e
b11 $"
b1101000010000000000000 f
b1000000000000000000 r
b1101000010000000000000 w
b1000010000000000000 t
0s
b100 u
b1 v
b100100000 y
b1 x
b10 g
b100100000 j
b1 h
1-
#120000
0-
#125000
b11 '
b11 5
b11 >
b11 D
b11 [
b11 '"
b11 )"
b11 2"
b11 5"
b11 8"
b11 !
b11 &"
b11 *"
b11 3"
b11 6"
b11 9"
b0 N
0L
0P
0J
0K
b1000 M
b1000 O
0<
1:
00"
1."
b101 8
b101 =
b101 C
b1000 6
b1000 A
b1000 F
b11 I
b101 H
b0 G
b10 2
b100 ("
1;
b1 +
b1 7
b1 E
b1 b
b10 *
b10 c
b0 ,
b0 a
b1 #
b1 l
b0 $
b0 k
b10000100000000001 t
b10000000000000001 r
0s
b101 u
b1100010000100000000001 o
b10 n
b100100000 q
b1 p
b1100010000100000000001 f
b101 ?
b11 g
1-
#130000
0-
#135000
b1000 '
b1000 5
b1000 >
b1000 D
b1000 [
b1000 '"
b1000 )"
b1000 2"
b1000 5"
b1000 8"
b1000 (
b1000 4
b1000 @
b1000 #"
bz !
bz &"
bz *"
bz 3"
bz 6"
bz 9"
0:
19
11"
0."
bz 8
bz =
bz C
b10000 G
b1101111010101101 6
b1101111010101101 A
b1101111010101101 F
b1 2
b100000 ("
0;
b0 +
b0 7
b0 E
b0 b
b1 *
b1 c
b0 #
b0 l
b10 $
b10 k
b10 &
b10 e
b10 $"
b1 u
b10000000010000000000 t
b10000000000 r
0s
b100000 z
b10 |
b1 {
b1010000000010000000000 }
b100100000 ""
b1 !"
b1010000000010000000000 f
b1000 B
b100 g
1-
#140000
0-
#145000
b10000 G
b0 '
b0 5
b0 >
b0 D
b0 [
b0 '"
b0 )"
b0 2"
b0 5"
b0 8"
bz (
bz 4
bz @
bz #"
09
01"
b0 2
b0 ("
b0 *
b0 c
b0 $
b0 k
b0 &
b0 e
b0 $"
b0 f
b0 g
b1000 4"
1-
#150000
b1000 (
b1000 4
b1000 @
b1000 #"
19
b1 2
0-
b1 *
b1 c
#151000
bz (
bz 4
bz @
bz #"
09
b0 2
b100000111111111 .
b100000111111111 Z
b0 ,
b0 a
b0 *
b0 c
b1 1
b100000001100000111100000110000001100000011000000110011001000000011110100100000001100000111100000110000001100000011000000111000 <"
b1 ;"
#155000
b1 g
1-
#160000
0-
#165000
b0 w
b111111111 y
b100 x
b10 g
b111111111 j
b100 h
1-
#170000
0-
#175000
b1111 n
b0 o
b111111111 q
b100 p
b11 g
1-
#180000
0-
#185000
b10000 G
b11111111 '
b11111111 5
b11111111 >
b11111111 D
b11111111 [
b11111111 '"
b11111111 )"
b11111111 2"
b11111111 5"
b11111111 8"
11"
b100000 ("
b10 $
b10 k
b1 &
b1 e
b1 $"
b11111111 %
b11111111 i
b11111111 %"
b110000000000000000000 f
b11111111 ~
b10000000000000000000 t
b0 r
b11111111 z
b1111 |
b110000000000000000000 }
b111111111 ""
b100 !"
b100 g
1-
#190000
0-
#195000
b10000 G
b0 '
b0 5
b0 >
b0 D
b0 [
b0 '"
b0 )"
b0 2"
b0 5"
b0 8"
01"
b0 ("
b0 $
b0 k
b0 &
b0 e
b0 $"
b0 f
b0 g
b11111111 4"
1-
#200000
0-
#201000
b100001000000001 .
b100001000000001 Z
#205000
b1 g
1-
#210000
0-
#215000
b10 v
b1000000001 y
b10 g
b1000000001 j
1-
#220000
0-
#225000
b0 n
b1000000001 q
b11 g
1-
#230000
0-
#235000
b10000 G
b1 '
b1 5
b1 >
b1 D
b1 [
b1 '"
b1 )"
b1 2"
b1 5"
b1 8"
1/"
b1000 ("
b10 #
b10 l
b1 &
b1 e
b1 $"
b1 %
b1 i
b1 %"
b100100000000000000000 f
b1 ~
b100000000000000000 t
b10 u
b1 z
b0 |
b10 {
b100100000000000000000 }
b1000000001 ""
b100 g
1-
#240000
0-
#245000
b10000 G
b0 '
b0 5
b0 >
b0 D
b0 [
b0 '"
b0 )"
b0 2"
b0 5"
b0 8"
0/"
b0 ("
b0 #
b0 l
b0 &
b0 e
b0 $"
b0 f
b0 g
b1 7"
1-
#250000
0-
#251000
b1000100100000 .
b1000100100000 Z
#255000
b1 g
1-
#260000
0-
#265000
b10000 G
b11111111 '
b11111111 5
b11111111 >
b11111111 D
b11111111 [
b11111111 '"
b11111111 )"
b11111111 2"
b11111111 5"
b11111111 8"
b11111111 !
b11111111 &"
b11111111 *"
b11111111 3"
b11111111 6"
b11111111 9"
1<
10"
b1000 2
b10000 ("
b10 ,
b10 a
b1 $
b1 k
b11 &
b11 e
b11 $"
b1101000010000000000000 f
b1000000000000000000 r
b1101000010000000000000 w
b1000010000000000000 t
0s
b100 u
b1 v
b100100000 y
b1 x
b10 g
b100100000 j
b1 h
1-
#270000
0-
#275000
b1 '
b1 5
b1 >
b1 D
b1 [
b1 '"
b1 )"
b1 2"
b1 5"
b1 8"
b1 !
b1 &"
b1 *"
b1 3"
b1 6"
b1 9"
0<
1:
00"
1."
b11111111 8
b11111111 =
b11111111 C
b100000000 6
b100000000 A
b100000000 F
b0 N
0L
0P
0J
0K
b100000000 M
b100000000 O
b1 I
b11111111 H
b0 G
b10 2
b100 ("
1;
b1 +
b1 7
b1 E
b1 b
b10 *
b10 c
b0 ,
b0 a
b1 #
b1 l
b0 $
b0 k
b10000100000000001 t
b10000000000000001 r
0s
b101 u
b1100010000100000000001 o
b10 n
b100100000 q
b1 p
b1100010000100000000001 f
b11111111 ?
b11 g
1-
#280000
0-
#285000
b100000000 '
b100000000 5
b100000000 >
b100000000 D
b100000000 [
b100000000 '"
b100000000 )"
b100000000 2"
b100000000 5"
b100000000 8"
b100000000 (
b100000000 4
b100000000 @
b100000000 #"
bz !
bz &"
bz *"
bz 3"
bz 6"
bz 9"
0:
19
11"
0."
bz 8
bz =
bz C
b10000 G
b1101111010101101 6
b1101111010101101 A
b1101111010101101 F
b1 2
b100000 ("
0;
b0 +
b0 7
b0 E
b0 b
b1 *
b1 c
b0 #
b0 l
b10 $
b10 k
b10 &
b10 e
b10 $"
b1 u
b10000000010000000000 t
b10000000000 r
0s
b100000 z
b10 |
b1 {
b1010000000010000000000 }
b100100000 ""
b1 !"
b1010000000010000000000 f
b100000000 B
b100 g
1-
#290000
0-
#295000
b10000 G
b0 '
b0 5
b0 >
b0 D
b0 [
b0 '"
b0 )"
b0 2"
b0 5"
b0 8"
bz (
bz 4
bz @
bz #"
09
01"
b0 2
b0 ("
b0 *
b0 c
b0 $
b0 k
b0 &
b0 e
b0 $"
b0 f
b0 g
b100000000 4"
1-
#300000
0-
#301000
b100000000 (
b100000000 4
b100000000 @
b100000000 #"
19
b1 2
b1 *
b1 c
#302000
bz (
bz 4
bz @
bz #"
09
b0 2
b100000100001010 .
b100000100001010 Z
b0 ,
b0 a
b0 *
b0 c
b10 1
b100000001100000111100000110000001100000011000000110001001000000011110100100000001100000111100000110000001100010011000000110000 <"
#305000
b1 g
1-
#310000
0-
#315000
b0 w
b100001010 y
b100 x
b10 g
b100001010 j
b100 h
1-
#320000
0-
#325000
b0 n
b0 o
b100001010 q
b100 p
b11 g
1-
#330000
0-
#335000
b10000 G
b1010 '
b1010 5
b1010 >
b1010 D
b1010 [
b1010 '"
b1010 )"
b1010 2"
b1010 5"
b1010 8"
11"
b100000 ("
b10 $
b10 k
b1 &
b1 e
b1 $"
b1010 %
b1010 i
b1010 %"
b110000000000000000000 f
b1010 ~
b10000000000000000000 t
b0 r
b1010 z
b0 |
b110000000000000000000 }
b100001010 ""
b100 !"
b100 g
1-
#340000
0-
#345000
b10000 G
b0 '
b0 5
b0 >
b0 D
b0 [
b0 '"
b0 )"
b0 2"
b0 5"
b0 8"
01"
b0 ("
b0 $
b0 k
b0 &
b0 e
b0 $"
b0 f
b0 g
b1010 4"
1-
#350000
0-
#352000
b100001000000011 .
b100001000000011 Z
#355000
b1 g
1-
#360000
0-
#365000
b10 v
b1000000011 y
b10 g
b1000000011 j
1-
#370000
0-
#375000
b1000000011 q
b11 g
1-
#380000
0-
#385000
b10000 G
b11 '
b11 5
b11 >
b11 D
b11 [
b11 '"
b11 )"
b11 2"
b11 5"
b11 8"
1/"
b1000 ("
b10 #
b10 l
b1 &
b1 e
b1 $"
b11 %
b11 i
b11 %"
b100100000000000000000 f
b11 ~
b100000000000000000 t
b10 u
b11 z
b10 {
b100100000000000000000 }
b1000000011 ""
b100 g
1-
#390000
0-
#395000
b10000 G
b0 '
b0 5
b0 >
b0 D
b0 [
b0 '"
b0 )"
b0 2"
b0 5"
b0 8"
0/"
b0 ("
b0 #
b0 l
b0 &
b0 e
b0 $"
b0 f
b0 g
b11 7"
1-
#400000
0-
#402000
b10000100100000 .
b10000100100000 Z
#405000
b1 g
1-
#410000
0-
#415000
b10000 G
b1010 '
b1010 5
b1010 >
b1010 D
b1010 [
b1010 '"
b1010 )"
b1010 2"
b1010 5"
b1010 8"
b1010 !
b1010 &"
b1010 *"
b1010 3"
b1010 6"
b1010 9"
1<
10"
b1000 2
b10000 ("
b10 ,
b10 a
b1 $
b1 k
b11 &
b11 e
b11 $"
b1101000010000000000000 f
b1000000000000000000 r
b1101000010000000000000 w
b1000010000000000000 t
0s
b100 u
b1 v
b100100000 y
b10 x
b10 g
b100100000 j
b10 h
1-
#420000
0-
#425000
b11 '
b11 5
b11 >
b11 D
b11 [
b11 '"
b11 )"
b11 2"
b11 5"
b11 8"
b11 !
b11 &"
b11 *"
b11 3"
b11 6"
b11 9"
b0 V
0X
0Y
0S
0T
b111 U
b111 W
0<
1:
00"
1."
b1010 8
b1010 =
b1010 C
b111 6
b111 A
b111 F
b11 R
b1010 Q
b0 G
b10 2
b100 ("
1;
b10 +
b10 7
b10 E
b10 b
b10 *
b10 c
b0 ,
b0 a
b1 #
b1 l
b0 $
b0 k
b10000100000000010 t
b10000000000000010 r
0s
b101 u
b1100010000100000000010 o
b10 n
b100100000 q
b10 p
b1100010000100000000010 f
b1010 ?
b11 g
1-
#430000
0-
#435000
b111 '
b111 5
b111 >
b111 D
b111 [
b111 '"
b111 )"
b111 2"
b111 5"
b111 8"
b111 (
b111 4
b111 @
b111 #"
bz !
bz &"
bz *"
bz 3"
bz 6"
bz 9"
0:
19
11"
0."
bz 8
bz =
bz C
b10000 G
b1101111010101101 6
b1101111010101101 A
b1101111010101101 F
b1 2
b100000 ("
0;
b0 +
b0 7
b0 E
b0 b
b1 *
b1 c
b0 #
b0 l
b10 $
b10 k
b10 &
b10 e
b10 $"
b1 u
b10000000010000000000 t
b10000000000 r
0s
b100000 z
b10 |
b1 {
b1010000000010000000000 }
b100100000 ""
b10 !"
b1010000000010000000000 f
b111 B
b100 g
1-
#440000
0-
#445000
b10000 G
b0 '
b0 5
b0 >
b0 D
b0 [
b0 '"
b0 )"
b0 2"
b0 5"
b0 8"
bz (
bz 4
bz @
bz #"
09
01"
b0 2
b0 ("
b0 *
b0 c
b0 $
b0 k
b0 &
b0 e
b0 $"
b0 f
b0 g
b111 4"
1-
#450000
0-
#452000
b111 (
b111 4
b111 @
b111 #"
19
b1 2
b1 *
b1 c
#453000
bz (
bz 4
bz @
bz #"
09
b0 2
b100000100000000 .
b100000100000000 Z
b0 ,
b0 a
b0 *
b0 c
b11 1
b100000001100000111100000110000001100000011000000110011001000000011110100100000001100000111100000110000001100000011000000110111 <"
#455000
b1 g
1-
#460000
0-
#465000
b0 w
b100000000 y
b100 x
b10 g
b100000000 j
b100 h
1-
#470000
0-
#475000
b0 n
b0 o
b100000000 q
b100 p
b11 g
1-
#480000
0-
#485000
11"
b100000 ("
b10 $
b10 k
b1 &
b1 e
b1 $"
b0 %
b0 i
b0 %"
b110000000000000000000 f
b0 ~
b10000000000000000000 t
b0 r
b0 z
b0 |
b110000000000000000000 }
b100000000 ""
b100 !"
b100 g
1-
#490000
0-
#495000
01"
b0 ("
b0 $
b0 k
b0 &
b0 e
b0 $"
b0 f
b0 g
b0 4"
1-
#500000
0-
#503000
b100001000000001 .
b100001000000001 Z
#505000
b1 g
1-
#510000
0-
#515000
b10 v
b1000000001 y
b10 g
b1000000001 j
1-
#520000
0-
#525000
b1000000001 q
b11 g
1-
#530000
0-
#535000
b10000 G
b1 '
b1 5
b1 >
b1 D
b1 [
b1 '"
b1 )"
b1 2"
b1 5"
b1 8"
1/"
b1000 ("
b10 #
b10 l
b1 &
b1 e
b1 $"
b1 %
b1 i
b1 %"
b100100000000000000000 f
b1 ~
b100000000000000000 t
b10 u
b1 z
b10 {
b100100000000000000000 }
b1000000001 ""
b100 g
1-
#540000
0-
#545000
b10000 G
b0 '
b0 5
b0 >
b0 D
b0 [
b0 '"
b0 )"
b0 2"
b0 5"
b0 8"
0/"
b0 ("
b0 #
b0 l
b0 &
b0 e
b0 $"
b0 f
b0 g
b1 7"
1-
#550000
0-
#553000
b10000100100000 .
b10000100100000 Z
#555000
b1 g
1-
#560000
0-
#565000
b10000 G
b0 '
b0 5
b0 >
b0 D
b0 [
b0 '"
b0 )"
b0 2"
b0 5"
b0 8"
b0 !
b0 &"
b0 *"
b0 3"
b0 6"
b0 9"
1<
10"
b1000 2
b10000 ("
b10 ,
b10 a
b1 $
b1 k
b11 &
b11 e
b11 $"
b1101000010000000000000 f
b1000000000000000000 r
b1101000010000000000000 w
b1000010000000000000 t
0s
b100 u
b1 v
b100100000 y
b10 x
b10 g
b100100000 j
b10 h
1-
#570000
0-
#575000
b1 '
b1 5
b1 >
b1 D
b1 [
b1 '"
b1 )"
b1 2"
b1 5"
b1 8"
b1 !
b1 &"
b1 *"
b1 3"
b1 6"
b1 9"
0<
1:
00"
1."
b0 8
b0 =
b0 C
b1111111111111111 6
b1111111111111111 A
b1111111111111111 F
b111 V
1X
0Y
1S
1T
b1111111111111111 U
b11111111111111111 W
b1 R
b0 Q
b111 G
b10 2
b100 ("
1;
b10 +
b10 7
b10 E
b10 b
b10 *
b10 c
b0 ,
b0 a
b1 #
b1 l
b0 $
b0 k
b10000100000000010 t
b10000000000000010 r
0s
b101 u
b1100010000100000000010 o
b10 n
b100100000 q
b10 p
b1100010000100000000010 f
b0 ?
b11 g
1-
#580000
0-
#585000
b1111111111111111 '
b1111111111111111 5
b1111111111111111 >
b1111111111111111 D
b1111111111111111 [
b1111111111111111 '"
b1111111111111111 )"
b1111111111111111 2"
b1111111111111111 5"
b1111111111111111 8"
b1111111111111111 (
b1111111111111111 4
b1111111111111111 @
b1111111111111111 #"
bz !
bz &"
bz *"
bz 3"
bz 6"
bz 9"
0:
19
11"
0."
bz 8
bz =
bz C
b1101111010101101 6
b1101111010101101 A
b1101111010101101 F
b10000 G
b1 2
b100000 ("
0;
b0 +
b0 7
b0 E
b0 b
b1 *
b1 c
b0 #
b0 l
b10 $
b10 k
b10 &
b10 e
b10 $"
b1 u
b10000000010000000000 t
b10000000000 r
0s
b100000 z
b10 |
b1 {
b1010000000010000000000 }
b100100000 ""
b10 !"
b1010000000010000000000 f
b1111111111111111 B
b100 g
1-
#590000
0-
#595000
b10000 G
b0 '
b0 5
b0 >
b0 D
b0 [
b0 '"
b0 )"
b0 2"
b0 5"
b0 8"
bz (
bz 4
bz @
bz #"
09
01"
b0 2
b0 ("
b0 *
b0 c
b0 $
b0 k
b0 &
b0 e
b0 $"
b0 f
b0 g
b1111111111111111 4"
1-
#600000
0-
#603000
b1111111111111111 (
b1111111111111111 4
b1111111111111111 @
b1111111111111111 #"
19
b1 2
b1 *
b1 c
#604000
bz (
bz 4
bz @
bz #"
09
b0 2
b100000110101011 .
b100000110101011 Z
b0 ,
b0 a
b0 *
b0 c
b100 1
b1000110010001100100011001000110001000000010100001110101011011100110010001100101011100100110011001101100011011110111011100101001 <"
#605000
b1 g
1-
#610000
0-
#615000
b0 w
b110101011 y
b100 x
b10 g
b110101011 j
b100 h
1-
#620000
0-
#625000
b1010 n
b0 o
b110101011 q
b100 p
b11 g
1-
#630000
0-
#635000
b10000 G
b10101011 '
b10101011 5
b10101011 >
b10101011 D
b10101011 [
b10101011 '"
b10101011 )"
b10101011 2"
b10101011 5"
b10101011 8"
11"
b100000 ("
b10 $
b10 k
b1 &
b1 e
b1 $"
b10101011 %
b10101011 i
b10101011 %"
b110000000000000000000 f
b10101011 ~
b10000000000000000000 t
b0 r
b10101011 z
b1010 |
b110000000000000000000 }
b110101011 ""
b100 !"
b100 g
1-
#640000
0-
#645000
b10000 G
b0 '
b0 5
b0 >
b0 D
b0 [
b0 '"
b0 )"
b0 2"
b0 5"
b0 8"
01"
b0 ("
b0 $
b0 k
b0 &
b0 e
b0 $"
b0 f
b0 g
b10101011 4"
1-
#650000
0-
#654000
b100001000000000 .
b100001000000000 Z
#655000
b1 g
1-
#660000
0-
#665000
b10 v
b1000000000 y
b10 g
b1000000000 j
1-
#670000
0-
#675000
b0 n
b1000000000 q
b11 g
1-
#680000
0-
#685000
1/"
b1000 ("
b10 #
b10 l
b1 &
b1 e
b1 $"
b0 %
b0 i
b0 %"
b100100000000000000000 f
b0 ~
b100000000000000000 t
b10 u
b0 z
b0 |
b10 {
b100100000000000000000 }
b1000000000 ""
b100 g
1-
#690000
0-
#695000
0/"
b0 ("
b0 #
b0 l
b0 &
b0 e
b0 $"
b0 f
b0 g
b0 7"
1-
#700000
0-
#704000
b1000100100000 .
b1000100100000 Z
#705000
b1 g
1-
#710000
0-
#715000
b10000 G
b10101011 '
b10101011 5
b10101011 >
b10101011 D
b10101011 [
b10101011 '"
b10101011 )"
b10101011 2"
b10101011 5"
b10101011 8"
b10101011 !
b10101011 &"
b10101011 *"
b10101011 3"
b10101011 6"
b10101011 9"
1<
10"
b1000 2
b10000 ("
b10 ,
b10 a
b1 $
b1 k
b11 &
b11 e
b11 $"
b1101000010000000000000 f
b1000000000000000000 r
b1101000010000000000000 w
b1000010000000000000 t
0s
b100 u
b1 v
b100100000 y
b1 x
b10 g
b100100000 j
b1 h
1-
#720000
0-
#725000
b0 '
b0 5
b0 >
b0 D
b0 [
b0 '"
b0 )"
b0 2"
b0 5"
b0 8"
b0 !
b0 &"
b0 *"
b0 3"
b0 6"
b0 9"
0<
1:
00"
1."
b10101011 8
b10101011 =
b10101011 C
b10101011 6
b10101011 A
b10101011 F
b0 N
0L
0P
0J
0K
b10101011 M
b10101011 O
b0 I
b10101011 H
b0 G
b10 2
b100 ("
1;
b1 +
b1 7
b1 E
b1 b
b10 *
b10 c
b0 ,
b0 a
b1 #
b1 l
b0 $
b0 k
b10000100000000001 t
b10000000000000001 r
0s
b101 u
b1100010000100000000001 o
b10 n
b100100000 q
b1 p
b1100010000100000000001 f
b10101011 ?
b11 g
1-
#730000
0-
#735000
b10101011 '
b10101011 5
b10101011 >
b10101011 D
b10101011 [
b10101011 '"
b10101011 )"
b10101011 2"
b10101011 5"
b10101011 8"
b10101011 (
b10101011 4
b10101011 @
b10101011 #"
bz !
bz &"
bz *"
bz 3"
bz 6"
bz 9"
0:
19
11"
0."
bz 8
bz =
bz C
b10000 G
b1101111010101101 6
b1101111010101101 A
b1101111010101101 F
b1 2
b100000 ("
0;
b0 +
b0 7
b0 E
b0 b
b1 *
b1 c
b0 #
b0 l
b10 $
b10 k
b10 &
b10 e
b10 $"
b1 u
b10000000010000000000 t
b10000000000 r
0s
b100000 z
b10 |
b1 {
b1010000000010000000000 }
b100100000 ""
b1 !"
b1010000000010000000000 f
b10101011 B
b100 g
1-
#740000
0-
#745000
b10000 G
b0 '
b0 5
b0 >
b0 D
b0 [
b0 '"
b0 )"
b0 2"
b0 5"
b0 8"
bz (
bz 4
bz @
bz #"
09
01"
b0 2
b0 ("
b0 *
b0 c
b0 $
b0 k
b0 &
b0 e
b0 $"
b0 f
b0 g
1-
#750000
0-
#754000
b10101011 (
b10101011 4
b10101011 @
b10101011 #"
19
b1 2
b1 *
b1 c
#755000
b1 g
bz (
bz 4
bz @
bz #"
09
b0 2
b0 ,
b0 a
b0 *
b0 c
b101 1
b1111000001100000011000001000001010000100010000000101000011010010110010001100101011011100111010001101001011101000111100100101001 <"
1-
