alu.vcd
$date
	Thu May 14 12:10:19 2026
$end
$version
	Icarus Verilog
$end
$timescale
	1ps
$end
$scope module controller_alu $end
$var wire 16 ! reg_bus [15:0] $end
$var wire 16 " status_reg [15:0] $end
$var wire 2 # r2 [1:0] $end
$var wire 2 $ r1 [1:0] $end
$var wire 2 % r0 [1:0] $end
$var wire 16 & imm_bus [15:0] $end
$var wire 4 ' bus_sel [3:0] $end
$var wire 16 ( bus [15:0] $end
$var wire 16 ) alu_bus [15:0] $end
$var wire 5 * SR [4:0] $end
$var wire 2 + G [1:0] $end
$var wire 4 , ALU [3:0] $end
$var wire 2 - A [1:0] $end
$var reg 1 . clk $end
$var reg 16 / instruction [15:0] $end
$var reg 1 0 status_register $end
$var integer 32 1 fail [31:0] $end
$var integer 32 2 pass [31:0] $end
$scope module alu $end
$var wire 1 . clk $end
$var wire 4 3 control_plane [3:0] $end
$var wire 1 4 rst $end
$var wire 16 5 status_bus [15:0] $end
$var wire 16 6 output_bus [15:0] $end
$var wire 16 7 input_bus [15:0] $end
$var wire 16 8 g_reg_wire [15:0] $end
$var wire 4 9 alu_ctl [3:0] $end
$var wire 16 : accumulator_wire [15:0] $end
$var wire 1 ; G_tri $end
$var wire 1 < G_en $end
$var wire 1 = A_tri $end
$var wire 1 > A_en $end
$scope module A $end
$var wire 1 . clk $end
$var wire 1 > load $end
$var wire 1 = o_en $end
$var wire 1 4 rst $end
$var wire 16 ? o [15:0] $end
$var wire 16 @ d [15:0] $end
$var reg 16 A data_wire [15:0] $end
$upscope $end
$scope module G $end
$var wire 1 . clk $end
$var wire 1 < load $end
$var wire 1 ; o_en $end
$var wire 1 4 rst $end
$var wire 16 B o [15:0] $end
$var wire 16 C d [15:0] $end
$var reg 16 D data_wire [15:0] $end
$upscope $end
$scope module alu_compute $end
$var wire 16 E a [15:0] $end
$var wire 16 F b [15:0] $end
$var wire 4 G alu_ctl [3:0] $end
$var reg 16 H result [15:0] $end
$var reg 16 I status [15:0] $end
$scope task add $end
$var reg 16 J a [15:0] $end
$var reg 16 K b [15:0] $end
$var reg 1 L carry $end
$var reg 1 M negative $end
$var reg 1 N overflow $end
$var reg 16 O result [15:0] $end
$var reg 16 P status [15:0] $end
$var reg 17 Q tmp [16:0] $end
$var reg 1 R zero $end
$upscope $end
$scope task sub $end
$var reg 16 S a [15:0] $end
$var reg 16 T b [15:0] $end
$var reg 1 U carry $end
$var reg 1 V negative $end
$var reg 16 W result [15:0] $end
$var reg 16 X status [15:0] $end
$var reg 17 Y tmp [16:0] $end
$var reg 1 Z underflow $end
$var reg 1 [ zero $end
$upscope $end
$upscope $end
$upscope $end
$scope module dut $end
$var wire 1 . clk $end
$var wire 16 \ instruction [15:0] $end
$var wire 1 0 status_register $end
$var wire 16 ] curr_comm_bus [15:0] $end
$var parameter 3 ^ C_DECODE $end
$var parameter 3 _ C_EXECUTE $end
$var parameter 3 ` C_FETCH $end
$var parameter 3 a C_LOAD $end
$var parameter 3 b C_WRITE $end
$var reg 2 c A [1:0] $end
$var reg 4 d ALU [3:0] $end
$var reg 2 e G [1:0] $end
$var reg 5 f SR [4:0] $end
$var reg 4 g bus_sel [3:0] $end
$var reg 24 h control_plane [23:0] $end
$var reg 3 i controller_state [2:0] $end
$var reg 4 j op_code [3:0] $end
$var reg 16 k out_comm_bus [15:0] $end
$var reg 12 l params [11:0] $end
$var reg 2 m r0 [1:0] $end
$var reg 2 n r1 [1:0] $end
$var reg 2 o r2 [1:0] $end
$scope task execute_step $end
$var reg 4 p Ry [3:0] $end
$var reg 24 q control_plane [23:0] $end
$var reg 4 r opcode [3:0] $end
$var reg 12 s params [11:0] $end
$upscope $end
$scope task get_register $end
$var reg 24 t curr_control_plane [23:0] $end
$var reg 1 u is_output $end
$var reg 24 v output_control_plane [23:0] $end
$var reg 4 w rx [3:0] $end
$upscope $end
$scope task load_step $end
$var reg 4 x Rx [3:0] $end
$var reg 24 y control_plane [23:0] $end
$var reg 4 z opcode [3:0] $end
$var reg 12 { params [11:0] $end
$upscope $end
$scope task writeback_step $end
$var reg 16 | D [15:0] $end
$var reg 4 } Rx [3:0] $end
$var reg 4 ~ Ry [3:0] $end
$var reg 24 !" control_plane [23:0] $end
$var reg 16 "" imm_bus [15:0] $end
$var reg 4 #" opcode [3:0] $end
$var reg 12 $" params [11:0] $end
$upscope $end
$upscope $end
$scope module mux $end
$var wire 16 %" alu [15:0] $end
$var wire 4 &" bus_sel [3:0] $end
$var wire 16 '" immediate [15:0] $end
$var wire 16 (" registers [15:0] $end
$var reg 16 )" bus_out [15:0] $end
$upscope $end
$scope module rf $end
$var wire 1 . clk $end
$var wire 6 *" control_plane [5:0] $end
$var wire 16 +" input_bus [15:0] $end
$var wire 16 ," output_bus [15:0] $end
$var wire 1 -" rst $end
$var wire 1 ." R3_tri $end
$var wire 1 /" R3_en $end
$var wire 1 0" R2_tri $end
$var wire 1 1" R2_en $end
$var wire 1 2" R1_tri $end
$var wire 1 3" R1_en $end
$scope module R1 $end
$var wire 1 . clk $end
$var wire 16 4" d [15:0] $end
$var wire 1 3" load $end
$var wire 16 5" o [15:0] $end
$var wire 1 2" o_en $end
$var wire 1 -" rst $end
$var reg 16 6" data_wire [15:0] $end
$upscope $end
$scope module R2 $end
$var wire 1 . clk $end
$var wire 16 7" d [15:0] $end
$var wire 1 1" load $end
$var wire 16 8" o [15:0] $end
$var wire 1 0" o_en $end
$var wire 1 -" rst $end
$var reg 16 9" data_wire [15:0] $end
$upscope $end
$scope module R3 $end
$var wire 1 . clk $end
$var wire 16 :" d [15:0] $end
$var wire 1 /" load $end
$var wire 16 ;" o [15:0] $end
$var wire 1 ." o_en $end
$var wire 1 -" rst $end
$var reg 16 <" data_wire [15:0] $end
$upscope $end
$upscope $end
$scope task check $end
$var reg 64 =" cond [63:0] $end
$var reg 128 >" msg [127:0] $end
$upscope $end
$scope task tick $end
$upscope $end
$upscope $end
$enddefinitions $end
$comment Show the parameter values. $end
$dumpall
b100 b
b10 a
b0 `
b11 _
b1 ^
$end
#0
$dumpvars
bx >"
bx ="
bx <"
bz ;"
b0 :"
bx 9"
bz 8"
b0 7"
bx 6"
bz 5"
b0 4"
03"
02"
01"
00"
0/"
0."
0-"
bz ,"
b0 +"
b0 *"
b0 )"
bz ("
bx '"
b0 &"
bz %"
bx $"
bx #"
bx ""
bx !"
bx ~
bx }
bx |
bx {
bx z
bx y
bx x
bx w
bx v
xu
bx t
bx s
bx r
bx q
bx p
b0 o
b0 n
b0 m
b0 l
bx k
b0 j
b0 i
b0 h
b0 g
b0 f
b0 e
b0 d
b0 c
b0 ]
b100000100000101 \
x[
xZ
bx Y
bx X
bx W
xV
xU
bx T
bx S
xR
bx Q
bx P
bx O
xN
xM
xL
bx K
bx J
b10000 I
b1101111010101101 H
b0 G
b0 F
bz E
bx D
b1101111010101101 C
bz B
bx A
b0 @
bz ?
0>
0=
0<
0;
bz :
b0 9
b1101111010101101 8
b0 7
bz 6
bz 5
04
b0 3
b0 2
b0 1
00
b100000100000101 /
0.
b0 -
b0 ,
b0 +
b0 *
bz )
b0 (
b0 '
bx &
b0 %
b0 $
b0 #
bz "
bz !
$end
#5000
b1 i
1.
#10000
0.
#15000
b1 x
b0 y
b100000101 {
b100 z
b10 i
b100000101 l
b100 j
1.
#20000
0.
#25000
b0 p
b0 q
b100000101 s
b100 r
b11 i
1.
#30000
0.
#35000
b10000 I
b101 (
b101 7
b101 @
b101 F
b101 ]
b101 )"
b101 +"
b101 4"
b101 7"
b101 :"
13"
b100000 *"
b10 %
b10 m
b1 '
b1 g
b1 &"
b101 &
b101 k
b101 '"
b110000000000000000000 h
b101 ""
b10000000000000000000 v
b0 t
0u
b1 w
b101 |
b0 ~
b1 }
b110000000000000000000 !"
b100000101 $"
b100 #"
b100 i
1.
#40000
0.
#45000
b10000 I
b0 (
b0 7
b0 @
b0 F
b0 ]
b0 )"
b0 +"
b0 4"
b0 7"
b0 :"
03"
b0 *"
b0 %
b0 m
b0 '
b0 g
b0 &"
b0 h
b0 i
b101 6"
1.
#50000
0.
b100001000000011 /
b100001000000011 \
#55000
b1 i
1.
#60000
0.
#65000
b10 x
b1000000011 {
b10 i
b1000000011 l
1.
#70000
0.
#75000
b1000000011 s
b11 i
1.
#80000
0.
#85000
b10000 I
b11 (
b11 7
b11 @
b11 F
b11 ]
b11 )"
b11 +"
b11 4"
b11 7"
b11 :"
11"
b1000 *"
b10 $
b10 n
b1 '
b1 g
b1 &"
b11 &
b11 k
b11 '"
b100100000000000000000 h
b11 ""
b100000000000000000 v
b10 w
b11 |
b10 }
b100100000000000000000 !"
b1000000011 $"
b100 i
1.
#90000
0.
#95000
b10000 I
b0 (
b0 7
b0 @
b0 F
b0 ]
b0 )"
b0 +"
b0 4"
b0 7"
b0 :"
01"
b0 *"
b0 $
b0 n
b0 '
b0 g
b0 &"
b0 h
b0 i
b11 9"
1.
#100000
0.
b1000100100000 /
b1000100100000 \
#105000
b1 i
1.
#110000
0.
#115000
b10000 I
b101 (
b101 7
b101 @
b101 F
b101 ]
b101 )"
b101 +"
b101 4"
b101 7"
b101 :"
b101 !
b101 ("
b101 ,"
b101 5"
b101 8"
b101 ;"
1>
12"
b1000 3
b10000 *"
b10 -
b10 c
b1 %
b1 m
b11 '
b11 g
b11 &"
b1101000010000000000000 h
b1000000000000000000 t
b1101000010000000000000 y
b1000010000000000000 v
0u
b100 w
b1 x
b100100000 {
b1 z
b10 i
b100100000 l
b1 j
1.
#120000
0.
#125000
b11 (
b11 7
b11 @
b11 F
b11 ]
b11 )"
b11 +"
b11 4"
b11 7"
b11 :"
b11 !
b11 ("
b11 ,"
b11 5"
b11 8"
b11 ;"
bx0000 P
0N
0R
0L
0M
b1000 O
b1000 Q
0>
1<
02"
10"
b101 :
b101 ?
b101 E
b1000 8
b1000 C
b1000 H
b11 K
b101 J
bx0000 I
b10 3
b100 *"
1=
b1 ,
b1 9
b1 G
b1 d
b10 +
b10 e
b0 -
b0 c
b1 $
b1 n
b0 %
b0 m
b10000100000000001 v
b10000000000000001 t
0u
b101 w
b1100010000100000000001 q
b10 p
b100100000 s
b1 r
b1100010000100000000001 h
b101 A
b11 i
1.
#130000
0.
#135000
b1000 (
b1000 7
b1000 @
b1000 F
b1000 ]
b1000 )"
b1000 +"
b1000 4"
b1000 7"
b1000 :"
b1000 )
b1000 6
b1000 B
b1000 %"
bz !
bz ("
bz ,"
bz 5"
bz 8"
bz ;"
0<
1;
13"
00"
bz :
bz ?
bz E
b1101111010101101 8
b1101111010101101 C
b1101111010101101 H
b10000 I
b1 3
b100000 *"
0=
b0 ,
b0 9
b0 G
b0 d
b1 +
b1 e
b0 $
b0 n
b10 %
b10 m
b10 '
b10 g
b10 &"
b1 w
b10000000010000000000 v
b10000000000 t
0u
b100000 |
b10 ~
b1 }
b1010000000010000000000 !"
b100100000 $"
b1 #"
b1010000000010000000000 h
b1000 D
b100 i
1.
#140000
0.
#145000
b10000 I
b0 (
b0 7
b0 @
b0 F
b0 ]
b0 )"
b0 +"
b0 4"
b0 7"
b0 :"
bz )
bz 6
bz B
bz %"
0;
03"
b0 3
b0 *"
b0 +
b0 e
b0 %
b0 m
b0 '
b0 g
b0 &"
b0 h
b0 i
b1000 6"
1.
#150000
b1000 )
b1000 6
b1000 B
b1000 %"
1;
b1 3
0.
b1 +
b1 e
#151000
bz )
bz 6
bz B
bz %"
0;
b0 3
b100000111111111 /
b100000111111111 \
b0 -
b0 c
b0 +
b0 e
b1 2
b100000001100000111100000110000001100000011000000110011001000000011110100100000001100000111100000110000001100000011000000111000 >"
b1 ="
#155000
b1 i
1.
#160000
0.
#165000
b0 y
b111111111 {
b100 z
b10 i
b111111111 l
b100 j
1.
#170000
0.
#175000
b1111 p
b0 q
b111111111 s
b100 r
b11 i
1.
#180000
0.
#185000
b10000 I
b11111111 (
b11111111 7
b11111111 @
b11111111 F
b11111111 ]
b11111111 )"
b11111111 +"
b11111111 4"
b11111111 7"
b11111111 :"
13"
b100000 *"
b10 %
b10 m
b1 '
b1 g
b1 &"
b11111111 &
b11111111 k
b11111111 '"
b110000000000000000000 h
b11111111 ""
b10000000000000000000 v
b0 t
b11111111 |
b1111 ~
b110000000000000000000 !"
b111111111 $"
b100 #"
b100 i
1.
#190000
0.
#195000
b10000 I
b0 (
b0 7
b0 @
b0 F
b0 ]
b0 )"
b0 +"
b0 4"
b0 7"
b0 :"
03"
b0 *"
b0 %
b0 m
b0 '
b0 g
b0 &"
b0 h
b0 i
b11111111 6"
1.
#200000
0.
#201000
b100001000000001 /
b100001000000001 \
#205000
b1 i
1.
#210000
0.
#215000
b10 x
b1000000001 {
b10 i
b1000000001 l
1.
#220000
0.
#225000
b0 p
b1000000001 s
b11 i
1.
#230000
0.
#235000
b10000 I
b1 (
b1 7
b1 @
b1 F
b1 ]
b1 )"
b1 +"
b1 4"
b1 7"
b1 :"
11"
b1000 *"
b10 $
b10 n
b1 '
b1 g
b1 &"
b1 &
b1 k
b1 '"
b100100000000000000000 h
b1 ""
b100000000000000000 v
b10 w
b1 |
b0 ~
b10 }
b100100000000000000000 !"
b1000000001 $"
b100 i
1.
#240000
0.
#245000
b10000 I
b0 (
b0 7
b0 @
b0 F
b0 ]
b0 )"
b0 +"
b0 4"
b0 7"
b0 :"
01"
b0 *"
b0 $
b0 n
b0 '
b0 g
b0 &"
b0 h
b0 i
b1 9"
1.
#250000
0.
#251000
b1000100100000 /
b1000100100000 \
#255000
b1 i
1.
#260000
0.
#265000
b10000 I
b11111111 (
b11111111 7
b11111111 @
b11111111 F
b11111111 ]
b11111111 )"
b11111111 +"
b11111111 4"
b11111111 7"
b11111111 :"
b11111111 !
b11111111 ("
b11111111 ,"
b11111111 5"
b11111111 8"
b11111111 ;"
1>
12"
b1000 3
b10000 *"
b10 -
b10 c
b1 %
b1 m
b11 '
b11 g
b11 &"
b1101000010000000000000 h
b1000000000000000000 t
b1101000010000000000000 y
b1000010000000000000 v
0u
b100 w
b1 x
b100100000 {
b1 z
b10 i
b100100000 l
b1 j
1.
#270000
0.
#275000
b1 (
b1 7
b1 @
b1 F
b1 ]
b1 )"
b1 +"
b1 4"
b1 7"
b1 :"
b1 !
b1 ("
b1 ,"
b1 5"
b1 8"
b1 ;"
0>
1<
02"
10"
b11111111 :
b11111111 ?
b11111111 E
b100000000 8
b100000000 C
b100000000 H
bx0000 P
0N
0R
0L
0M
b100000000 O
b100000000 Q
b1 K
b11111111 J
bx0000 I
b10 3
b100 *"
1=
b1 ,
b1 9
b1 G
b1 d
b10 +
b10 e
b0 -
b0 c
b1 $
b1 n
b0 %
b0 m
b10000100000000001 v
b10000000000000001 t
0u
b101 w
b1100010000100000000001 q
b10 p
b100100000 s
b1 r
b1100010000100000000001 h
b11111111 A
b11 i
1.
#280000
0.
#285000
b100000000 (
b100000000 7
b100000000 @
b100000000 F
b100000000 ]
b100000000 )"
b100000000 +"
b100000000 4"
b100000000 7"
b100000000 :"
b100000000 )
b100000000 6
b100000000 B
b100000000 %"
bz !
bz ("
bz ,"
bz 5"
bz 8"
bz ;"
0<
1;
13"
00"
bz :
bz ?
bz E
b1101111010101101 8
b1101111010101101 C
b1101111010101101 H
b10000 I
b1 3
b100000 *"
0=
b0 ,
b0 9
b0 G
b0 d
b1 +
b1 e
b0 $
b0 n
b10 %
b10 m
b10 '
b10 g
b10 &"
b1 w
b10000000010000000000 v
b10000000000 t
0u
b100000 |
b10 ~
b1 }
b1010000000010000000000 !"
b100100000 $"
b1 #"
b1010000000010000000000 h
b100000000 D
b100 i
1.
#290000
0.
#295000
b10000 I
b0 (
b0 7
b0 @
b0 F
b0 ]
b0 )"
b0 +"
b0 4"
b0 7"
b0 :"
bz )
bz 6
bz B
bz %"
0;
03"
b0 3
b0 *"
b0 +
b0 e
b0 %
b0 m
b0 '
b0 g
b0 &"
b0 h
b0 i
b100000000 6"
1.
#300000
0.
#301000
b100000000 )
b100000000 6
b100000000 B
b100000000 %"
1;
b1 3
b1 +
b1 e
#302000
bz )
bz 6
bz B
bz %"
0;
b0 3
b100000100001010 /
b100000100001010 \
b0 -
b0 c
b0 +
b0 e
b10 2
b100000001100000111100000110000001100000011000000110001001000000011110100100000001100000111100000110000001100010011000000110000 >"
#305000
b1 i
1.
#310000
0.
#315000
b0 y
b100001010 {
b100 z
b10 i
b100001010 l
b100 j
1.
#320000
0.
#325000
b0 p
b0 q
b100001010 s
b100 r
b11 i
1.
#330000
0.
#335000
b10000 I
b1010 (
b1010 7
b1010 @
b1010 F
b1010 ]
b1010 )"
b1010 +"
b1010 4"
b1010 7"
b1010 :"
13"
b100000 *"
b10 %
b10 m
b1 '
b1 g
b1 &"
b1010 &
b1010 k
b1010 '"
b110000000000000000000 h
b1010 ""
b10000000000000000000 v
b0 t
b1010 |
b0 ~
b110000000000000000000 !"
b100001010 $"
b100 #"
b100 i
1.
#340000
0.
#345000
b10000 I
b0 (
b0 7
b0 @
b0 F
b0 ]
b0 )"
b0 +"
b0 4"
b0 7"
b0 :"
03"
b0 *"
b0 %
b0 m
b0 '
b0 g
b0 &"
b0 h
b0 i
b1010 6"
1.
#350000
0.
#352000
b100001000000011 /
b100001000000011 \
#355000
b1 i
1.
#360000
0.
#365000
b10 x
b1000000011 {
b10 i
b1000000011 l
1.
#370000
0.
#375000
b1000000011 s
b11 i
1.
#380000
0.
#385000
b10000 I
b11 (
b11 7
b11 @
b11 F
b11 ]
b11 )"
b11 +"
b11 4"
b11 7"
b11 :"
11"
b1000 *"
b10 $
b10 n
b1 '
b1 g
b1 &"
b11 &
b11 k
b11 '"
b100100000000000000000 h
b11 ""
b100000000000000000 v
b10 w
b11 |
b10 }
b100100000000000000000 !"
b1000000011 $"
b100 i
1.
#390000
0.
#395000
b10000 I
b0 (
b0 7
b0 @
b0 F
b0 ]
b0 )"
b0 +"
b0 4"
b0 7"
b0 :"
01"
b0 *"
b0 $
b0 n
b0 '
b0 g
b0 &"
b0 h
b0 i
b11 9"
1.
#400000
0.
#402000
b10000100100000 /
b10000100100000 \
#405000
b1 i
1.
#410000
0.
#415000
b10000 I
b1010 (
b1010 7
b1010 @
b1010 F
b1010 ]
b1010 )"
b1010 +"
b1010 4"
b1010 7"
b1010 :"
b1010 !
b1010 ("
b1010 ,"
b1010 5"
b1010 8"
b1010 ;"
1>
12"
b1000 3
b10000 *"
b10 -
b10 c
b1 %
b1 m
b11 '
b11 g
b11 &"
b1101000010000000000000 h
b1000000000000000000 t
b1101000010000000000000 y
b1000010000000000000 v
0u
b100 w
b1 x
b100100000 {
b10 z
b10 i
b100100000 l
b10 j
1.
#420000
0.
#425000
b11 (
b11 7
b11 @
b11 F
b11 ]
b11 )"
b11 +"
b11 4"
b11 7"
b11 :"
b11 !
b11 ("
b11 ,"
b11 5"
b11 8"
b11 ;"
bx0000 X
0Z
0[
0U
0V
b111 W
b111 Y
0>
1<
02"
10"
b1010 :
b1010 ?
b1010 E
b111 8
b111 C
b111 H
b11 T
b1010 S
bx0000 I
b10 3
b100 *"
1=
b10 ,
b10 9
b10 G
b10 d
b10 +
b10 e
b0 -
b0 c
b1 $
b1 n
b0 %
b0 m
b10000100000000010 v
b10000000000000010 t
0u
b101 w
b1100010000100000000010 q
b10 p
b100100000 s
b10 r
b1100010000100000000010 h
b1010 A
b11 i
1.
#430000
0.
#435000
b111 (
b111 7
b111 @
b111 F
b111 ]
b111 )"
b111 +"
b111 4"
b111 7"
b111 :"
b111 )
b111 6
b111 B
b111 %"
bz !
bz ("
bz ,"
bz 5"
bz 8"
bz ;"
0<
1;
13"
00"
bz :
bz ?
bz E
b1101111010101101 8
b1101111010101101 C
b1101111010101101 H
b10000 I
b1 3
b100000 *"
0=
b0 ,
b0 9
b0 G
b0 d
b1 +
b1 e
b0 $
b0 n
b10 %
b10 m
b10 '
b10 g
b10 &"
b1 w
b10000000010000000000 v
b10000000000 t
0u
b100000 |
b10 ~
b1 }
b1010000000010000000000 !"
b100100000 $"
b10 #"
b1010000000010000000000 h
b111 D
b100 i
1.
#440000
0.
#445000
b10000 I
b0 (
b0 7
b0 @
b0 F
b0 ]
b0 )"
b0 +"
b0 4"
b0 7"
b0 :"
bz )
bz 6
bz B
bz %"
0;
03"
b0 3
b0 *"
b0 +
b0 e
b0 %
b0 m
b0 '
b0 g
b0 &"
b0 h
b0 i
b111 6"
1.
#450000
0.
#452000
b111 )
b111 6
b111 B
b111 %"
1;
b1 3
b1 +
b1 e
#453000
bz )
bz 6
bz B
bz %"
0;
b0 3
b100000100000000 /
b100000100000000 \
b0 -
b0 c
b0 +
b0 e
b11 2
b100000001100000111100000110000001100000011000000110011001000000011110100100000001100000111100000110000001100000011000000110111 >"
#455000
b1 i
1.
#460000
0.
#465000
b0 y
b100000000 {
b100 z
b10 i
b100000000 l
b100 j
1.
#470000
0.
#475000
b0 p
b0 q
b100000000 s
b100 r
b11 i
1.
#480000
0.
#485000
13"
b100000 *"
b10 %
b10 m
b1 '
b1 g
b1 &"
b0 &
b0 k
b0 '"
b110000000000000000000 h
b0 ""
b10000000000000000000 v
b0 t
b0 |
b0 ~
b110000000000000000000 !"
b100000000 $"
b100 #"
b100 i
1.
#490000
0.
#495000
03"
b0 *"
b0 %
b0 m
b0 '
b0 g
b0 &"
b0 h
b0 i
b0 6"
1.
#500000
0.
#503000
b100001000000001 /
b100001000000001 \
#505000
b1 i
1.
#510000
0.
#515000
b10 x
b1000000001 {
b10 i
b1000000001 l
1.
#520000
0.
#525000
b1000000001 s
b11 i
1.
#530000
0.
#535000
b10000 I
b1 (
b1 7
b1 @
b1 F
b1 ]
b1 )"
b1 +"
b1 4"
b1 7"
b1 :"
11"
b1000 *"
b10 $
b10 n
b1 '
b1 g
b1 &"
b1 &
b1 k
b1 '"
b100100000000000000000 h
b1 ""
b100000000000000000 v
b10 w
b1 |
b10 }
b100100000000000000000 !"
b1000000001 $"
b100 i
1.
#540000
0.
#545000
b10000 I
b0 (
b0 7
b0 @
b0 F
b0 ]
b0 )"
b0 +"
b0 4"
b0 7"
b0 :"
01"
b0 *"
b0 $
b0 n
b0 '
b0 g
b0 &"
b0 h
b0 i
b1 9"
1.
#550000
0.
#553000
b10000100100000 /
b10000100100000 \
#555000
b1 i
1.
#560000
0.
#565000
b10000 I
b0 (
b0 7
b0 @
b0 F
b0 ]
b0 )"
b0 +"
b0 4"
b0 7"
b0 :"
b0 !
b0 ("
b0 ,"
b0 5"
b0 8"
b0 ;"
1>
12"
b1000 3
b10000 *"
b10 -
b10 c
b1 %
b1 m
b11 '
b11 g
b11 &"
b1101000010000000000000 h
b1000000000000000000 t
b1101000010000000000000 y
b1000010000000000000 v
0u
b100 w
b1 x
b100100000 {
b10 z
b10 i
b100100000 l
b10 j
1.
#570000
0.
#575000
b1 (
b1 7
b1 @
b1 F
b1 ]
b1 )"
b1 +"
b1 4"
b1 7"
b1 :"
b1 !
b1 ("
b1 ,"
b1 5"
b1 8"
b1 ;"
0>
1<
02"
10"
b0 :
b0 ?
b0 E
b1111111111111111 8
b1111111111111111 C
b1111111111111111 H
bx0111 X
1Z
0[
1U
1V
b1111111111111111 W
b11111111111111111 Y
b1 T
b0 S
bx0111 I
b10 3
b100 *"
1=
b10 ,
b10 9
b10 G
b10 d
b10 +
b10 e
b0 -
b0 c
b1 $
b1 n
b0 %
b0 m
b10000100000000010 v
b10000000000000010 t
0u
b101 w
b1100010000100000000010 q
b10 p
b100100000 s
b10 r
b1100010000100000000010 h
b0 A
b11 i
1.
#580000
0.
#585000
b1111111111111111 (
b1111111111111111 7
b1111111111111111 @
b1111111111111111 F
b1111111111111111 ]
b1111111111111111 )"
b1111111111111111 +"
b1111111111111111 4"
b1111111111111111 7"
b1111111111111111 :"
b1111111111111111 )
b1111111111111111 6
b1111111111111111 B
b1111111111111111 %"
bz !
bz ("
bz ,"
bz 5"
bz 8"
bz ;"
0<
1;
13"
00"
bz :
bz ?
bz E
b1101111010101101 8
b1101111010101101 C
b1101111010101101 H
b10000 I
b1 3
b100000 *"
0=
b0 ,
b0 9
b0 G
b0 d
b1 +
b1 e
b0 $
b0 n
b10 %
b10 m
b10 '
b10 g
b10 &"
b1 w
b10000000010000000000 v
b10000000000 t
0u
b100000 |
b10 ~
b1 }
b1010000000010000000000 !"
b100100000 $"
b10 #"
b1010000000010000000000 h
b1111111111111111 D
b100 i
1.
#590000
0.
#595000
b10000 I
b0 (
b0 7
b0 @
b0 F
b0 ]
b0 )"
b0 +"
b0 4"
b0 7"
b0 :"
bz )
bz 6
bz B
bz %"
0;
03"
b0 3
b0 *"
b0 +
b0 e
b0 %
b0 m
b0 '
b0 g
b0 &"
b0 h
b0 i
b1111111111111111 6"
1.
#600000
0.
#603000
b1111111111111111 )
b1111111111111111 6
b1111111111111111 B
b1111111111111111 %"
1;
b1 3
b1 +
b1 e
#604000
bz )
bz 6
bz B
bz %"
0;
b0 3
b100000110101011 /
b100000110101011 \
b0 -
b0 c
b0 +
b0 e
b100 2
b1000110010001100100011001000110001000000010100001110101011011100110010001100101011100100110011001101100011011110111011100101001 >"
#605000
b1 i
1.
#610000
0.
#615000
b0 y
b110101011 {
b100 z
b10 i
b110101011 l
b100 j
1.
#620000
0.
#625000
b1010 p
b0 q
b110101011 s
b100 r
b11 i
1.
#630000
0.
#635000
b10000 I
b10101011 (
b10101011 7
b10101011 @
b10101011 F
b10101011 ]
b10101011 )"
b10101011 +"
b10101011 4"
b10101011 7"
b10101011 :"
13"
b100000 *"
b10 %
b10 m
b1 '
b1 g
b1 &"
b10101011 &
b10101011 k
b10101011 '"
b110000000000000000000 h
b10101011 ""
b10000000000000000000 v
b0 t
b10101011 |
b1010 ~
b110000000000000000000 !"
b110101011 $"
b100 #"
b100 i
1.
#640000
0.
#645000
b10000 I
b0 (
b0 7
b0 @
b0 F
b0 ]
b0 )"
b0 +"
b0 4"
b0 7"
b0 :"
03"
b0 *"
b0 %
b0 m
b0 '
b0 g
b0 &"
b0 h
b0 i
b10101011 6"
1.
#650000
0.
#654000
b100001000000000 /
b100001000000000 \
#655000
b1 i
1.
#660000
0.
#665000
b10 x
b1000000000 {
b10 i
b1000000000 l
1.
#670000
0.
#675000
b0 p
b1000000000 s
b11 i
1.
#680000
0.
#685000
11"
b1000 *"
b10 $
b10 n
b1 '
b1 g
b1 &"
b0 &
b0 k
b0 '"
b100100000000000000000 h
b0 ""
b100000000000000000 v
b10 w
b0 |
b0 ~
b10 }
b100100000000000000000 !"
b1000000000 $"
b100 i
1.
#690000
0.
#695000
01"
b0 *"
b0 $
b0 n
b0 '
b0 g
b0 &"
b0 h
b0 i
b0 9"
1.
#700000
0.
#704000
b1000100100000 /
b1000100100000 \
#705000
b1 i
1.
#710000
0.
#715000
b10000 I
b10101011 (
b10101011 7
b10101011 @
b10101011 F
b10101011 ]
b10101011 )"
b10101011 +"
b10101011 4"
b10101011 7"
b10101011 :"
b10101011 !
b10101011 ("
b10101011 ,"
b10101011 5"
b10101011 8"
b10101011 ;"
1>
12"
b1000 3
b10000 *"
b10 -
b10 c
b1 %
b1 m
b11 '
b11 g
b11 &"
b1101000010000000000000 h
b1000000000000000000 t
b1101000010000000000000 y
b1000010000000000000 v
0u
b100 w
b1 x
b100100000 {
b1 z
b10 i
b100100000 l
b1 j
1.
#720000
0.
#725000
b0 (
b0 7
b0 @
b0 F
b0 ]
b0 )"
b0 +"
b0 4"
b0 7"
b0 :"
b0 !
b0 ("
b0 ,"
b0 5"
b0 8"
b0 ;"
0>
1<
02"
10"
b10101011 :
b10101011 ?
b10101011 E
b10101011 8
b10101011 C
b10101011 H
bx0000 P
0N
0R
0L
0M
b10101011 O
b10101011 Q
b0 K
b10101011 J
bx0000 I
b10 3
b100 *"
1=
b1 ,
b1 9
b1 G
b1 d
b10 +
b10 e
b0 -
b0 c
b1 $
b1 n
b0 %
b0 m
b10000100000000001 v
b10000000000000001 t
0u
b101 w
b1100010000100000000001 q
b10 p
b100100000 s
b1 r
b1100010000100000000001 h
b10101011 A
b11 i
1.
#730000
0.
#735000
b10101011 (
b10101011 7
b10101011 @
b10101011 F
b10101011 ]
b10101011 )"
b10101011 +"
b10101011 4"
b10101011 7"
b10101011 :"
b10101011 )
b10101011 6
b10101011 B
b10101011 %"
bz !
bz ("
bz ,"
bz 5"
bz 8"
bz ;"
0<
1;
13"
00"
bz :
bz ?
bz E
b1101111010101101 8
b1101111010101101 C
b1101111010101101 H
b10000 I
b1 3
b100000 *"
0=
b0 ,
b0 9
b0 G
b0 d
b1 +
b1 e
b0 $
b0 n
b10 %
b10 m
b10 '
b10 g
b10 &"
b1 w
b10000000010000000000 v
b10000000000 t
0u
b100000 |
b10 ~
b1 }
b1010000000010000000000 !"
b100100000 $"
b1 #"
b1010000000010000000000 h
b10101011 D
b100 i
1.
#740000
0.
#745000
b10000 I
b0 (
b0 7
b0 @
b0 F
b0 ]
b0 )"
b0 +"
b0 4"
b0 7"
b0 :"
bz )
bz 6
bz B
bz %"
0;
03"
b0 3
b0 *"
b0 +
b0 e
b0 %
b0 m
b0 '
b0 g
b0 &"
b0 h
b0 i
1.
#750000
0.
#754000
b10101011 )
b10101011 6
b10101011 B
b10101011 %"
1;
b1 3
b1 +
b1 e
#755000
b1 i
bz )
bz 6
bz B
bz %"
0;
b0 3
b0 -
b0 c
b0 +
b0 e
b101 2
b1111000001100000011000001000001010000100010000000101000011010010110010001100101011011100111010001101001011101000111100100101001 >"
1.
