controller_tb.vcd
$date
	Wed May 13 22:46:44 2026
$end
$version
	Icarus Verilog
$end
$timescale
	1ps
$end
$scope module controller_tb $end
$var wire 2 ! r2 [1:0] $end
$var wire 2 " r1 [1:0] $end
$var wire 2 # r0 [1:0] $end
$var wire 16 $ out_comm_bus [15:0] $end
$var wire 1 % bus_en $end
$var wire 5 & SR [4:0] $end
$var wire 2 ' G [1:0] $end
$var wire 4 ( ALU [3:0] $end
$var wire 2 ) A [1:0] $end
$var parameter 4 * OP_ADD $end
$var parameter 4 + OP_LDI $end
$var parameter 4 , OP_MOV $end
$var parameter 4 - OP_SUB $end
$var parameter 2 . REG_R0 $end
$var parameter 2 / REG_R1 $end
$var parameter 2 0 REG_R2 $end
$var reg 1 1 clk $end
$var reg 16 2 curr_comm_bus [15:0] $end
$var reg 16 3 instruction [15:0] $end
$var reg 1 4 status_register $end
$var integer 32 5 fail_count [31:0] $end
$var integer 32 6 pass_count [31:0] $end
$var integer 32 7 test_id [31:0] $end
$scope module dut $end
$var wire 1 1 clk $end
$var wire 16 8 curr_comm_bus [15:0] $end
$var wire 16 9 instruction [15:0] $end
$var wire 1 4 status_register $end
$var wire 2 : r2 [1:0] $end
$var wire 2 ; r1 [1:0] $end
$var wire 2 < r0 [1:0] $end
$var wire 1 % bus_en $end
$var wire 5 = SR [4:0] $end
$var wire 2 > G [1:0] $end
$var wire 4 ? ALU [3:0] $end
$var wire 2 @ A [1:0] $end
$var parameter 3 A C_DECODE $end
$var parameter 3 B C_EXECUTE $end
$var parameter 3 C C_FETCH $end
$var parameter 3 D C_LOAD $end
$var parameter 3 E C_WRITE $end
$var reg 21 F control_plane [20:0] $end
$var reg 3 G controller_state [2:0] $end
$var reg 4 H op_code [3:0] $end
$var reg 16 I out_comm_bus [15:0] $end
$var reg 12 J params [11:0] $end
$scope task execute_step $end
$var reg 4 K Ry [3:0] $end
$var reg 21 L control_plane [20:0] $end
$var reg 4 M opcode [3:0] $end
$var reg 12 N params [11:0] $end
$upscope $end
$scope task get_register $end
$var reg 21 O curr_control_plane [20:0] $end
$var reg 1 P is_output $end
$var reg 21 Q output_control_plane [20:0] $end
$var reg 4 R rx [3:0] $end
$upscope $end
$scope task load_step $end
$var reg 4 S Rx [3:0] $end
$var reg 21 T control_plane [20:0] $end
$var reg 4 U opcode [3:0] $end
$var reg 12 V params [11:0] $end
$upscope $end
$scope task writeback_step $end
$var reg 4 W D [3:0] $end
$var reg 4 X Rx [3:0] $end
$var reg 4 Y Ry [3:0] $end
$var reg 16 Z comm_bus [15:0] $end
$var reg 21 [ control_plane [20:0] $end
$var reg 16 \ curr_comm_bus [15:0] $end
$var reg 4 ] opcode [3:0] $end
$var reg 12 ^ params [11:0] $end
$upscope $end
$upscope $end
$scope task banner $end
$upscope $end
$scope task check_ctrl $end
$var reg 2 _ exp_A [1:0] $end
$var reg 4 ` exp_ALU [3:0] $end
$var reg 2 a exp_G [1:0] $end
$var reg 5 b exp_SR [4:0] $end
$var reg 1 c exp_bus_en $end
$var reg 2 d exp_r0 [1:0] $end
$var reg 2 e exp_r1 [1:0] $end
$var reg 2 f exp_r2 [1:0] $end
$var reg 256 g name [255:0] $end
$var reg 1 h ok $end
$upscope $end
$scope task check_ctrl_bus $end
$var reg 2 i exp_A [1:0] $end
$var reg 4 j exp_ALU [3:0] $end
$var reg 2 k exp_G [1:0] $end
$var reg 5 l exp_SR [4:0] $end
$var reg 1 m exp_bus_en $end
$var reg 16 n exp_out_bus [15:0] $end
$var reg 2 o exp_r0 [1:0] $end
$var reg 2 p exp_r1 [1:0] $end
$var reg 2 q exp_r2 [1:0] $end
$var reg 256 r name [255:0] $end
$var reg 1 s ok $end
$upscope $end
$scope task tick $end
$upscope $end
$upscope $end
$enddefinitions $end
$comment Show the parameter values. $end
$dumpall
b100 E
b10 D
b0 C
b11 B
b1 A
b11 0
b10 /
b1 .
b10 -
b11 ,
b100 +
b1 *
$end
#0
$dumpvars
xs
bx r
bx q
bx p
bx o
bx n
xm
bx l
bx k
bx j
bx i
xh
bx g
bx f
bx e
bx d
xc
bx b
bx a
bx `
bx _
bx ^
bx ]
bx \
bx [
bx Z
bx Y
bx X
bx W
bx V
bx U
bx T
bx S
bx R
bx Q
xP
bx O
bx N
bx M
bx L
bx K
b0 J
bx I
b0 H
b0 G
bx F
bx @
bx ?
bx >
bx =
bx <
bx ;
bx :
b1011000000000 9
b0 8
b0 7
b0 6
b0 5
04
b1011000000000 3
b0 2
01
bx )
bx (
bx '
bx &
x%
bx $
bx #
bx "
bx !
$end
#5000
b1 G
b0 &
b0 =
0%
b0 #
b0 <
b0 "
b0 ;
b0 !
b0 :
b0 )
b0 @
b0 '
b0 >
b0 (
b0 ?
b0 $
b0 I
b0 F
11
#6000
b1 6
1h
b1 7
b0 b
b0 `
b0 a
b0 _
b0 f
b0 e
b0 d
0c
b10000010100010001000100001000000100011001000101010101000100001101001000 g
#10000
01
#15000
b10 G
b11000000000 J
b1 H
11
#16000
b10 6
b10 7
b1000001010001000100010000100000010001000100010101000011010011110100010001000101 g
#20000
01
#25000
b11 G
b10 #
b10 <
b1 )
b1 @
b10000001000000000000 F
b10000001000000000000 Q
b10000000000000000000 O
0P
b100 R
b1 S
b10000001000000000000 T
b11000000000 V
b1 U
11
#26000
b11 6
b11 7
b1 _
b10 d
b100000101000100010001000010000001001100010011110100000101000100 g
#30000
01
#35000
b100 G
b10 "
b10 ;
b1 '
b1 >
b1 (
b1 ?
b0 #
b0 <
b0 )
b0 @
b100000010000000001 Q
b100000000000000001 O
0P
b101 R
b10 K
b100000010000000001 L
b11000000000 N
b1 M
b100000010000000001 F
11
#36000
b100 6
b100 7
b1 `
b1 a
b0 _
b10 e
b0 d
b100000101000100010001000010000001000101010110000100010101000011010101010101010001000101 g
#40000
01
#45000
b0 G
b1 #
b1 <
b0 "
b0 ;
b10 '
b10 >
b0 (
b0 ?
b1 R
b1000000100000000000 Q
b100000000000 O
0P
b1000 W
b10 Y
b1 X
b0 Z
b1000000100000000000 [
b0 \
b11000000000 ^
b1 ]
b1000000100000000000 F
11
#46000
b10110100000000 3
b10110100000000 9
b101 6
b101 7
b0 `
b10 a
b0 e
b1 d
b1000001010001000100010000100000010101110101001001001001010101000100010101000010010000010100001101001011 g
#50000
01
#55000
b1 G
b0 #
b0 <
b0 '
b0 >
b0 F
11
#56000
b110 6
b110 7
b0 a
b0 d
b10100110101010101000010001000000100011001000101010101000100001101001000 g
#60000
01
#65000
b10 G
b110100000000 J
b10 H
11
#66000
b111 6
b111 7
b1010011010101010100001000100000010001000100010101000011010011110100010001000101 g
#70000
01
#75000
b11 G
b10 !
b10 :
b1 )
b1 @
b1001000000000000 F
b1001000000000000 Q
b1000000000000000 O
0P
b100 R
b11 S
b1001000000000000 T
b110100000000 V
b10 U
11
#76000
b1000 6
b1000 7
b1 _
b10 f
b101001101010101010000100010000001001100010011110100000101000100 g
#80000
01
#85000
b100 G
b10 #
b10 <
b1 '
b1 >
b10 (
b10 ?
b0 !
b0 :
b0 )
b0 @
b10000000010000000010 Q
b10000000000000000010 O
0P
b101 R
b1 K
b10000000010000000010 L
b110100000000 N
b10 M
b10000000010000000010 F
11
#86000
b1001 6
b1001 7
b10 `
b1 a
b0 _
b0 f
b10 d
b101001101010101010000100010000001000101010110000100010101000011010101010101010001000101 g
#90000
01
#95000
b0 G
b1 !
b1 :
b0 #
b0 <
b10 '
b10 >
b0 (
b0 ?
b11 R
b100100000000000 Q
b100000000000 O
0P
b100 W
b1 Y
b11 X
b100100000000000 [
b110100000000 ^
b10 ]
b100100000000000 F
11
#96000
b11101100000000 3
b11101100000000 9
b1010 6
b1010 7
b0 `
b10 a
b1 f
b0 d
b1010011010101010100001000100000010101110101001001001001010101000100010101000010010000010100001101001011 g
#100000
01
#105000
b1 G
b0 !
b0 :
b0 '
b0 >
b0 F
11
#106000
b1011 6
b1011 7
b0 a
b0 f
b10011010100111101010110001000000100011001000101010101000100001101001000 g
#110000
01
#115000
b10 G
b101100000000 J
b11 H
11
#116000
b1100 6
b1100 7
b1001101010011110101011000100000010001000100010101000011010011110100010001000101 g
#120000
01
#125000
b11 G
b10 S
b0 T
b101100000000 V
b11 U
11
#126000
b1101 6
b1101 7
b100110101001111010101100010000001001100010011110100000101000100 g
#130000
01
#135000
b100 G
b11 K
b0 L
b101100000000 N
b11 M
11
#136000
b1110 6
b1110 7
b100110101001111010101100010000001000101010110000100010101000011010101010101010001000101 g
#140000
01
#145000
b0 G
b10 "
b10 ;
b1 !
b1 :
b100100000000000000 F
b100100000000000000 Q
b100000000000000000 O
0P
b11 R
b1100 W
b11 Y
b10 X
b100100000000000000 [
b101100000000 ^
b11 ]
11
#146000
b100011101000000 3
b100011101000000 9
b1 5
0h
b1111 7
b1 f
b10 d
b1001101010011110101011000100000010101110101001001001001010101000100010101000010010000010100001101001011 g
#150000
01
#155000
b1 G
b0 "
b0 ;
b0 !
b0 :
b0 F
11
#156000
b1111 6
1h
b10000 7
b0 f
b0 d
b10011000100010001001001001000000100011001000101010101000100001101001000 g
#160000
01
#165000
b10 G
b11101000000 J
b100 H
11
#166000
b10000 6
b10001 7
b1001100010001000100100100100000010001000100010101000011010011110100010001000101 g
#170000
01
#175000
b11 G
b1 S
b11101000000 V
b100 U
11
#176000
b10001 6
b10010 7
b100110001000100010010010010000001001100010011110100000101000100 g
#180000
01
#185000
b100 G
b11101000000 N
b100 M
11
#186000
b10010 6
b10011 7
b100110001000100010010010010000001000101010110000100010101000011010101010101010001000101 g
#190000
01
#195000
b0 G
1%
b1 #
b1 <
b1101 $
b1101 I
b101000000000000000000 F
b1101 Z
b1000000000000000000 Q
b0 O
b1 R
b1101 W
b1 X
b101000000000000000000 [
b11101000000 ^
b100 ]
11
#196000
b1111000000000000 3
b1111000000000000 9
b10011 6
1s
b10100 7
b1101 n
b0 l
b0 j
b0 k
b0 i
b0 q
b0 p
b1 o
1m
b1001100010001000100100100100000010101110101001001001001010101000100010101000010010000010100001101001011 r
#200000
01
#205000
b1 G
0%
b0 #
b0 <
b0 $
b0 I
b0 F
11
#206000
b10100 6
b10101 7
b10010010100111001010110001000000100011001000101010101000100001101001000 g
#210000
01
#215000
b10 G
b0 J
b1111 H
11
#216000
b10101 6
b10110 7
b1001001010011100101011000100000010001000100010101000011010011110100010001000101 g
#220000
01
#225000
b11 G
b0 S
b0 V
b1111 U
11
#226000
b10110 6
b10111 7
b100100101001110010101100010000001001100010011110100000101000100 g
#230000
01
#235000
b100 G
b0 K
b0 N
b1111 M
11
#236000
b10111 6
b11000 7
b100100101001110010101100010000001000101010110000100010101000011010101010101010001000101 g
#240000
01
#245000
b0 G
b0 W
b0 Y
b0 X
b0 Z
b0 [
b0 ^
b1111 ]
11
#246000
b1101100000000 3
b1101100000000 9
b11000 6
b11001 7
b1001001010011100101011000100000010101110101001001001001010101000100010101000010010000010100001101001011 g
#250000
01
#255000
b1 G
11
#256000
b11001 6
b11010 7
b10000100100001000100000010000010100010001000100001000000100011001000101010101000100001101001000 g
#260000
01
#265000
b10 G
b101100000000 J
b1 H
11
#266000
b11010 6
b11011 7
b1000010010000100010000001000001010001000100010000100000010001000100010101000011010011110100010001000101 g
#270000
01
#275000
b11 G
b10 "
b10 ;
b1 )
b1 @
b100001000000000000 F
b100000000000000000 O
b100001000000000000 T
b100001000000000000 Q
0P
b100 R
b10 S
b101100000000 V
b1 U
11
#276000
b10 5
0h
b11100 7
b1 _
b10 d
b100001001000010001000000100000101000100010001000010000001001100010011110100000101000100 g
#280000
01
#285000
b100 G
b10 !
b10 :
b1 '
b1 >
b1 (
b1 ?
b0 "
b0 ;
b0 )
b0 @
b1000010000000001 Q
b1000000000000001 O
0P
b101 R
b1000010000000001 L
b11 K
b101100000000 N
b1 M
b1000010000000001 F
11
#286000
b11 5
b11101 7
b1 `
b1 a
b0 _
b10 e
b0 d
b100001001000010001000000100000101000100010001000010000001000101010110000100010101000011010101010101010001000101 g
#290000
01
#295000
b0 G
b1 "
b1 ;
b0 !
b0 :
b10 '
b10 >
b0 (
b0 ?
b10 R
b10000100000000000 [
b10000100000000000 Q
b100000000000 O
0P
b1100 W
b11 Y
b10 X
b101100000000 ^
b1 ]
b10000100000000000 F
11
#296000
b10011000000000 3
b10011000000000 9
b100 5
b11110 7
b0 `
b1000010010000100010000001000001010001000100010000100000010101110101001001001001010101000100010101000010010000010100001101001011 g
#300000
01
#305000
b1 G
b0 "
b0 ;
b0 '
b0 >
b0 F
11
#306000
b11011 6
1h
b11111 7
b0 a
b0 e
b10000100100001000100000010100110101010101000010001000000100011001000101010101000100001101001000 g
#310000
01
#315000
b10 G
b11000000000 J
b10 H
11
#316000
b11100 6
b100000 7
b1000010010000100010000001010011010101010100001000100000010001000100010101000011010011110100010001000101 g
#320000
01
#325000
b11 G
b10 #
b10 <
b1 )
b1 @
b10000001000000000000 F
b10000001000000000000 Q
b10000000000000000000 O
0P
b100 R
b1 S
b10000001000000000000 T
b11000000000 V
b10 U
11
#326000
b11101 6
b100001 7
b1 _
b10 d
b100001001000010001000000101001101010101010000100010000001001100010011110100000101000100 g
#330000
01
#335000
b100 G
b10 "
b10 ;
b1 '
b1 >
b10 (
b10 ?
b0 #
b0 <
b0 )
b0 @
b100000010000000010 Q
b100000000000000010 O
0P
b101 R
b10 K
b100000010000000010 L
b11000000000 N
b10 M
b100000010000000010 F
11
#336000
b11110 6
b100010 7
b10 `
b1 a
b0 _
b10 e
b0 d
b100001001000010001000000101001101010101010000100010000001000101010110000100010101000011010101010101010001000101 g
#340000
01
#345000
b0 G
b1 #
b1 <
b0 "
b0 ;
b10 '
b10 >
b0 (
b0 ?
b1 R
b1000000100000000000 Q
b100000000000 O
0P
b1000 W
b10 Y
b1 X
b1000000100000000000 [
b11000000000 ^
b10 ]
b1000000100000000000 F
11
#346000
b11111 6
b100011 7
b0 `
b10 a
b0 e
b1 d
b1000010010000100010000001010011010101010100001000100000010101110101001001001001010101000100010101000010010000010100001101001011 g
