final_cpu.vcd
$date
	Wed May 27 19:24:46 2026
$end
$version
	Icarus Verilog
$end
$timescale
	1ps
$end
$scope module processor_TB $end
$var wire 1 ! zero_flag_debug $end
$var wire 4 " state_debug [3:0] $end
$var wire 8 # sp_debug [7:0] $end
$var wire 8 $ pc_debug [7:0] $end
$var wire 16 % mem20_debug [15:0] $end
$var wire 16 & instruction_debug [15:0] $end
$var wire 1 ' halted_debug $end
$var wire 16 ( bus_debug [15:0] $end
$var wire 16 ) R2_debug [15:0] $end
$var wire 16 * R1_debug [15:0] $end
$var wire 16 + R0_debug [15:0] $end
$var reg 1 , clk $end
$var reg 1 - rst $end
$var integer 32 . fail_count [31:0] $end
$var integer 32 / pass_count [31:0] $end
$scope module uut $end
$var wire 16 0 bus_debug [15:0] $end
$var wire 1 , clk $end
$var wire 1 ' halted_debug $end
$var wire 16 1 instruction_debug [15:0] $end
$var wire 8 2 pc_debug [7:0] $end
$var wire 1 - rst $end
$var wire 8 3 sp_debug [7:0] $end
$var wire 4 4 state_debug [3:0] $end
$var wire 1 ! zero_flag_debug $end
$var wire 1 5 zero_flag $end
$var wire 1 6 use_sp_addr $end
$var wire 1 7 status_en $end
$var wire 1 8 sp_push $end
$var wire 1 9 sp_pop $end
$var wire 2 : reg_out_sel [1:0] $end
$var wire 1 ; reg_out_en $end
$var wire 16 < reg_out_data [15:0] $end
$var wire 2 = reg_in_sel [1:0] $end
$var wire 1 > reg_in_en $end
$var wire 8 ? pc_out [7:0] $end
$var wire 1 @ pc_load $end
$var wire 1 A pc_en $end
$var wire 2 B mode [1:0] $end
$var wire 16 C memory_data [15:0] $end
$var wire 1 D mem_write $end
$var wire 16 E mem20_debug [15:0] $end
$var wire 1 F ir_en $end
$var wire 16 G instruction_from_memory [15:0] $end
$var wire 16 H instruction [15:0] $end
$var wire 8 I imm8 [7:0] $end
$var wire 16 J imm16 [15:0] $end
$var wire 1 K halted $end
$var wire 8 L dmem_addr [7:0] $end
$var wire 4 M controller_state [3:0] $end
$var wire 32 N control_plane [31:0] $end
$var wire 4 O bus_sel [3:0] $end
$var wire 16 P bus [15:0] $end
$var wire 16 Q alu_result [15:0] $end
$var wire 3 R alu_ctl [2:0] $end
$var wire 8 S SP [7:0] $end
$var wire 16 T R2_debug [15:0] $end
$var wire 16 U R1_debug [15:0] $end
$var wire 16 V R0_debug [15:0] $end
$var wire 1 W G_en $end
$var wire 16 X G_data [15:0] $end
$var wire 1 Y A_en $end
$scope module alu_unit $end
$var wire 1 , clk $end
$var wire 1 - rst $end
$var wire 2 Z mode [1:0] $end
$var wire 16 [ bus_in [15:0] $end
$var wire 16 \ alu_result [15:0] $end
$var wire 3 ] alu_ctl [2:0] $end
$var wire 1 W G_en $end
$var wire 16 ^ G_data [15:0] $end
$var wire 1 Y A_en $end
$var wire 16 _ A_data [15:0] $end
$scope module A_reg $end
$var wire 1 , clk $end
$var wire 1 - rst $end
$var wire 1 Y en $end
$var wire 16 ` D [15:0] $end
$var reg 16 a Q [15:0] $end
$upscope $end
$scope module G_reg $end
$var wire 1 , clk $end
$var wire 1 - rst $end
$var wire 1 W en $end
$var wire 16 b D [15:0] $end
$var reg 16 c Q [15:0] $end
$upscope $end
$scope module alu $end
$var wire 16 d A [15:0] $end
$var wire 4 e simd4_sub_d [3:0] $end
$var wire 4 f simd4_sub_c [3:0] $end
$var wire 4 g simd4_sub_b [3:0] $end
$var wire 4 h simd4_sub_a [3:0] $end
$var wire 4 i simd4_add_d [3:0] $end
$var wire 4 j simd4_add_c [3:0] $end
$var wire 4 k simd4_add_b [3:0] $end
$var wire 4 l simd4_add_a [3:0] $end
$var wire 8 m simd2_sub_lo [7:0] $end
$var wire 8 n simd2_sub_hi [7:0] $end
$var wire 8 o simd2_add_lo [7:0] $end
$var wire 8 p simd2_add_hi [7:0] $end
$var wire 2 q mode [1:0] $end
$var wire 3 r alu_ctl [2:0] $end
$var wire 16 s B [15:0] $end
$var reg 16 t Y [15:0] $end
$upscope $end
$upscope $end
$scope module controller $end
$var wire 1 , clk $end
$var wire 1 - rst $end
$var wire 1 5 zero_flag $end
$var wire 16 u instruction [15:0] $end
$var parameter 4 v S_DECODE $end
$var parameter 4 w S_EXEC_ALU $end
$var parameter 4 x S_FETCH $end
$var parameter 4 y S_HALTED $end
$var parameter 4 z S_LOAD_A $end
$var parameter 4 { S_PC_INC $end
$var parameter 4 | S_POP_INC $end
$var parameter 4 } S_POP_READ $end
$var parameter 4 ~ S_PUSH_DEC $end
$var parameter 4 !" S_PUSH_WRITE $end
$var parameter 4 "" S_WRITEBACK $end
$var reg 1 Y A_en $end
$var reg 1 W G_en $end
$var reg 3 #" alu_ctl [2:0] $end
$var reg 4 $" bus_sel [3:0] $end
$var reg 32 %" control_plane [31:0] $end
$var reg 1 K halted $end
$var reg 1 F ir_en $end
$var reg 1 D mem_write $end
$var reg 2 &" mode [1:0] $end
$var reg 4 '" next_state [3:0] $end
$var reg 4 (" opcode [3:0] $end
$var reg 12 )" params [11:0] $end
$var reg 1 A pc_en $end
$var reg 1 @ pc_load $end
$var reg 1 > reg_in_en $end
$var reg 2 *" reg_in_sel [1:0] $end
$var reg 1 ; reg_out_en $end
$var reg 2 +" reg_out_sel [1:0] $end
$var reg 2 ," rx [1:0] $end
$var reg 2 -" ry [1:0] $end
$var reg 1 9 sp_pop $end
$var reg 1 8 sp_push $end
$var reg 4 ." state [3:0] $end
$var reg 4 /" state_debug [3:0] $end
$var reg 1 7 status_en $end
$var reg 1 6 use_sp_addr $end
$scope task execute_step $end
$var reg 3 0" alu_ctl [2:0] $end
$var reg 32 1" cp [31:0] $end
$var reg 2 2" mode [1:0] $end
$var reg 4 3" opcode [3:0] $end
$var reg 12 4" params [11:0] $end
$var reg 2 5" ry [1:0] $end
$upscope $end
$scope task fetch_step $end
$var reg 32 6" cp [31:0] $end
$upscope $end
$scope task load_step $end
$var reg 32 7" cp [31:0] $end
$var reg 4 8" opcode [3:0] $end
$var reg 12 9" params [11:0] $end
$upscope $end
$scope task pc_increment_step $end
$var reg 32 :" cp [31:0] $end
$upscope $end
$scope task pop_inc_step $end
$var reg 32 ;" cp [31:0] $end
$upscope $end
$scope task pop_read_step $end
$var reg 32 <" cp [31:0] $end
$var reg 2 =" rx [1:0] $end
$upscope $end
$scope task push_dec_step $end
$var reg 32 >" cp [31:0] $end
$upscope $end
$scope task push_write_step $end
$var reg 32 ?" cp [31:0] $end
$var reg 2 @" rx [1:0] $end
$upscope $end
$scope task read_register $end
$var reg 32 A" cp [31:0] $end
$var reg 32 B" curr [31:0] $end
$var reg 2 C" reg_id [1:0] $end
$upscope $end
$scope task set_bus $end
$var reg 32 D" cp [31:0] $end
$var reg 32 E" curr [31:0] $end
$var reg 4 F" source [3:0] $end
$upscope $end
$scope task simple_instruction_step $end
$var reg 32 G" cp [31:0] $end
$var reg 4 H" opcode [3:0] $end
$var reg 12 I" params [11:0] $end
$var reg 2 J" rx [1:0] $end
$var reg 2 K" ry [1:0] $end
$var reg 1 L" zero_flag $end
$upscope $end
$scope task write_register $end
$var reg 32 M" cp [31:0] $end
$var reg 32 N" curr [31:0] $end
$var reg 2 O" reg_id [1:0] $end
$upscope $end
$scope task writeback_step $end
$var reg 32 P" cp [31:0] $end
$var reg 4 Q" opcode [3:0] $end
$var reg 12 R" params [11:0] $end
$upscope $end
$upscope $end
$scope module dmem $end
$var wire 1 , clk $end
$var wire 16 S" mem20_debug [15:0] $end
$var wire 1 D mem_write $end
$var wire 16 T" read_data [15:0] $end
$var wire 1 - rst $end
$var wire 16 U" write_data [15:0] $end
$var wire 8 V" address [7:0] $end
$var integer 32 W" i [31:0] $end
$upscope $end
$scope module imem $end
$var wire 16 X" instruction [15:0] $end
$var wire 8 Y" address [7:0] $end
$upscope $end
$scope module ir $end
$var wire 1 , clk $end
$var wire 16 Z" instruction_in [15:0] $end
$var wire 1 F ir_en $end
$var wire 1 - rst $end
$var reg 16 [" instruction_out [15:0] $end
$upscope $end
$scope module pc_unit $end
$var wire 1 , clk $end
$var wire 1 A pc_en $end
$var wire 8 \" pc_in [7:0] $end
$var wire 1 @ pc_load $end
$var wire 1 - rst $end
$var reg 8 ]" pc_out [7:0] $end
$upscope $end
$scope module regs $end
$var wire 1 , clk $end
$var wire 1 > reg_in_en $end
$var wire 2 ^" reg_in_sel [1:0] $end
$var wire 2 _" reg_out_sel [1:0] $end
$var wire 1 - rst $end
$var wire 16 `" bus_in [15:0] $end
$var reg 16 a" R0_debug [15:0] $end
$var reg 16 b" R1_debug [15:0] $end
$var reg 16 c" R2_debug [15:0] $end
$var reg 16 d" r0 [15:0] $end
$var reg 16 e" r1 [15:0] $end
$var reg 16 f" r2 [15:0] $end
$var reg 16 g" reg_out [15:0] $end
$upscope $end
$scope module shared_bus $end
$var wire 16 h" G_data [15:0] $end
$var wire 4 i" bus_sel [3:0] $end
$var wire 16 j" immediate [15:0] $end
$var wire 16 k" memory_data [15:0] $end
$var wire 16 l" reg_data [15:0] $end
$var reg 16 m" bus_out [15:0] $end
$upscope $end
$scope module sp_unit $end
$var wire 1 , clk $end
$var wire 8 n" imm8 [7:0] $end
$var wire 1 - rst $end
$var wire 8 o" sp_debug [7:0] $end
$var wire 1 9 sp_pop $end
$var wire 1 8 sp_push $end
$var wire 1 6 use_sp_addr $end
$var wire 8 p" dmem_addr [7:0] $end
$var reg 8 q" SP [7:0] $end
$upscope $end
$scope module status $end
$var wire 16 r" alu_result [15:0] $end
$var wire 1 , clk $end
$var wire 1 - rst $end
$var wire 1 7 status_en $end
$var reg 1 5 zero_flag $end
$upscope $end
$upscope $end
$scope task check $end
$var reg 64 s" expected [63:0] $end
$var reg 64 t" got [63:0] $end
$var reg 256 u" label [255:0] $end
$upscope $end
$scope task step_and_check $end
$var reg 16 v" expected [15:0] $end
$var reg 256 w" name [255:0] $end
$upscope $end
$scope task wait_for_instruction $end
$upscope $end
$upscope $end
$enddefinitions $end
$comment Show the parameter values. $end
$dumpall
b101 ""
b111 !"
b1000 ~
b1010 }
b1001 |
b1 {
b11 z
b110 y
b0 x
b100 w
b10 v
$end
#0
$dumpvars
bx w"
bx v"
bx u"
bx t"
bx s"
b0 r"
b11111111 q"
b0 p"
b11111111 o"
b0 n"
b0 m"
b0 l"
b0 k"
b0 j"
b0 i"
b0 h"
b0 g"
b0 f"
b0 e"
b0 d"
b0 c"
b0 b"
b0 a"
b0 `"
b0 _"
b0 ^"
b0 ]"
b0 \"
b0 ["
b1010 Z"
b0 Y"
b1010 X"
b100000000 W"
b0 V"
b0 U"
b0 T"
b0 S"
bx R"
bx Q"
bx P"
bx O"
bx N"
bx M"
xL"
bx K"
bx J"
bx I"
bx H"
bx G"
bx F"
bx E"
bx D"
bx C"
bx B"
bx A"
bx @"
bx ?"
bx >"
bx ="
bx <"
bx ;"
bx :"
bx 9"
bx 8"
bx 7"
b10000000000000 6"
bx 5"
bx 4"
bx 3"
bx 2"
bx 1"
bx 0"
b0 /"
b0 ."
b0 -"
b0 ,"
b0 +"
b0 *"
b0 )"
b0 ("
b1 '"
b0 &"
b10000000000000 %"
b0 $"
b0 #"
b0 u
b0 t
b0 s
b0 r
b0 q
b0 p
b0 o
b0 n
b0 m
b0 l
b0 k
b0 j
b0 i
b0 h
b0 g
b0 f
b0 e
b0 d
b0 c
b0 b
b0 a
b0 `
b0 _
b0 ^
b0 ]
b0 \
b0 [
b0 Z
0Y
b0 X
0W
b0 V
b0 U
b0 T
b11111111 S
b0 R
b0 Q
b0 P
b0 O
b10000000000000 N
b0 M
b0 L
0K
b0 J
b0 I
b0 H
b1010 G
1F
b0 E
0D
b0 C
b0 B
0A
0@
b0 ?
0>
b0 =
b0 <
0;
b0 :
09
08
07
06
05
b0 4
b11111111 3
b0 2
b0 1
b0 0
b0 /
b0 .
1-
0,
b0 +
b0 *
b0 )
b0 (
0'
b0 &
b0 %
b0 $
b11111111 #
b0 "
0!
$end
#5000
b100000000 W"
1,
#10000
0,
0-
#15000
b1010 J
b1010 j"
b1010 L
b1010 V"
b1010 p"
b1010 I
b1010 \"
b1010 n"
b1010 )"
b1 "
b1 4
b1 M
b1 /"
0F
1A
b1000000000000000 :"
b1000000000000000 N
b1000000000000000 %"
b10 '"
b1010 &
b1010 1
b1010 H
b1010 u
b1010 ["
b1 ."
1,
#20000
0,
#25000
b110 e
b1010 i
b11110110 m
b1010 o
b1010 Q
b1010 \
b1010 b
b1010 t
b1010 r"
b1010 (
b1010 0
b1010 P
b1010 [
b1010 `
b1010 s
b1010 U"
b1010 `"
b1010 m"
b10 "
b10 4
b10 M
b10 /"
0A
1>
b11 O
b11 $"
b11 i"
b110000010000000000000000000000 M"
b110000000000000000000000000000 N"
b0 O"
b110000000000000000000000000000 D"
b0 E"
b11 F"
b0 K"
b0 J"
b110000010000000000000000000000 G"
0L"
b1010 I"
b0 H"
b110000010000000000000000000000 N
b110000010000000000000000000000 %"
b0 '"
b10000000000000 G
b10000000000000 X"
b10000000000000 Z"
b10 ."
b1 $
b1 2
b1 ?
b1 Y"
b1 ]"
1,
#30000
0,
#35000
b0 e
b0 i
b0 m
b0 o
b0 Q
b0 \
b0 b
b0 t
b0 r"
b0 (
b0 0
b0 P
b0 [
b0 `
b0 s
b0 U"
b0 `"
b0 m"
b0 "
b0 4
b0 M
b0 /"
1F
0>
b0 O
b0 $"
b0 i"
b10000000000000 6"
b10000000000000 N
b10000000000000 %"
b1 '"
b1010 +
b1010 V
b1010 a"
b1010 <
b1010 g"
b0 ."
b1010 d"
1,
#36000
b1 /
b1101101011001010110110101101111011100100111100101011011001100000101110100100000010011000100010001001001001000000101001000110000001011000011000100110000 u"
b1010 s"
b1010 t"
#40000
0,
#45000
b0 J
b0 j"
b0 L
b0 V"
b0 p"
b1 "
b1 4
b1 M
b1 /"
0F
1A
b1000000000000000 :"
b1000000000000000 N
b1000000000000000 %"
b10 '"
b0 I
b0 \"
b0 n"
b0 )"
b10 ("
b1 ."
b10000000000000 &
b10000000000000 1
b10000000000000 H
b10000000000000 u
b10000000000000 ["
1,
#50000
0,
#55000
b10 "
b10 4
b10 M
b10 /"
0A
b0 G"
b0 I"
b10 H"
b0 N
b0 %"
b11 '"
b10 $
b10 2
b10 ?
b10 Y"
b10 ]"
b10 ."
1,
#60000
0,
#65000
b110 e
b1010 i
b11110110 m
b1010 o
b1010 Q
b1010 \
b1010 b
b1010 t
b1010 r"
b1010 (
b1010 0
b1010 P
b1010 [
b1010 `
b1010 s
b1010 U"
b1010 `"
b1010 m"
b1010 l"
b11 "
b11 4
b11 M
b11 /"
1Y
1;
b1 O
b1 $"
b1 i"
b10010001000000000000000000000 N
b10010001000000000000000000000 %"
b10010000000000000000000000000 D"
b10000000000000000000000000 E"
b1 F"
b10000000000000000000000000 A"
b0 B"
b0 C"
b10010001000000000000000000000 7"
b0 9"
b10 8"
b100 '"
b11 ."
1,
#70000
0,
#75000
b100 "
b100 4
b100 M
b100 /"
17
1W
0Y
b10010000000000000000000000000 D"
b10000000000000000000000000 A"
b0 5"
b0 2"
b0 0"
b10010000100010000000000000000 1"
b0 4"
b10 3"
b10010000100010000000000000000 N
b10010000100010000000000000000 %"
b101 '"
b10100 Q
b10100 \
b10100 b
b10100 t
b10100 r"
b10100 o
b0 m
b100 i
b0 e
b100 ."
b1010 _
b1010 a
b1010 d
1,
#80000
0,
#85000
b110 e
b1111 f
b1110 i
b1 j
b11110110 m
b11110 o
b11110 Q
b11110 \
b11110 b
b11110 t
b11110 r"
b0 l"
b10100 (
b10100 0
b10100 P
b10100 [
b10100 `
b10100 s
b10100 U"
b10100 `"
b10100 m"
b101 "
b101 4
b101 M
b101 /"
07
0W
1>
0;
b10 O
b10 $"
b10 i"
b100000010000000000000000000000 M"
b100000000000000000000000000000 N"
b100000000000000000000000000000 D"
b0 E"
b10 F"
b100000010000000000000000000000 P"
b0 R"
b10 Q"
b100000010000000000000000000000 N
b100000010000000000000000000000 %"
b0 '"
b10100 X
b10100 ^
b10100 c
b10100 h"
b101 ."
1,
#90000
0,
#95000
b1010 e
b0 f
b1010 i
b0 j
b1010 m
b1010 o
b1010 Q
b1010 \
b1010 b
b1010 t
b1010 r"
b0 (
b0 0
b0 P
b0 [
b0 `
b0 s
b0 U"
b0 `"
b0 m"
b0 "
b0 4
b0 M
b0 /"
1F
0>
b0 O
b0 $"
b0 i"
b10000000000000 6"
b10000000000000 N
b10000000000000 %"
b1 '"
b10100 +
b10100 V
b10100 a"
b10100 <
b10100 g"
b0 ."
b10100 d"
1,
#96000
b10 /
b1101101011001010110110101101111011100100111100101011011001100010101110100100000010000010100010001000100 u"
b10100 s"
b10100 t"
#100000
0,
#105000
b1 "
b1 4
b1 M
b1 /"
0F
1A
b1000000000000000 :"
b1000000000000000 N
b1000000000000000 %"
b10 '"
b1 ."
1,
#110000
0,
#115000
b10 "
b10 4
b10 M
b10 /"
0A
b0 N
b0 %"
b11 '"
b11 $
b11 2
b11 ?
b11 Y"
b11 ]"
b10 ."
1,
#120000
0,
#125000
b110 e
b1111 f
b1110 i
b1 j
b11110110 m
b11110 o
b11110 Q
b11110 \
b11110 b
b11110 t
b11110 r"
b10100 (
b10100 0
b10100 P
b10100 [
b10100 `
b10100 s
b10100 U"
b10100 `"
b10100 m"
b10100 l"
b11 "
b11 4
b11 M
b11 /"
1Y
1;
b1 O
b1 $"
b1 i"
b10010001000000000000000000000 N
b10010001000000000000000000000 %"
b10010000000000000000000000000 D"
b10000000000000000000000000 E"
b1 F"
b10000000000000000000000000 A"
b10010001000000000000000000000 7"
b100 '"
b11 ."
1,
#130000
0,
#135000
b100 "
b100 4
b100 M
b100 /"
17
1W
0Y
b10010000000000000000000000000 D"
b10000000000000000000000000 A"
b10010000100010000000000000000 1"
b10010000100010000000000000000 N
b10010000100010000000000000000 %"
b101 '"
b101000 Q
b101000 \
b101000 b
b101000 t
b101000 r"
b101000 o
b0 m
b10 j
b1000 i
b0 f
b0 e
b100 ."
b10100 _
b10100 a
b10100 d
1,
#140000
0,
#145000
b1100 e
b1111 f
b1100 i
b11 j
b11101100 m
b111100 o
b111100 Q
b111100 \
b111100 b
b111100 t
b111100 r"
b0 l"
b101000 (
b101000 0
b101000 P
b101000 [
b101000 `
b101000 s
b101000 U"
b101000 `"
b101000 m"
b101 "
b101 4
b101 M
b101 /"
07
0W
1>
0;
b10 O
b10 $"
b10 i"
b100000010000000000000000000000 M"
b100000000000000000000000000000 D"
b0 E"
b10 F"
b100000010000000000000000000000 P"
b100000010000000000000000000000 N
b100000010000000000000000000000 %"
b0 '"
b101000 X
b101000 ^
b101000 c
b101000 h"
b101 ."
1,
#150000
0,
#155000
b100 e
b1 f
b100 i
b1 j
b10100 m
b10100 o
b10100 Q
b10100 \
b10100 b
b10100 t
b10100 r"
b0 (
b0 0
b0 P
b0 [
b0 `
b0 s
b0 U"
b0 `"
b0 m"
b0 "
b0 4
b0 M
b0 /"
1F
0>
b0 O
b0 $"
b0 i"
b10000000000000 6"
b10000000000000 N
b10000000000000 %"
b1 '"
b101000 +
b101000 V
b101000 a"
b101000 <
b101000 g"
b0 ."
b101000 d"
1,
#156000
b11 /
b1101101011001010110110101101111011100100111100101011011001100100101110100100000010000010100010001000100 u"
b101000 s"
b101000 t"
#160000
0,
#165000
b1 "
b1 4
b1 M
b1 /"
0F
1A
b1000000000000000 :"
b1000000000000000 N
b1000000000000000 %"
b10 '"
b1 ."
1,
#170000
0,
#175000
b10 "
b10 4
b10 M
b10 /"
0A
b0 N
b0 %"
b11 '"
b100 $
b100 2
b100 ?
b100 Y"
b100 ]"
b10 ."
1,
#180000
0,
#185000
b1100 e
b1111 f
b1100 i
b11 j
b11101100 m
b111100 o
b111100 Q
b111100 \
b111100 b
b111100 t
b111100 r"
b101000 (
b101000 0
b101000 P
b101000 [
b101000 `
b101000 s
b101000 U"
b101000 `"
b101000 m"
b101000 l"
b11 "
b11 4
b11 M
b11 /"
1Y
1;
b1 O
b1 $"
b1 i"
b10010001000000000000000000000 N
b10010001000000000000000000000 %"
b10010000000000000000000000000 D"
b10000000000000000000000000 E"
b1 F"
b10000000000000000000000000 A"
b10010001000000000000000000000 7"
b100 '"
b11 ."
1,
#190000
0,
#195000
b100 "
b100 4
b100 M
b100 /"
17
1W
0Y
b10010000000000000000000000000 D"
b10000000000000000000000000 A"
b10010000100010000000000000000 1"
b10010000100010000000000000000 N
b10010000100010000000000000000 %"
b101 '"
b1010000 Q
b1010000 \
b1010000 b
b1010000 t
b1010000 r"
b1010000 o
b0 m
b100 j
b0 i
b0 f
b0 e
b100 ."
b101000 _
b101000 a
b101000 d
1,
#200000
0,
#205000
b1000 e
b1101 f
b1000 i
b111 j
b11011000 m
b1111000 o
b1111000 Q
b1111000 \
b1111000 b
b1111000 t
b1111000 r"
b0 l"
b1010000 (
b1010000 0
b1010000 P
b1010000 [
b1010000 `
b1010000 s
b1010000 U"
b1010000 `"
b1010000 m"
b101 "
b101 4
b101 M
b101 /"
07
0W
1>
0;
b10 O
b10 $"
b10 i"
b100000010000000000000000000000 M"
b100000000000000000000000000000 D"
b0 E"
b10 F"
b100000010000000000000000000000 P"
b100000010000000000000000000000 N
b100000010000000000000000000000 %"
b0 '"
b1010000 X
b1010000 ^
b1010000 c
b1010000 h"
b101 ."
1,
#210000
0,
#215000
b10 f
b10 j
b101000 m
b101000 o
b101000 Q
b101000 \
b101000 b
b101000 t
b101000 r"
b0 (
b0 0
b0 P
b0 [
b0 `
b0 s
b0 U"
b0 `"
b0 m"
b0 "
b0 4
b0 M
b0 /"
1F
0>
b0 O
b0 $"
b0 i"
b10000000000000 6"
b10000000000000 N
b10000000000000 %"
b1 '"
b1010000 +
b1010000 V
b1010000 a"
b1010000 <
b1010000 g"
b0 ."
b1010000 d"
1,
#216000
b100 /
b1101101011001010110110101101111011100100111100101011011001100110101110100100000010000010100010001000100 u"
b1010000 s"
b1010000 t"
#220000
0,
#225000
b1 "
b1 4
b1 M
b1 /"
0F
1A
b1000000000000000 :"
b1000000000000000 N
b1000000000000000 %"
b10 '"
b1 ."
1,
#230000
0,
#235000
b10 "
b10 4
b10 M
b10 /"
0A
b0 N
b0 %"
b11 '"
b101 $
b101 2
b101 ?
b101 Y"
b101 ]"
b10 ."
1,
#240000
0,
#245000
b1101 f
b111 j
b11011000 m
b1111000 o
b1111000 Q
b1111000 \
b1111000 b
b1111000 t
b1111000 r"
b1010000 (
b1010000 0
b1010000 P
b1010000 [
b1010000 `
b1010000 s
b1010000 U"
b1010000 `"
b1010000 m"
b1010000 l"
b11 "
b11 4
b11 M
b11 /"
1Y
1;
b1 O
b1 $"
b1 i"
b10010001000000000000000000000 N
b10010001000000000000000000000 %"
b10010000000000000000000000000 D"
b10000000000000000000000000 E"
b1 F"
b10000000000000000000000000 A"
b10010001000000000000000000000 7"
b100 '"
b11 ."
1,
#250000
0,
#255000
b100 "
b100 4
b100 M
b100 /"
17
1W
0Y
b10010000000000000000000000000 D"
b10000000000000000000000000 A"
b10010000100010000000000000000 1"
b10010000100010000000000000000 N
b10010000100010000000000000000 %"
b101 '"
b10100000 Q
b10100000 \
b10100000 b
b10100000 t
b10100000 r"
b10100000 o
b0 m
b1010 j
b0 i
b0 f
b0 e
b100 ."
b1010000 _
b1010000 a
b1010000 d
1,
#260000
0,
#265000
b1011 f
b1111 j
b10110000 m
b11110000 o
b11110000 Q
b11110000 \
b11110000 b
b11110000 t
b11110000 r"
b0 l"
b10100000 (
b10100000 0
b10100000 P
b10100000 [
b10100000 `
b10100000 s
b10100000 U"
b10100000 `"
b10100000 m"
b101 "
b101 4
b101 M
b101 /"
07
0W
1>
0;
b10 O
b10 $"
b10 i"
b100000010000000000000000000000 M"
b100000000000000000000000000000 D"
b0 E"
b10 F"
b100000010000000000000000000000 P"
b100000010000000000000000000000 N
b100000010000000000000000000000 %"
b0 '"
b10100000 X
b10100000 ^
b10100000 c
b10100000 h"
b101 ."
1,
#270000
0,
#275000
b101 f
b101 j
b1010000 m
b1010000 o
b1010000 Q
b1010000 \
b1010000 b
b1010000 t
b1010000 r"
b0 (
b0 0
b0 P
b0 [
b0 `
b0 s
b0 U"
b0 `"
b0 m"
b0 "
b0 4
b0 M
b0 /"
1F
0>
b0 O
b0 $"
b0 i"
b10000000000000 6"
b10000000000000 N
b10000000000000 %"
b1 '"
b10100000 +
b10100000 V
b10100000 a"
b10100000 <
b10100000 g"
b0 ."
b10100000 d"
1,
#276000
b101 /
b1101101011001010110110101101111011100100111100101011011001101000101110100100000010000010100010001000100 u"
b10100000 s"
b10100000 t"
#280000
0,
#285000
b1 "
b1 4
b1 M
b1 /"
0F
1A
b1000000000000000 :"
b1000000000000000 N
b1000000000000000 %"
b10 '"
b1 ."
1,
#290000
0,
#295000
b10 "
b10 4
b10 M
b10 /"
0A
b0 N
b0 %"
b11 '"
b110 $
b110 2
b110 ?
b110 Y"
b110 ]"
b10 ."
1,
#300000
0,
#305000
b1011 f
b1111 j
b10110000 m
b11110000 o
b11110000 Q
b11110000 \
b11110000 b
b11110000 t
b11110000 r"
b10100000 (
b10100000 0
b10100000 P
b10100000 [
b10100000 `
b10100000 s
b10100000 U"
b10100000 `"
b10100000 m"
b10100000 l"
b11 "
b11 4
b11 M
b11 /"
1Y
1;
b1 O
b1 $"
b1 i"
b10010001000000000000000000000 N
b10010001000000000000000000000 %"
b10010000000000000000000000000 D"
b10000000000000000000000000 E"
b1 F"
b10000000000000000000000000 A"
b10010001000000000000000000000 7"
b100 '"
b11 ."
1,
#310000
0,
#315000
b100 "
b100 4
b100 M
b100 /"
17
1W
0Y
b10010000000000000000000000000 D"
b10000000000000000000000000 A"
b10010000100010000000000000000 1"
b10010000100010000000000000000 N
b10010000100010000000000000000 %"
b101 '"
b101000000 Q
b101000000 \
b101000000 b
b101000000 t
b101000000 r"
b1000000 o
b0 m
b100 j
b0 f
b100 ."
b10100000 _
b10100000 a
b10100000 d
1,
#320000
0,
#325000
b110 f
b1111 g
b1110 j
b1 k
b1100000 m
b11111111 n
b11100000 o
b1 p
b111100000 Q
b111100000 \
b111100000 b
b111100000 t
b111100000 r"
b0 l"
b101000000 (
b101000000 0
b101000000 P
b101000000 [
b101000000 `
b101000000 s
b101000000 U"
b101000000 `"
b101000000 m"
b101 "
b101 4
b101 M
b101 /"
07
0W
1>
0;
b10 O
b10 $"
b10 i"
b100000010000000000000000000000 M"
b100000000000000000000000000000 D"
b0 E"
b10 F"
b100000010000000000000000000000 P"
b100000010000000000000000000000 N
b100000010000000000000000000000 %"
b0 '"
b101000000 X
b101000000 ^
b101000000 c
b101000000 h"
b101 ."
1,
#330000
0,
#335000
b1010 f
b0 g
b1010 j
b0 k
b10100000 m
b0 n
b10100000 o
b0 p
b10100000 Q
b10100000 \
b10100000 b
b10100000 t
b10100000 r"
b0 (
b0 0
b0 P
b0 [
b0 `
b0 s
b0 U"
b0 `"
b0 m"
b0 "
b0 4
b0 M
b0 /"
1F
0>
b0 O
b0 $"
b0 i"
b10000000000000 6"
b10000000000000 N
b10000000000000 %"
b1 '"
b101000000 +
b101000000 V
b101000000 a"
b101000000 <
b101000000 g"
b0 ."
b101000000 d"
1,
#336000
b110 /
b1101101011001010110110101101111011100100111100101011011001100100101110100100000010000010100010001000100 u"
b101000000 s"
b101000000 t"
#340000
0,
#345000
b1 "
b1 4
b1 M
b1 /"
0F
1A
b1000000000000000 :"
b1000000000000000 N
b1000000000000000 %"
b10 '"
b1 ."
1,
#350000
0,
#355000
b10 "
b10 4
b10 M
b10 /"
0A
b0 N
b0 %"
b11 '"
b111 $
b111 2
b111 ?
b111 Y"
b111 ]"
b10 ."
1,
#360000
0,
#365000
b110 f
b1111 g
b1110 j
b1 k
b1100000 m
b11111111 n
b11100000 o
b1 p
b111100000 Q
b111100000 \
b111100000 b
b111100000 t
b111100000 r"
b101000000 (
b101000000 0
b101000000 P
b101000000 [
b101000000 `
b101000000 s
b101000000 U"
b101000000 `"
b101000000 m"
b101000000 l"
b11 "
b11 4
b11 M
b11 /"
1Y
1;
b1 O
b1 $"
b1 i"
b10010001000000000000000000000 N
b10010001000000000000000000000 %"
b10010000000000000000000000000 D"
b10000000000000000000000000 E"
b1 F"
b10000000000000000000000000 A"
b10010001000000000000000000000 7"
b100 '"
b11 ."
1,
#370000
0,
#375000
b100 "
b100 4
b100 M
b100 /"
17
1W
0Y
b10010000000000000000000000000 D"
b10000000000000000000000000 A"
b10010000100010000000000000000 1"
b10010000100010000000000000000 N
b10010000100010000000000000000 %"
b101 '"
b1010000000 Q
b1010000000 \
b1010000000 b
b1010000000 t
b1010000000 r"
b10 p
b10000000 o
b0 n
b0 m
b10 k
b1000 j
b0 g
b0 f
b100 ."
b101000000 _
b101000000 a
b101000000 d
1,
#380000
0,
#385000
b1100 f
b1111 g
b1100 j
b11 k
b11000000 m
b11111111 n
b11000000 o
b11 p
b1111000000 Q
b1111000000 \
b1111000000 b
b1111000000 t
b1111000000 r"
b0 l"
b1010000000 (
b1010000000 0
b1010000000 P
b1010000000 [
b1010000000 `
b1010000000 s
b1010000000 U"
b1010000000 `"
b1010000000 m"
b101 "
b101 4
b101 M
b101 /"
07
0W
1>
0;
b10 O
b10 $"
b10 i"
b100000010000000000000000000000 M"
b100000000000000000000000000000 D"
b0 E"
b10 F"
b100000010000000000000000000000 P"
b100000010000000000000000000000 N
b100000010000000000000000000000 %"
b0 '"
b1010000000 X
b1010000000 ^
b1010000000 c
b1010000000 h"
b101 ."
1,
#390000
0,
