final_cpu.vcd
$date
	Wed May 20 22:15:47 2026
$end
$version
	Icarus Verilog
$end
$timescale
	1ps
$end
$scope module processor_TB $end
$var wire 1 ! zero_flag_debug $end
$var wire 4 " state_debug [3:0] $end
$var wire 8 # pc_debug [7:0] $end
$var wire 16 $ mem20_debug [15:0] $end
$var wire 16 % instruction_debug [15:0] $end
$var wire 1 & halted_debug $end
$var wire 16 ' bus_debug [15:0] $end
$var wire 16 ( R3_debug [15:0] $end
$var wire 16 ) R2_debug [15:0] $end
$var wire 16 * R1_debug [15:0] $end
$var wire 16 + R0_debug [15:0] $end
$var reg 1 , clk $end
$var reg 1 - rst $end
$scope module uut $end
$var wire 16 . bus_debug [15:0] $end
$var wire 1 , clk $end
$var wire 1 & halted_debug $end
$var wire 16 / instruction_debug [15:0] $end
$var wire 8 0 pc_debug [7:0] $end
$var wire 1 - rst $end
$var wire 4 1 state_debug [3:0] $end
$var wire 1 ! zero_flag_debug $end
$var wire 1 2 zero_flag $end
$var wire 1 3 status_en $end
$var wire 2 4 ry [1:0] $end
$var wire 2 5 rx [1:0] $end
$var wire 2 6 reg_out_sel [1:0] $end
$var wire 1 7 reg_out_en $end
$var wire 16 8 reg_out_data [15:0] $end
$var wire 2 9 reg_in_sel [1:0] $end
$var wire 1 : reg_in_en $end
$var wire 8 ; pc_out [7:0] $end
$var wire 1 < pc_load $end
$var wire 1 = pc_en $end
$var wire 4 > opcode [3:0] $end
$var wire 16 ? memory_data [15:0] $end
$var wire 1 @ mem_write $end
$var wire 16 A mem20_debug [15:0] $end
$var wire 1 B ir_en $end
$var wire 16 C instruction_from_memory [15:0] $end
$var wire 16 D instruction [15:0] $end
$var wire 8 E imm8 [7:0] $end
$var wire 16 F imm16 [15:0] $end
$var wire 1 G halted $end
$var wire 4 H controller_state [3:0] $end
$var wire 32 I control_plane [31:0] $end
$var wire 4 J bus_sel [3:0] $end
$var wire 16 K bus [15:0] $end
$var wire 16 L alu_result [15:0] $end
$var wire 3 M alu_ctl [2:0] $end
$var wire 16 N R3_debug [15:0] $end
$var wire 16 O R2_debug [15:0] $end
$var wire 16 P R1_debug [15:0] $end
$var wire 16 Q R0_debug [15:0] $end
$var wire 1 R G_en $end
$var wire 16 S G_data [15:0] $end
$var wire 1 T A_en $end
$var wire 16 U A_data [15:0] $end
$scope module A_reg $end
$var wire 1 , clk $end
$var wire 1 - rst $end
$var wire 1 T en $end
$var wire 16 V D [15:0] $end
$var reg 16 W Q [15:0] $end
$upscope $end
$scope module G_reg $end
$var wire 1 , clk $end
$var wire 1 - rst $end
$var wire 1 R en $end
$var wire 16 X D [15:0] $end
$var reg 16 Y Q [15:0] $end
$upscope $end
$scope module alu $end
$var wire 16 Z A [15:0] $end
$var wire 3 [ alu_ctl [2:0] $end
$var wire 16 \ B [15:0] $end
$var reg 16 ] Y [15:0] $end
$upscope $end
$scope module controller $end
$var wire 1 , clk $end
$var wire 4 ^ opcode [3:0] $end
$var wire 1 - rst $end
$var wire 2 _ rx [1:0] $end
$var wire 2 ` ry [1:0] $end
$var wire 1 2 zero_flag $end
$var parameter 4 a S_DECODE $end
$var parameter 4 b S_EXEC_ALU $end
$var parameter 4 c S_FETCH $end
$var parameter 4 d S_HALTED $end
$var parameter 4 e S_LOAD_A $end
$var parameter 4 f S_PC_INC $end
$var parameter 4 g S_WRITEBACK $end
$var reg 1 T A_en $end
$var reg 1 R G_en $end
$var reg 3 h alu_ctl [2:0] $end
$var reg 4 i bus_sel [3:0] $end
$var reg 32 j control_plane [31:0] $end
$var reg 1 G halted $end
$var reg 1 B ir_en $end
$var reg 1 @ mem_write $end
$var reg 4 k next_state [3:0] $end
$var reg 1 = pc_en $end
$var reg 1 < pc_load $end
$var reg 1 : reg_in_en $end
$var reg 2 l reg_in_sel [1:0] $end
$var reg 1 7 reg_out_en $end
$var reg 2 m reg_out_sel [1:0] $end
$var reg 4 n state [3:0] $end
$var reg 4 o state_debug [3:0] $end
$var reg 1 3 status_en $end
$scope task clear_control $end
$var reg 32 p cp [31:0] $end
$upscope $end
$scope task execute_step $end
$var reg 32 q cp [31:0] $end
$var reg 4 r opcode [3:0] $end
$var reg 2 s ry [1:0] $end
$upscope $end
$scope task fetch_step $end
$var reg 32 t cp [31:0] $end
$upscope $end
$scope task load_step $end
$var reg 32 u cp [31:0] $end
$var reg 2 v rx [1:0] $end
$upscope $end
$scope task pc_increment_step $end
$var reg 32 w cp [31:0] $end
$upscope $end
$scope task read_register $end
$var reg 32 x cp [31:0] $end
$var reg 32 y curr [31:0] $end
$var reg 2 z reg_id [1:0] $end
$upscope $end
$scope task set_bus $end
$var reg 32 { cp [31:0] $end
$var reg 32 | curr [31:0] $end
$var reg 4 } source [3:0] $end
$upscope $end
$scope task simple_instruction_step $end
$var reg 32 ~ cp [31:0] $end
$var reg 4 !" opcode [3:0] $end
$var reg 2 "" rx [1:0] $end
$var reg 2 #" ry [1:0] $end
$var reg 1 $" zero_flag $end
$upscope $end
$scope task write_register $end
$var reg 32 %" cp [31:0] $end
$var reg 32 &" curr [31:0] $end
$var reg 2 '" reg_id [1:0] $end
$upscope $end
$scope task writeback_step $end
$var reg 32 (" cp [31:0] $end
$var reg 2 )" rx [1:0] $end
$upscope $end
$upscope $end
$scope module dmem $end
$var wire 8 *" address [7:0] $end
$var wire 1 , clk $end
$var wire 16 +" mem20_debug [15:0] $end
$var wire 1 @ mem_write $end
$var wire 16 ," read_data [15:0] $end
$var wire 1 - rst $end
$var wire 16 -" write_data [15:0] $end
$var integer 32 ." i [31:0] $end
$upscope $end
$scope module imem $end
$var wire 16 /" instruction [15:0] $end
$var wire 8 0" address [7:0] $end
$var integer 32 1" i [31:0] $end
$upscope $end
$scope module ir $end
$var wire 1 , clk $end
$var wire 16 2" instruction_in [15:0] $end
$var wire 1 B ir_en $end
$var wire 1 - rst $end
$var reg 16 3" instruction_out [15:0] $end
$upscope $end
$scope module pc_unit $end
$var wire 1 , clk $end
$var wire 1 = pc_en $end
$var wire 8 4" pc_in [7:0] $end
$var wire 1 < pc_load $end
$var wire 1 - rst $end
$var reg 8 5" pc_out [7:0] $end
$upscope $end
$scope module regs $end
$var wire 1 , clk $end
$var wire 1 : reg_in_en $end
$var wire 2 6" reg_in_sel [1:0] $end
$var wire 2 7" reg_out_sel [1:0] $end
$var wire 1 - rst $end
$var wire 16 8" bus_in [15:0] $end
$var reg 16 9" R0_debug [15:0] $end
$var reg 16 :" R1_debug [15:0] $end
$var reg 16 ;" R2_debug [15:0] $end
$var reg 16 <" R3_debug [15:0] $end
$var reg 16 =" reg_out [15:0] $end
$upscope $end
$scope module shared_bus $end
$var wire 16 >" G_data [15:0] $end
$var wire 4 ?" bus_sel [3:0] $end
$var wire 16 @" immediate [15:0] $end
$var wire 16 A" memory_data [15:0] $end
$var wire 16 B" reg_data [15:0] $end
$var reg 16 C" bus_out [15:0] $end
$upscope $end
$scope module status $end
$var wire 16 D" alu_result [15:0] $end
$var wire 1 , clk $end
$var wire 1 - rst $end
$var wire 1 3 status_en $end
$var reg 1 2 zero_flag $end
$upscope $end
$upscope $end
$upscope $end
$enddefinitions $end
$comment Show the parameter values. $end
$dumpall
b101 g
b1 f
b11 e
b110 d
b0 c
b100 b
b10 a
$end
#0
$dumpvars
b0 D"
b0 C"
b0 B"
b0 A"
b0 @"
b0 ?"
b0 >"
b0 ="
b0 <"
b0 ;"
b0 :"
b0 9"
b0 8"
b0 7"
b0 6"
b0 5"
b0 4"
b0 3"
b101 2"
b100000000 1"
b0 0"
b101 /"
b100000000 ."
b0 -"
b0 ,"
b0 +"
b0 *"
bx )"
bx ("
bx '"
bx &"
bx %"
x$"
bx #"
bx ""
bx !"
bx ~
bx }
bx |
bx {
bx z
bx y
bx x
bx w
bx v
bx u
b10000000000000 t
bx s
bx r
bx q
bx p
b0 o
b0 n
b0 m
b0 l
b1 k
b10000000000000 j
b0 i
b0 h
b0 `
b0 _
b0 ^
b0 ]
b0 \
b0 [
b0 Z
b0 Y
b0 X
b0 W
b0 V
b0 U
0T
b0 S
0R
b0 Q
b0 P
b0 O
b0 N
b0 M
b0 L
b0 K
b0 J
b10000000000000 I
b0 H
0G
b0 F
b0 E
b0 D
b101 C
1B
b0 A
0@
b0 ?
b0 >
0=
0<
b0 ;
0:
b0 9
b0 8
07
b0 6
b0 5
b0 4
03
02
b0 1
b0 0
b0 /
b0 .
1-
0,
b0 +
b0 *
b0 )
b0 (
b0 '
0&
b0 %
b0 $
b0 #
b0 "
0!
$end
#5000
b100000000 ."
1,
#10000
0,
#15000
b100000000 ."
1,
#20000
0,
0-
#25000
b101 F
b101 @"
b1 "
b1 1
b1 H
b1 o
0B
1=
b1000000000000000 w
b1000000000000000 I
b1000000000000000 j
b10 k
b101 E
b101 *"
b101 4"
b1 n
b101 %
b101 /
b101 D
b101 3"
1,
#30000
0,
#35000
b101 L
b101 X
b101 ]
b101 D"
b101 '
b101 .
b101 K
b101 V
b101 \
b101 -"
b101 8"
b101 C"
b10000000011 C
b10000000011 /"
b10000000011 2"
b10 "
b10 1
b10 H
b10 o
0=
1:
b11 J
b11 i
b11 ?"
b110000010000000000000000000000 %"
b110000000000000000000000000000 &"
b0 '"
b110000000000000000000000000000 {
b0 |
b11 }
b110000010000000000000000000000 ~
0$"
b0 #"
b0 ""
b0 !"
b110000010000000000000000000000 I
b110000010000000000000000000000 j
b0 k
b1 #
b1 0
b1 ;
b1 0"
b1 5"
b10 n
1,
#40000
0,
#45000
b0 L
b0 X
b0 ]
b0 D"
b0 '
b0 .
b0 K
b0 V
b0 \
b0 -"
b0 8"
b0 C"
b101 8
b101 ="
b0 "
b0 1
b0 H
b0 o
1B
0:
b0 J
b0 i
b0 ?"
b10000000000000 t
b10000000000000 I
b10000000000000 j
b1 k
b101 +
b101 Q
b101 9"
b0 n
1,
#50000
0,
#55000
b11 F
b11 @"
b11 E
b11 *"
b11 4"
b1 5
b1 _
b1 "
b1 1
b1 H
b1 o
0B
1=
b1000000000000000 w
b1000000000000000 I
b1000000000000000 j
b10 k
b10000000011 %
b10000000011 /
b10000000011 D
b10000000011 3"
b1 n
1,
#60000
0,
#65000
b11 L
b11 X
b11 ]
b11 D"
b11 '
b11 .
b11 K
b11 V
b11 \
b11 -"
b11 8"
b11 C"
b10 "
b10 1
b10 H
b10 o
0=
1:
b1 9
b1 l
b1 6"
b11 J
b11 i
b11 ?"
b110000110000000000000000000000 %"
b1 '"
b110000000000000000000000000000 {
b110000110000000000000000000000 ~
b1 ""
b110000110000000000000000000000 I
b110000110000000000000000000000 j
b0 k
b10000100000000 C
b10000100000000 /"
b10000100000000 2"
b10 n
b10 #
b10 0
b10 ;
b10 0"
b10 5"
1,
#70000
0,
#75000
b0 L
b0 X
b0 ]
b0 D"
b0 '
b0 .
b0 K
b0 V
b0 \
b0 -"
b0 8"
b0 C"
b0 "
b0 1
b0 H
b0 o
1B
0:
b0 9
b0 l
b0 6"
b0 J
b0 i
b0 ?"
b10000000000000 t
b10000000000000 I
b10000000000000 j
b1 k
b0 n
b11 *
b11 P
b11 :"
1,
#80000
0,
#85000
b0 F
b0 @"
b1 "
b1 1
b1 H
b1 o
0B
1=
b1000000000000000 w
b1000000000000000 I
b1000000000000000 j
b10 k
b0 E
b0 *"
b0 4"
b1 4
b1 `
b0 5
b0 _
b10 >
b10 ^
b1 n
b10000100000000 %
b10000100000000 /
b10000100000000 D
b10000100000000 3"
1,
#90000
0,
#95000
b11000100000000 C
b11000100000000 /"
b11000100000000 2"
b10 "
b10 1
b10 H
b10 o
0=
b0 ~
b1 #"
b0 ""
b10 !"
b0 I
b0 j
b11 k
b11 #
b11 0
b11 ;
b11 0"
b11 5"
b10 n
1,
#100000
0,
#105000
b101 L
b101 X
b101 ]
b101 D"
b101 '
b101 .
b101 K
b101 V
b101 \
b101 -"
b101 8"
b101 C"
b101 B"
b11 "
b11 1
b11 H
b11 o
1T
17
b1 J
b1 i
b1 ?"
b10010001000000000000000000000 I
b10010001000000000000000000000 j
b10010000000000000000000000000 {
b10000000000000000000000000 |
b1 }
b10000000000000000000000000 x
b0 y
b0 z
b10010001000000000000000000000 u
b0 v
b100 k
b11 n
1,
#110000
0,
#115000
b11 '
b11 .
b11 K
b11 V
b11 \
b11 -"
b11 8"
b11 C"
b11 B"
b11 8
b11 ="
b100 "
b100 1
b100 H
b100 o
13
1R
0T
b1 6
b1 m
b1 7"
b10110000000000000000000000000 {
b110000000000000000000000000 |
b110000000000000000000000000 x
b1 z
b10110000100010000000000000000 q
b1 s
b10 r
b10110000100010000000000000000 I
b10110000100010000000000000000 j
b101 k
b1000 L
b1000 X
b1000 ]
b1000 D"
b100 n
b101 U
b101 W
b101 Z
1,
#120000
0,
#125000
b1101 L
b1101 X
b1101 ]
b1101 D"
b0 B"
b101 8
b101 ="
b1000 '
b1000 .
b1000 K
b1000 V
b1000 \
b1000 -"
b1000 8"
b1000 C"
b101 "
b101 1
b101 H
b101 o
03
0R
1:
07
b0 6
b0 m
b0 7"
b10 J
b10 i
b10 ?"
b100000010000000000000000000000 %"
b100000000000000000000000000000 &"
b0 '"
b100000000000000000000000000000 {
b0 |
b10 }
b100000010000000000000000000000 ("
b0 )"
b100000010000000000000000000000 I
b100000010000000000000000000000 j
b0 k
b1000 S
b1000 Y
b1000 >"
b101 n
1,
#130000
0,
#135000
b101 L
b101 X
b101 ]
b101 D"
b0 '
b0 .
b0 K
b0 V
b0 \
b0 -"
b0 8"
b0 C"
b0 "
b0 1
b0 H
b0 o
1B
0:
b0 J
b0 i
b0 ?"
b10000000000000 t
b10000000000000 I
b10000000000000 j
b1 k
b1000 8
b1000 ="
b0 n
b1000 +
b1000 Q
b1000 9"
1,
#140000
0,
#145000
b1 "
b1 1
b1 H
b1 o
0B
1=
b1000000000000000 w
b1000000000000000 I
b1000000000000000 j
b10 k
b11 >
b11 ^
b1 n
b11000100000000 %
b11000100000000 /
b11000100000000 D
b11000100000000 3"
1,
#150000
0,
#155000
b1100000000000 C
b1100000000000 /"
b1100000000000 2"
b10 "
b10 1
b10 H
b10 o
0=
b11 !"
b0 I
b0 j
b11 k
b100 #
b100 0
b100 ;
b100 0"
b100 5"
b10 n
1,
#160000
0,
#165000
b1101 L
b1101 X
b1101 ]
b1101 D"
b1000 '
b1000 .
b1000 K
b1000 V
b1000 \
b1000 -"
b1000 8"
b1000 C"
b1000 B"
b11 "
b11 1
b11 H
b11 o
1T
17
b1 J
b1 i
b1 ?"
b10010001000000000000000000000 I
b10010001000000000000000000000 j
b10010000000000000000000000000 {
b10000000000000000000000000 |
b1 }
b10000000000000000000000000 x
b0 z
b10010001000000000000000000000 u
b100 k
b11 n
1,
#170000
0,
#175000
b11 '
b11 .
b11 K
b11 V
b11 \
b11 -"
b11 8"
b11 C"
b11 B"
b11 8
b11 ="
b100 "
b100 1
b100 H
b100 o
13
b1 M
b1 [
b1 h
1R
0T
b1 6
b1 m
b1 7"
b10110000000000000000000000000 {
b110000000000000000000000000 |
b110000000000000000000000000 x
b1 z
b10110000100110000000000000000 q
b11 r
b10110000100110000000000000000 I
b10110000100110000000000000000 j
b101 k
b101 L
b101 X
b101 ]
b101 D"
b100 n
b1000 U
b1000 W
b1000 Z
1,
#180000
0,
#185000
b1101 L
b1101 X
b1101 ]
b1101 D"
b0 B"
b1000 8
b1000 ="
b101 '
b101 .
b101 K
b101 V
b101 \
b101 -"
b101 8"
b101 C"
b101 "
b101 1
b101 H
b101 o
03
b0 M
b0 [
b0 h
0R
1:
07
b0 6
b0 m
b0 7"
b10 J
b10 i
b10 ?"
b100000010000000000000000000000 %"
b100000000000000000000000000000 {
b0 |
b10 }
b100000010000000000000000000000 ("
b100000010000000000000000000000 I
b100000010000000000000000000000 j
b0 k
b101 S
b101 Y
b101 >"
b101 n
1,
#190000
0,
#195000
b1000 L
b1000 X
b1000 ]
b1000 D"
b0 '
b0 .
b0 K
b0 V
b0 \
b0 -"
b0 8"
b0 C"
b0 "
b0 1
b0 H
b0 o
1B
0:
b0 J
b0 i
b0 ?"
b10000000000000 t
b10000000000000 I
b10000000000000 j
b1 k
b101 8
b101 ="
b0 n
b101 +
b101 Q
b101 9"
1,
#200000
0,
#205000
b1 "
b1 1
b1 H
b1 o
0B
1=
b1000000000000000 w
b1000000000000000 I
b1000000000000000 j
b10 k
b0 4
b0 `
b10 5
b10 _
b1 >
b1 ^
b1 n
b1100000000000 %
b1100000000000 /
b1100000000000 D
b1100000000000 3"
1,
#210000
0,
#215000
b1101 L
b1101 X
b1101 ]
b1101 D"
b101 '
b101 .
b101 K
b101 V
b101 \
b101 -"
b101 8"
b101 C"
b101 B"
b100100100000000 C
b100100100000000 /"
b100100100000000 2"
b10 "
b10 1
b10 H
b10 o
0=
1:
b10 9
b10 l
b10 6"
17
b1 J
b1 i
b1 ?"
b10011010000000000000000000000 %"
b10010000000000000000000000000 &"
b10 '"
b10010000000000000000000000000 {
b10000000000000000000000000 |
b1 }
b10011010000000000000000000000 ~
b10000000000000000000000000 x
b0 z
b0 #"
b10 ""
b1 !"
b10011010000000000000000000000 I
b10011010000000000000000000000 j
b0 k
b101 #
b101 0
b101 ;
b101 0"
b101 5"
b10 n
1,
#220000
0,
#225000
b1000 L
b1000 X
b1000 ]
b1000 D"
b0 B"
b0 '
b0 .
b0 K
b0 V
b0 \
b0 -"
b0 8"
b0 C"
b0 "
b0 1
b0 H
b0 o
1B
0:
b0 9
b0 l
b0 6"
07
b0 J
b0 i
b0 ?"
b10000000000000 t
b10000000000000 I
b10000000000000 j
b1 k
b101 )
b101 O
b101 ;"
b0 n
1,
#230000
0,
#235000
b1 4
b1 `
b100 >
b100 ^
b1 "
b1 1
b1 H
b1 o
0B
1=
b1000000000000000 w
b1000000000000000 I
b1000000000000000 j
b10 k
b100100100000000 %
b100100100000000 /
b100100100000000 D
b100100100000000 3"
b1 n
1,
#240000
0,
#245000
b10 "
b10 1
b10 H
b10 o
0=
b0 ~
b1 #"
b100 !"
b0 I
b0 j
b11 k
b101100100000000 C
b101100100000000 /"
b101100100000000 2"
b10 n
b110 #
b110 0
b110 ;
b110 0"
b110 5"
1,
#250000
0,
#255000
b1101 L
b1101 X
b1101 ]
b1101 D"
b101 '
b101 .
b101 K
b101 V
b101 \
b101 -"
b101 8"
b101 C"
b101 B"
b11 "
b11 1
b11 H
b11 o
1T
17
b10 6
b10 m
b10 7"
b1 J
b1 i
b1 ?"
b11010001000000000000000000000 I
b11010001000000000000000000000 j
b11010000000000000000000000000 {
b1010000000000000000000000000 |
b1010000000000000000000000000 x
b10 z
b11010001000000000000000000000 u
b10 v
b100 k
b11 n
1,
#260000
0,
#265000
b11 '
b11 .
b11 K
b11 V
b11 \
b11 -"
b11 8"
b11 C"
b11 B"
b11 8
b11 ="
b1 L
b1 X
b1 ]
b1 D"
b100 "
b100 1
b100 H
b100 o
13
b10 M
b10 [
b10 h
1R
0T
b1 6
b1 m
b1 7"
b10110000000000000000000000000 {
b110000000000000000000000000 |
b110000000000000000000000000 x
b1 z
b10110000101010000000000000000 q
b100 r
b10110000101010000000000000000 I
b10110000101010000000000000000 j
b101 k
b101 U
b101 W
b101 Z
b100 n
1,
#270000
0,
#275000
b110 L
b110 X
b110 ]
b110 D"
b0 B"
b101 8
b101 ="
b1 '
b1 .
b1 K
b1 V
b1 \
b1 -"
b1 8"
b1 C"
b101 "
b101 1
b101 H
b101 o
03
b0 M
b0 [
b0 h
0R
1:
b10 9
b10 l
b10 6"
07
b0 6
b0 m
b0 7"
b10 J
b10 i
b10 ?"
b100001010000000000000000000000 %"
b100000000000000000000000000000 &"
b100000000000000000000000000000 {
b0 |
b10 }
b100001010000000000000000000000 ("
b10 )"
b100001010000000000000000000000 I
b100001010000000000000000000000 j
b0 k
b101 n
b1 S
b1 Y
b1 >"
1,
#280000
0,
#285000
b101 L
b101 X
b101 ]
b101 D"
b0 '
b0 .
b0 K
b0 V
b0 \
b0 -"
b0 8"
b0 C"
b0 "
b0 1
b0 H
b0 o
1B
0:
b0 9
b0 l
b0 6"
b0 J
b0 i
b0 ?"
b10000000000000 t
b10000000000000 I
b10000000000000 j
b1 k
b1 )
b1 O
b1 ;"
b0 n
1,
#290000
0,
#295000
b101 >
b101 ^
b1 "
b1 1
b1 H
b1 o
0B
1=
b1000000000000000 w
b1000000000000000 I
b1000000000000000 j
b10 k
b101100100000000 %
b101100100000000 /
b101100100000000 D
b101100100000000 3"
b1 n
1,
#300000
0,
#305000
b10 "
b10 1
b10 H
b10 o
0=
b101 !"
b0 I
b0 j
b11 k
b110100000000000 C
b110100000000000 /"
b110100000000000 2"
b10 n
b111 #
b111 0
b111 ;
b111 0"
b111 5"
1,
#310000
0,
#315000
b110 L
b110 X
b110 ]
b110 D"
b1 '
b1 .
b1 K
b1 V
b1 \
b1 -"
b1 8"
b1 C"
b1 B"
b1 8
b1 ="
b11 "
b11 1
b11 H
b11 o
1T
17
b10 6
b10 m
b10 7"
b1 J
b1 i
b1 ?"
b11010001000000000000000000000 I
b11010001000000000000000000000 j
b11010000000000000000000000000 {
b1010000000000000000000000000 |
b1 }
b1010000000000000000000000000 x
b10 z
b11010001000000000000000000000 u
b100 k
b11 n
1,
#320000
0,
#325000
b11 '
b11 .
b11 K
b11 V
b11 \
b11 -"
b11 8"
b11 C"
b11 B"
b11 8
b11 ="
b11 L
b11 X
b11 ]
b11 D"
b100 "
b100 1
b100 H
b100 o
13
b11 M
b11 [
b11 h
1R
0T
b1 6
b1 m
b1 7"
b10110000000000000000000000000 {
b110000000000000000000000000 |
b110000000000000000000000000 x
b1 z
b10110000101110000000000000000 q
b101 r
b10110000101110000000000000000 I
b10110000101110000000000000000 j
b101 k
b1 U
b1 W
b1 Z
b100 n
1,
#330000
0,
#335000
b100 L
b100 X
b100 ]
b100 D"
b0 B"
b101 8
b101 ="
b101 "
b101 1
b101 H
b101 o
03
b0 M
b0 [
b0 h
0R
1:
b10 9
b10 l
b10 6"
07
b0 6
b0 m
b0 7"
b10 J
b10 i
b10 ?"
b100001010000000000000000000000 %"
b100000000000000000000000000000 {
b0 |
b10 }
b100001010000000000000000000000 ("
b100001010000000000000000000000 I
b100001010000000000000000000000 j
b0 k
b101 n
b11 S
b11 Y
b11 >"
1,
#340000
0,
#345000
b1 L
b1 X
b1 ]
b1 D"
b0 '
b0 .
b0 K
b0 V
b0 \
b0 -"
b0 8"
b0 C"
b0 "
b0 1
b0 H
b0 o
1B
0:
b0 9
b0 l
b0 6"
b0 J
b0 i
b0 ?"
b10000000000000 t
b10000000000000 I
b10000000000000 j
b1 k
b11 )
b11 O
b11 ;"
b0 n
1,
#350000
0,
#355000
b0 4
b0 `
b110 >
b110 ^
b1 "
b1 1
b1 H
b1 o
0B
1=
b1000000000000000 w
b1000000000000000 I
b1000000000000000 j
b10 k
b110100000000000 %
b110100000000000 /
b110100000000000 D
b110100000000000 3"
b1 n
1,
#360000
0,
#365000
b10 "
b10 1
b10 H
b10 o
0=
b0 #"
b110 !"
b0 I
b0 j
b11 k
b111100000000000 C
b111100000000000 /"
b111100000000000 2"
b10 n
b1000 #
b1000 0
b1000 ;
b1000 0"
b1000 5"
1,
#370000
0,
#375000
b100 L
b100 X
b100 ]
b100 D"
b11 '
b11 .
b11 K
b11 V
b11 \
b11 -"
b11 8"
b11 C"
b11 B"
b11 8
b11 ="
b11 "
b11 1
b11 H
b11 o
1T
17
b10 6
b10 m
b10 7"
b1 J
b1 i
b1 ?"
b11010001000000000000000000000 I
b11010001000000000000000000000 j
b11010000000000000000000000000 {
b1010000000000000000000000000 |
b1 }
b1010000000000000000000000000 x
b10 z
b11010001000000000000000000000 u
b100 k
b11 n
1,
#380000
0,
#385000
b101 '
b101 .
b101 K
b101 V
b101 \
b101 -"
b101 8"
b101 C"
b101 B"
b101 8
b101 ="
b110 L
b110 X
b110 ]
b110 D"
b100 "
b100 1
b100 H
b100 o
13
b100 M
b100 [
b100 h
1R
0T
b0 6
b0 m
b0 7"
b10010000000000000000000000000 {
b10000000000000000000000000 |
b10000000000000000000000000 x
b0 z
b10010000110010000000000000000 q
b0 s
b110 r
b10010000110010000000000000000 I
b10010000110010000000000000000 j
b101 k
b11 U
b11 W
b11 Z
b100 n
1,
#390000
0,
#395000
b1001 L
b1001 X
b1001 ]
b1001 D"
b0 B"
b110 '
b110 .
b110 K
b110 V
b110 \
b110 -"
b110 8"
b110 C"
b101 "
b101 1
b101 H
b101 o
03
b0 M
b0 [
b0 h
0R
1:
b10 9
b10 l
b10 6"
07
b10 J
b10 i
b10 ?"
b100001010000000000000000000000 %"
b100000000000000000000000000000 {
b0 |
b10 }
b100001010000000000000000000000 ("
b100001010000000000000000000000 I
b100001010000000000000000000000 j
b0 k
b101 n
b110 S
b110 Y
b110 >"
1,
#400000
0,
#405000
b11 L
b11 X
b11 ]
b11 D"
b0 '
b0 .
b0 K
b0 V
b0 \
b0 -"
b0 8"
b0 C"
b0 "
b0 1
b0 H
b0 o
1B
0:
b0 9
b0 l
b0 6"
b0 J
b0 i
b0 ?"
b10000000000000 t
b10000000000000 I
b10000000000000 j
b1 k
b110 )
b110 O
b110 ;"
b0 n
1,
#410000
0,
#415000
b111 >
b111 ^
b1 "
b1 1
b1 H
b1 o
0B
1=
b1000000000000000 w
b1000000000000000 I
b1000000000000000 j
b10 k
b111100000000000 %
b111100000000000 /
b111100000000000 D
b111100000000000 3"
b1 n
1,
#420000
0,
#425000
b10 "
b10 1
b10 H
b10 o
0=
b111 !"
b0 I
b0 j
b11 k
b1001100000010100 C
b1001100000010100 /"
b1001100000010100 2"
b10 n
b1001 #
b1001 0
b1001 ;
b1001 0"
b1001 5"
1,
#430000
0,
#435000
b1001 L
b1001 X
b1001 ]
b1001 D"
b110 '
b110 .
b110 K
b110 V
b110 \
b110 -"
b110 8"
b110 C"
b110 B"
b110 8
b110 ="
b11 "
b11 1
b11 H
b11 o
1T
17
b10 6
b10 m
b10 7"
b1 J
b1 i
b1 ?"
b11010001000000000000000000000 I
b11010001000000000000000000000 j
b11010000000000000000000000000 {
b1010000000000000000000000000 |
b1 }
b1010000000000000000000000000 x
b10 z
b11010001000000000000000000000 u
b100 k
b11 n
1,
#440000
0,
#445000
b0 B"
b101 8
b101 ="
b0 '
b0 .
b0 K
b0 V
b0 \
b0 -"
b0 8"
b0 C"
b111 L
b111 X
b111 ]
b111 D"
b100 "
b100 1
b100 H
b100 o
13
b101 M
b101 [
b101 h
1R
0T
07
b0 6
b0 m
b0 7"
b0 J
b0 i
b0 ?"
b0 {
b0 |
b0 }
b110110000000000000000 q
b111 r
b110110000000000000000 I
b110110000000000000000 j
b101 k
b110 U
b110 W
b110 Z
b100 n
1,
#450000
0,
#455000
b1101 L
b1101 X
b1101 ]
b1101 D"
b111 '
b111 .
b111 K
b111 V
b111 \
b111 -"
b111 8"
b111 C"
b101 "
b101 1
b101 H
b101 o
03
b0 M
b0 [
b0 h
0R
1:
b10 9
b10 l
b10 6"
b10 J
b10 i
b10 ?"
b100001010000000000000000000000 %"
b100000000000000000000000000000 {
b10 }
b100001010000000000000000000000 ("
b100001010000000000000000000000 I
b100001010000000000000000000000 j
b0 k
b101 n
b111 S
b111 Y
b111 >"
1,
#460000
0,
#465000
b110 L
b110 X
b110 ]
b110 D"
b0 '
b0 .
b0 K
b0 V
b0 \
b0 -"
b0 8"
b0 C"
b0 "
b0 1
b0 H
b0 o
1B
0:
b0 9
b0 l
b0 6"
b0 J
b0 i
b0 ?"
b10000000000000 t
b10000000000000 I
b10000000000000 j
b1 k
b111 )
b111 O
b111 ;"
b0 n
1,
#470000
0,
#475000
b10100 F
b10100 @"
b10100 E
b10100 *"
b10100 4"
b1001 >
b1001 ^
b1 "
b1 1
b1 H
b1 o
0B
1=
b1000000000000000 w
b1000000000000000 I
b1000000000000000 j
b10 k
b1001100000010100 %
b1001100000010100 /
b1001100000010100 D
b1001100000010100 3"
b1 n
1,
#480000
0,
#485000
b1101 L
b1101 X
b1101 ]
b1101 D"
b111 '
b111 .
b111 K
b111 V
b111 \
b111 -"
b111 8"
b111 C"
b111 B"
b111 8
b111 ="
b10 "
b10 1
b10 H
b10 o
1@
0=
17
b10 6
b10 m
b10 7"
b1 J
b1 i
b1 ?"
b11010000000000000000000000000 {
b1010000000000000000000000000 |
b1 }
b11010000000000001000000000000 ~
b1010000000000000000000000000 x
b1001 !"
b11010000000000001000000000000 I
b11010000000000001000000000000 j
b0 k
b1000010000010100 C
b1000010000010100 /"
b1000010000010100 2"
b10 n
b1010 #
b1010 0
b1010 ;
b1010 0"
b1010 5"
1,
#490000
0,
#495000
b110 L
b110 X
b110 ]
b110 D"
b0 B"
b101 8
b101 ="
b0 '
b0 .
b0 K
b0 V
b0 \
b0 -"
b0 8"
b0 C"
b0 "
b0 1
b0 H
b0 o
0@
1B
07
b0 6
b0 m
b0 7"
b0 J
b0 i
b0 ?"
b10000000000000 t
b10000000000000 I
b10000000000000 j
b1 k
b0 n
b111 ?
b111 ,"
b111 A"
b111 $
b111 A
b111 +"
1,
#500000
0,
#505000
b1 "
b1 1
b1 H
b1 o
0B
1=
b1000000000000000 w
b1000000000000000 I
b1000000000000000 j
b10 k
b1 5
b1 _
b1000 >
b1000 ^
b1 n
b1000010000010100 %
b1000010000010100 /
b1000010000010100 D
b1000010000010100 3"
1,
#510000
0,
