final_cpu.vcd
$date
	Sat May 23 06:48:16 2026
$end
$version
	Icarus Verilog
$end
$timescale
	1ps
$end
$scope module processor_TB $end
$var wire 1 ! zero_flag_debug $end
$var wire 4 " state_debug [3:0] $end
$var wire 8 # pc_debug [7:0] $end
$var wire 16 $ mem20_debug [15:0] $end
$var wire 16 % instruction_debug [15:0] $end
$var wire 1 & halted_debug $end
$var wire 16 ' bus_debug [15:0] $end
$var wire 16 ( R2_debug [15:0] $end
$var wire 16 ) R1_debug [15:0] $end
$var wire 16 * R0_debug [15:0] $end
$var reg 1 + clk $end
$var reg 1 , rst $end
$scope module uut $end
$var wire 16 - bus_debug [15:0] $end
$var wire 1 + clk $end
$var wire 1 & halted_debug $end
$var wire 16 . instruction_debug [15:0] $end
$var wire 8 / pc_debug [7:0] $end
$var wire 1 , rst $end
$var wire 4 0 state_debug [3:0] $end
$var wire 1 ! zero_flag_debug $end
$var wire 1 1 zero_flag $end
$var wire 1 2 status_en $end
$var wire 2 3 ry [1:0] $end
$var wire 2 4 rx [1:0] $end
$var wire 2 5 reg_out_sel [1:0] $end
$var wire 1 6 reg_out_en $end
$var wire 16 7 reg_out_data [15:0] $end
$var wire 2 8 reg_in_sel [1:0] $end
$var wire 1 9 reg_in_en $end
$var wire 8 : pc_out [7:0] $end
$var wire 1 ; pc_load $end
$var wire 1 < pc_en $end
$var wire 4 = opcode [3:0] $end
$var wire 16 > memory_data [15:0] $end
$var wire 1 ? mem_write $end
$var wire 16 @ mem20_debug [15:0] $end
$var wire 1 A ir_en $end
$var wire 16 B instruction_from_memory [15:0] $end
$var wire 16 C instruction [15:0] $end
$var wire 8 D imm8 [7:0] $end
$var wire 16 E imm16 [15:0] $end
$var wire 1 F halted $end
$var wire 4 G controller_state [3:0] $end
$var wire 32 H control_plane [31:0] $end
$var wire 4 I bus_sel [3:0] $end
$var wire 16 J bus [15:0] $end
$var wire 16 K alu_result [15:0] $end
$var wire 3 L alu_ctl [2:0] $end
$var wire 16 M R2_debug [15:0] $end
$var wire 16 N R1_debug [15:0] $end
$var wire 16 O R0_debug [15:0] $end
$var wire 1 P G_en $end
$var wire 16 Q G_data [15:0] $end
$var wire 1 R A_en $end
$scope module alu_unit $end
$var wire 1 + clk $end
$var wire 1 , rst $end
$var wire 16 S bus_in [15:0] $end
$var wire 16 T alu_result [15:0] $end
$var wire 3 U alu_ctl [2:0] $end
$var wire 1 P G_en $end
$var wire 16 V G_data [15:0] $end
$var wire 1 R A_en $end
$var wire 16 W A_data [15:0] $end
$scope module A_reg $end
$var wire 1 + clk $end
$var wire 1 , rst $end
$var wire 1 R en $end
$var wire 16 X D [15:0] $end
$var reg 16 Y Q [15:0] $end
$upscope $end
$scope module G_reg $end
$var wire 1 + clk $end
$var wire 1 , rst $end
$var wire 1 P en $end
$var wire 16 Z D [15:0] $end
$var reg 16 [ Q [15:0] $end
$upscope $end
$scope module alu $end
$var wire 16 \ A [15:0] $end
$var wire 3 ] alu_ctl [2:0] $end
$var wire 16 ^ B [15:0] $end
$var reg 16 _ Y [15:0] $end
$upscope $end
$upscope $end
$scope module controller $end
$var wire 1 + clk $end
$var wire 4 ` opcode [3:0] $end
$var wire 1 , rst $end
$var wire 2 a rx [1:0] $end
$var wire 2 b ry [1:0] $end
$var wire 1 1 zero_flag $end
$var parameter 4 c S_DECODE $end
$var parameter 4 d S_EXEC_ALU $end
$var parameter 4 e S_FETCH $end
$var parameter 4 f S_HALTED $end
$var parameter 4 g S_LOAD_A $end
$var parameter 4 h S_PC_INC $end
$var parameter 4 i S_WRITEBACK $end
$var reg 1 R A_en $end
$var reg 1 P G_en $end
$var reg 3 j alu_ctl [2:0] $end
$var reg 4 k bus_sel [3:0] $end
$var reg 32 l control_plane [31:0] $end
$var reg 1 F halted $end
$var reg 1 A ir_en $end
$var reg 1 ? mem_write $end
$var reg 4 m next_state [3:0] $end
$var reg 1 < pc_en $end
$var reg 1 ; pc_load $end
$var reg 1 9 reg_in_en $end
$var reg 2 n reg_in_sel [1:0] $end
$var reg 1 6 reg_out_en $end
$var reg 2 o reg_out_sel [1:0] $end
$var reg 4 p state [3:0] $end
$var reg 4 q state_debug [3:0] $end
$var reg 1 2 status_en $end
$scope task clear_control $end
$var reg 32 r cp [31:0] $end
$upscope $end
$scope task execute_step $end
$var reg 32 s cp [31:0] $end
$var reg 4 t opcode [3:0] $end
$var reg 2 u ry [1:0] $end
$upscope $end
$scope task fetch_step $end
$var reg 32 v cp [31:0] $end
$upscope $end
$scope task load_step $end
$var reg 32 w cp [31:0] $end
$var reg 2 x rx [1:0] $end
$upscope $end
$scope task pc_increment_step $end
$var reg 32 y cp [31:0] $end
$upscope $end
$scope task read_register $end
$var reg 32 z cp [31:0] $end
$var reg 32 { curr [31:0] $end
$var reg 2 | reg_id [1:0] $end
$upscope $end
$scope task set_bus $end
$var reg 32 } cp [31:0] $end
$var reg 32 ~ curr [31:0] $end
$var reg 4 !" source [3:0] $end
$upscope $end
$scope task simple_instruction_step $end
$var reg 32 "" cp [31:0] $end
$var reg 4 #" opcode [3:0] $end
$var reg 2 $" rx [1:0] $end
$var reg 2 %" ry [1:0] $end
$var reg 1 &" zero_flag $end
$upscope $end
$scope task write_register $end
$var reg 32 '" cp [31:0] $end
$var reg 32 (" curr [31:0] $end
$var reg 2 )" reg_id [1:0] $end
$upscope $end
$scope task writeback_step $end
$var reg 32 *" cp [31:0] $end
$var reg 2 +" rx [1:0] $end
$upscope $end
$upscope $end
$scope module dmem $end
$var wire 8 ," address [7:0] $end
$var wire 1 + clk $end
$var wire 16 -" mem20_debug [15:0] $end
$var wire 1 ? mem_write $end
$var wire 16 ." read_data [15:0] $end
$var wire 1 , rst $end
$var wire 16 /" write_data [15:0] $end
$var integer 32 0" i [31:0] $end
$upscope $end
$scope module imem $end
$var wire 16 1" instruction [15:0] $end
$var wire 8 2" address [7:0] $end
$var integer 32 3" i [31:0] $end
$upscope $end
$scope module ir $end
$var wire 1 + clk $end
$var wire 16 4" instruction_in [15:0] $end
$var wire 1 A ir_en $end
$var wire 1 , rst $end
$var reg 16 5" instruction_out [15:0] $end
$upscope $end
$scope module pc_unit $end
$var wire 1 + clk $end
$var wire 1 < pc_en $end
$var wire 8 6" pc_in [7:0] $end
$var wire 1 ; pc_load $end
$var wire 1 , rst $end
$var reg 8 7" pc_out [7:0] $end
$upscope $end
$scope module regs $end
$var wire 1 + clk $end
$var wire 1 9 reg_in_en $end
$var wire 2 8" reg_in_sel [1:0] $end
$var wire 2 9" reg_out_sel [1:0] $end
$var wire 1 , rst $end
$var wire 16 :" bus_in [15:0] $end
$var reg 16 ;" R0_debug [15:0] $end
$var reg 16 <" R1_debug [15:0] $end
$var reg 16 =" R2_debug [15:0] $end
$var reg 16 >" r0 [15:0] $end
$var reg 16 ?" r1 [15:0] $end
$var reg 16 @" r2 [15:0] $end
$var reg 16 A" reg_out [15:0] $end
$upscope $end
$scope module shared_bus $end
$var wire 16 B" G_data [15:0] $end
$var wire 4 C" bus_sel [3:0] $end
$var wire 16 D" immediate [15:0] $end
$var wire 16 E" memory_data [15:0] $end
$var wire 16 F" reg_data [15:0] $end
$var reg 16 G" bus_out [15:0] $end
$upscope $end
$scope module status $end
$var wire 16 H" alu_result [15:0] $end
$var wire 1 + clk $end
$var wire 1 , rst $end
$var wire 1 2 status_en $end
$var reg 1 1 zero_flag $end
$upscope $end
$upscope $end
$upscope $end
$enddefinitions $end
$comment Show the parameter values. $end
$dumpall
b101 i
b1 h
b11 g
b110 f
b0 e
b100 d
b10 c
$end
#0
$dumpvars
b0 H"
b0 G"
b0 F"
b0 E"
b0 D"
b0 C"
b0 B"
b0 A"
b0 @"
b0 ?"
b0 >"
b0 ="
b0 <"
b0 ;"
b0 :"
b0 9"
b0 8"
b0 7"
b0 6"
b0 5"
b101 4"
b100000000 3"
b0 2"
b101 1"
b100000000 0"
b0 /"
b0 ."
b0 -"
b0 ,"
bx +"
bx *"
bx )"
bx ("
bx '"
x&"
bx %"
bx $"
bx #"
bx ""
bx !"
bx ~
bx }
bx |
bx {
bx z
bx y
bx x
bx w
b10000000000000 v
bx u
bx t
bx s
bx r
b0 q
b0 p
b0 o
b0 n
b1 m
b10000000000000 l
b0 k
b0 j
b0 b
b0 a
b0 `
b0 _
b0 ^
b0 ]
b0 \
b0 [
b0 Z
b0 Y
b0 X
b0 W
b0 V
b0 U
b0 T
b0 S
0R
b0 Q
0P
b0 O
b0 N
b0 M
b0 L
b0 K
b0 J
b0 I
b10000000000000 H
b0 G
0F
b0 E
b0 D
b0 C
b101 B
1A
b0 @
0?
b0 >
b0 =
0<
0;
b0 :
09
b0 8
b0 7
06
b0 5
b0 4
b0 3
02
01
b0 0
b0 /
b0 .
b0 -
1,
0+
b0 *
b0 )
b0 (
b0 '
0&
b0 %
b0 $
b0 #
b0 "
0!
$end
#5000
b100000000 0"
1+
#10000
0+
#15000
b100000000 0"
1+
#20000
0+
0,
#25000
b101 E
b101 D"
b1 "
b1 0
b1 G
b1 q
0A
1<
b1000000000000000 y
b1000000000000000 H
b1000000000000000 l
b10 m
b101 D
b101 ,"
b101 6"
b1 p
b101 %
b101 .
b101 C
b101 5"
1+
#30000
0+
#35000
b101 K
b101 T
b101 Z
b101 _
b101 H"
b101 '
b101 -
b101 J
b101 S
b101 X
b101 ^
b101 /"
b101 :"
b101 G"
b10000000011 B
b10000000011 1"
b10000000011 4"
b10 "
b10 0
b10 G
b10 q
0<
19
b11 I
b11 k
b11 C"
b110000010000000000000000000000 '"
b110000000000000000000000000000 ("
b0 )"
b110000000000000000000000000000 }
b0 ~
b11 !"
b110000010000000000000000000000 ""
0&"
b0 %"
b0 $"
b0 #"
b110000010000000000000000000000 H
b110000010000000000000000000000 l
b0 m
b1 #
b1 /
b1 :
b1 2"
b1 7"
b10 p
1+
#40000
0+
#45000
b0 K
b0 T
b0 Z
b0 _
b0 H"
b0 '
b0 -
b0 J
b0 S
b0 X
b0 ^
b0 /"
b0 :"
b0 G"
b101 *
b101 O
b101 ;"
b101 7
b101 A"
b0 "
b0 0
b0 G
b0 q
1A
09
b0 I
b0 k
b0 C"
b10000000000000 v
b10000000000000 H
b10000000000000 l
b1 m
b101 >"
b0 p
1+
#50000
0+
#55000
b11 E
b11 D"
b11 D
b11 ,"
b11 6"
b1 4
b1 a
b1 "
b1 0
b1 G
b1 q
0A
1<
b1000000000000000 y
b1000000000000000 H
b1000000000000000 l
b10 m
b10000000011 %
b10000000011 .
b10000000011 C
b10000000011 5"
b1 p
1+
#60000
0+
#65000
b11 K
b11 T
b11 Z
b11 _
b11 H"
b11 '
b11 -
b11 J
b11 S
b11 X
b11 ^
b11 /"
b11 :"
b11 G"
b10 "
b10 0
b10 G
b10 q
0<
19
b1 8
b1 n
b1 8"
b11 I
b11 k
b11 C"
b110000110000000000000000000000 '"
b1 )"
b110000000000000000000000000000 }
b110000110000000000000000000000 ""
b1 $"
b110000110000000000000000000000 H
b110000110000000000000000000000 l
b0 m
b10000100000000 B
b10000100000000 1"
b10000100000000 4"
b10 p
b10 #
b10 /
b10 :
b10 2"
b10 7"
1+
#70000
0+
#75000
b0 K
b0 T
b0 Z
b0 _
b0 H"
b0 '
b0 -
b0 J
b0 S
b0 X
b0 ^
b0 /"
b0 :"
b0 G"
b0 "
b0 0
b0 G
b0 q
1A
09
b0 8
b0 n
b0 8"
b0 I
b0 k
b0 C"
b10000000000000 v
b10000000000000 H
b10000000000000 l
b1 m
b11 )
b11 N
b11 <"
b0 p
b11 ?"
1+
#80000
0+
#85000
b0 E
b0 D"
b1 "
b1 0
b1 G
b1 q
0A
1<
b1000000000000000 y
b1000000000000000 H
b1000000000000000 l
b10 m
b0 D
b0 ,"
b0 6"
b1 3
b1 b
b0 4
b0 a
b10 =
b10 `
b1 p
b10000100000000 %
b10000100000000 .
b10000100000000 C
b10000100000000 5"
1+
#90000
0+
#95000
b11000100000000 B
b11000100000000 1"
b11000100000000 4"
b10 "
b10 0
b10 G
b10 q
0<
b0 ""
b1 %"
b0 $"
b10 #"
b0 H
b0 l
b11 m
b11 #
b11 /
b11 :
b11 2"
b11 7"
b10 p
1+
#100000
0+
#105000
b101 K
b101 T
b101 Z
b101 _
b101 H"
b101 '
b101 -
b101 J
b101 S
b101 X
b101 ^
b101 /"
b101 :"
b101 G"
b101 F"
b11 "
b11 0
b11 G
b11 q
1R
16
b1 I
b1 k
b1 C"
b10010001000000000000000000000 H
b10010001000000000000000000000 l
b10010000000000000000000000000 }
b10000000000000000000000000 ~
b1 !"
b10000000000000000000000000 z
b0 {
b0 |
b10010001000000000000000000000 w
b0 x
b100 m
b11 p
1+
#110000
0+
#115000
b11 '
b11 -
b11 J
b11 S
b11 X
b11 ^
b11 /"
b11 :"
b11 G"
b11 F"
b11 7
b11 A"
b100 "
b100 0
b100 G
b100 q
12
1P
0R
b1 5
b1 o
b1 9"
b10110000000000000000000000000 }
b110000000000000000000000000 ~
b110000000000000000000000000 z
b1 |
b10110000100010000000000000000 s
b1 u
b10 t
b10110000100010000000000000000 H
b10110000100010000000000000000 l
b101 m
b1000 K
b1000 T
b1000 Z
b1000 _
b1000 H"
b100 p
b101 W
b101 Y
b101 \
1+
#120000
0+
#125000
b1101 K
b1101 T
b1101 Z
b1101 _
b1101 H"
b0 F"
b101 7
b101 A"
b1000 '
b1000 -
b1000 J
b1000 S
b1000 X
b1000 ^
b1000 /"
b1000 :"
b1000 G"
b101 "
b101 0
b101 G
b101 q
02
0P
19
06
b0 5
b0 o
b0 9"
b10 I
b10 k
b10 C"
b100000010000000000000000000000 '"
b100000000000000000000000000000 ("
b0 )"
b100000000000000000000000000000 }
b0 ~
b10 !"
b100000010000000000000000000000 *"
b0 +"
b100000010000000000000000000000 H
b100000010000000000000000000000 l
b0 m
b1000 Q
b1000 V
b1000 [
b1000 B"
b101 p
1+
#130000
0+
#135000
b101 K
b101 T
b101 Z
b101 _
b101 H"
b0 '
b0 -
b0 J
b0 S
b0 X
b0 ^
b0 /"
b0 :"
b0 G"
b0 "
b0 0
b0 G
b0 q
1A
09
b0 I
b0 k
b0 C"
b10000000000000 v
b10000000000000 H
b10000000000000 l
b1 m
b1000 *
b1000 O
b1000 ;"
b1000 7
b1000 A"
b0 p
b1000 >"
1+
#140000
0+
#145000
b1 "
b1 0
b1 G
b1 q
0A
1<
b1000000000000000 y
b1000000000000000 H
b1000000000000000 l
b10 m
b11 =
b11 `
b1 p
b11000100000000 %
b11000100000000 .
b11000100000000 C
b11000100000000 5"
1+
#150000
0+
#155000
b1100000000000 B
b1100000000000 1"
b1100000000000 4"
b10 "
b10 0
b10 G
b10 q
0<
b11 #"
b0 H
b0 l
b11 m
b100 #
b100 /
b100 :
b100 2"
b100 7"
b10 p
1+
#160000
0+
#165000
b1101 K
b1101 T
b1101 Z
b1101 _
b1101 H"
b1000 '
b1000 -
b1000 J
b1000 S
b1000 X
b1000 ^
b1000 /"
b1000 :"
b1000 G"
b1000 F"
b11 "
b11 0
b11 G
b11 q
1R
16
b1 I
b1 k
b1 C"
b10010001000000000000000000000 H
b10010001000000000000000000000 l
b10010000000000000000000000000 }
b10000000000000000000000000 ~
b1 !"
b10000000000000000000000000 z
b0 |
b10010001000000000000000000000 w
b100 m
b11 p
1+
#170000
0+
#175000
b11 '
b11 -
b11 J
b11 S
b11 X
b11 ^
b11 /"
b11 :"
b11 G"
b11 F"
b11 7
b11 A"
b100 "
b100 0
b100 G
b100 q
12
b1 L
b1 U
b1 ]
b1 j
1P
0R
b1 5
b1 o
b1 9"
b10110000000000000000000000000 }
b110000000000000000000000000 ~
b110000000000000000000000000 z
b1 |
b10110000100110000000000000000 s
b11 t
b10110000100110000000000000000 H
b10110000100110000000000000000 l
b101 m
b101 K
b101 T
b101 Z
b101 _
b101 H"
b100 p
b1000 W
b1000 Y
b1000 \
1+
#180000
0+
#185000
b1101 K
b1101 T
b1101 Z
b1101 _
b1101 H"
b0 F"
b1000 7
b1000 A"
b101 '
b101 -
b101 J
b101 S
b101 X
b101 ^
b101 /"
b101 :"
b101 G"
b101 "
b101 0
b101 G
b101 q
02
b0 L
b0 U
b0 ]
b0 j
0P
19
06
b0 5
b0 o
b0 9"
b10 I
b10 k
b10 C"
b100000010000000000000000000000 '"
b100000000000000000000000000000 }
b0 ~
b10 !"
b100000010000000000000000000000 *"
b100000010000000000000000000000 H
b100000010000000000000000000000 l
b0 m
b101 Q
b101 V
b101 [
b101 B"
b101 p
1+
#190000
0+
#195000
b1000 K
b1000 T
b1000 Z
b1000 _
b1000 H"
b0 '
b0 -
b0 J
b0 S
b0 X
b0 ^
b0 /"
b0 :"
b0 G"
b0 "
b0 0
b0 G
b0 q
1A
09
b0 I
b0 k
b0 C"
b10000000000000 v
b10000000000000 H
b10000000000000 l
b1 m
b101 *
b101 O
b101 ;"
b101 7
b101 A"
b0 p
b101 >"
1+
#200000
0+
#205000
b1 "
b1 0
b1 G
b1 q
0A
1<
b1000000000000000 y
b1000000000000000 H
b1000000000000000 l
b10 m
b0 3
b0 b
b10 4
b10 a
b1 =
b1 `
b1 p
b1100000000000 %
b1100000000000 .
b1100000000000 C
b1100000000000 5"
1+
#210000
0+
#215000
b1101 K
b1101 T
b1101 Z
b1101 _
b1101 H"
b101 '
b101 -
b101 J
b101 S
b101 X
b101 ^
b101 /"
b101 :"
b101 G"
b101 F"
b100100100000000 B
b100100100000000 1"
b100100100000000 4"
b10 "
b10 0
b10 G
b10 q
0<
19
b10 8
b10 n
b10 8"
16
b1 I
b1 k
b1 C"
b10011010000000000000000000000 '"
b10010000000000000000000000000 ("
b10 )"
b10010000000000000000000000000 }
b10000000000000000000000000 ~
b1 !"
b10011010000000000000000000000 ""
b10000000000000000000000000 z
b0 |
b0 %"
b10 $"
b1 #"
b10011010000000000000000000000 H
b10011010000000000000000000000 l
b0 m
b101 #
b101 /
b101 :
b101 2"
b101 7"
b10 p
1+
#220000
0+
#225000
b1000 K
b1000 T
b1000 Z
b1000 _
b1000 H"
b0 F"
b0 '
b0 -
b0 J
b0 S
b0 X
b0 ^
b0 /"
b0 :"
b0 G"
b101 (
b101 M
b101 ="
b0 "
b0 0
b0 G
b0 q
1A
09
b0 8
b0 n
b0 8"
06
b0 I
b0 k
b0 C"
b10000000000000 v
b10000000000000 H
b10000000000000 l
b1 m
b101 @"
b0 p
1+
#230000
0+
#235000
b1 3
b1 b
b100 =
b100 `
b1 "
b1 0
b1 G
b1 q
0A
1<
b1000000000000000 y
b1000000000000000 H
b1000000000000000 l
b10 m
b100100100000000 %
b100100100000000 .
b100100100000000 C
b100100100000000 5"
b1 p
1+
#240000
0+
#245000
b10 "
b10 0
b10 G
b10 q
0<
b0 ""
b1 %"
b100 #"
b0 H
b0 l
b11 m
b101100100000000 B
b101100100000000 1"
b101100100000000 4"
b10 p
b110 #
b110 /
b110 :
b110 2"
b110 7"
1+
#250000
0+
#255000
b1101 K
b1101 T
b1101 Z
b1101 _
b1101 H"
b101 '
b101 -
b101 J
b101 S
b101 X
b101 ^
b101 /"
b101 :"
b101 G"
b101 F"
b11 "
b11 0
b11 G
b11 q
1R
16
b10 5
b10 o
b10 9"
b1 I
b1 k
b1 C"
b11010001000000000000000000000 H
b11010001000000000000000000000 l
b11010000000000000000000000000 }
b1010000000000000000000000000 ~
b1010000000000000000000000000 z
b10 |
b11010001000000000000000000000 w
b10 x
b100 m
b11 p
1+
#260000
0+
#265000
b11 '
b11 -
b11 J
b11 S
b11 X
b11 ^
b11 /"
b11 :"
b11 G"
b11 F"
b11 7
b11 A"
b1 K
b1 T
b1 Z
b1 _
b1 H"
b100 "
b100 0
b100 G
b100 q
12
b10 L
b10 U
b10 ]
b10 j
1P
0R
b1 5
b1 o
b1 9"
b10110000000000000000000000000 }
b110000000000000000000000000 ~
b110000000000000000000000000 z
b1 |
b10110000101010000000000000000 s
b100 t
b10110000101010000000000000000 H
b10110000101010000000000000000 l
b101 m
b101 W
b101 Y
b101 \
b100 p
1+
#270000
0+
#275000
b110 K
b110 T
b110 Z
b110 _
b110 H"
b0 F"
b101 7
b101 A"
b1 '
b1 -
b1 J
b1 S
b1 X
b1 ^
b1 /"
b1 :"
b1 G"
b101 "
b101 0
b101 G
b101 q
02
b0 L
b0 U
b0 ]
b0 j
0P
19
b10 8
b10 n
b10 8"
06
b0 5
b0 o
b0 9"
b10 I
b10 k
b10 C"
b100001010000000000000000000000 '"
b100000000000000000000000000000 ("
b100000000000000000000000000000 }
b0 ~
b10 !"
b100001010000000000000000000000 *"
b10 +"
b100001010000000000000000000000 H
b100001010000000000000000000000 l
b0 m
b101 p
b1 Q
b1 V
b1 [
b1 B"
1+
#280000
0+
#285000
b101 K
b101 T
b101 Z
b101 _
b101 H"
b0 '
b0 -
b0 J
b0 S
b0 X
b0 ^
b0 /"
b0 :"
b0 G"
b1 (
b1 M
b1 ="
b0 "
b0 0
b0 G
b0 q
1A
09
b0 8
b0 n
b0 8"
b0 I
b0 k
b0 C"
b10000000000000 v
b10000000000000 H
b10000000000000 l
b1 m
b1 @"
b0 p
1+
#290000
0+
#295000
b101 =
b101 `
b1 "
b1 0
b1 G
b1 q
0A
1<
b1000000000000000 y
b1000000000000000 H
b1000000000000000 l
b10 m
b101100100000000 %
b101100100000000 .
b101100100000000 C
b101100100000000 5"
b1 p
1+
#300000
0+
#305000
b10 "
b10 0
b10 G
b10 q
0<
b101 #"
b0 H
b0 l
b11 m
b110100000000000 B
b110100000000000 1"
b110100000000000 4"
b10 p
b111 #
b111 /
b111 :
b111 2"
b111 7"
1+
#310000
0+
#315000
b110 K
b110 T
b110 Z
b110 _
b110 H"
b1 '
b1 -
b1 J
b1 S
b1 X
b1 ^
b1 /"
b1 :"
b1 G"
b1 F"
b1 7
b1 A"
b11 "
b11 0
b11 G
b11 q
1R
16
b10 5
b10 o
b10 9"
b1 I
b1 k
b1 C"
b11010001000000000000000000000 H
b11010001000000000000000000000 l
b11010000000000000000000000000 }
b1010000000000000000000000000 ~
b1 !"
b1010000000000000000000000000 z
b10 |
b11010001000000000000000000000 w
b100 m
b11 p
1+
#320000
0+
#325000
b11 '
b11 -
b11 J
b11 S
b11 X
b11 ^
b11 /"
b11 :"
b11 G"
b11 F"
b11 7
b11 A"
b11 K
b11 T
b11 Z
b11 _
b11 H"
b100 "
b100 0
b100 G
b100 q
12
b11 L
b11 U
b11 ]
b11 j
1P
0R
b1 5
b1 o
b1 9"
b10110000000000000000000000000 }
b110000000000000000000000000 ~
b110000000000000000000000000 z
b1 |
b10110000101110000000000000000 s
b101 t
b10110000101110000000000000000 H
b10110000101110000000000000000 l
b101 m
b1 W
b1 Y
b1 \
b100 p
1+
#330000
0+
#335000
b100 K
b100 T
b100 Z
b100 _
b100 H"
b0 F"
b101 7
b101 A"
b101 "
b101 0
b101 G
b101 q
02
b0 L
b0 U
b0 ]
b0 j
0P
19
b10 8
b10 n
b10 8"
06
b0 5
b0 o
b0 9"
b10 I
b10 k
b10 C"
b100001010000000000000000000000 '"
b100000000000000000000000000000 }
b0 ~
b10 !"
b100001010000000000000000000000 *"
b100001010000000000000000000000 H
b100001010000000000000000000000 l
b0 m
b101 p
b11 Q
b11 V
b11 [
b11 B"
1+
#340000
0+
#345000
b1 K
b1 T
b1 Z
b1 _
b1 H"
b0 '
b0 -
b0 J
b0 S
b0 X
b0 ^
b0 /"
b0 :"
b0 G"
b11 (
b11 M
b11 ="
b0 "
b0 0
b0 G
b0 q
1A
09
b0 8
b0 n
b0 8"
b0 I
b0 k
b0 C"
b10000000000000 v
b10000000000000 H
b10000000000000 l
b1 m
b11 @"
b0 p
1+
#350000
0+
#355000
b0 3
b0 b
b110 =
b110 `
b1 "
b1 0
b1 G
b1 q
0A
1<
b1000000000000000 y
b1000000000000000 H
b1000000000000000 l
b10 m
b110100000000000 %
b110100000000000 .
b110100000000000 C
b110100000000000 5"
b1 p
1+
#360000
0+
#365000
b10 "
b10 0
b10 G
b10 q
0<
b0 %"
b110 #"
b0 H
b0 l
b11 m
b111100000000000 B
b111100000000000 1"
b111100000000000 4"
b10 p
b1000 #
b1000 /
b1000 :
b1000 2"
b1000 7"
1+
#370000
0+
#375000
b100 K
b100 T
b100 Z
b100 _
b100 H"
b11 '
b11 -
b11 J
b11 S
b11 X
b11 ^
b11 /"
b11 :"
b11 G"
b11 F"
b11 7
b11 A"
b11 "
b11 0
b11 G
b11 q
1R
16
b10 5
b10 o
b10 9"
b1 I
b1 k
b1 C"
b11010001000000000000000000000 H
b11010001000000000000000000000 l
b11010000000000000000000000000 }
b1010000000000000000000000000 ~
b1 !"
b1010000000000000000000000000 z
b10 |
b11010001000000000000000000000 w
b100 m
b11 p
1+
#380000
0+
#385000
b101 '
b101 -
b101 J
b101 S
b101 X
b101 ^
b101 /"
b101 :"
b101 G"
b101 F"
b101 7
b101 A"
b110 K
b110 T
b110 Z
b110 _
b110 H"
b100 "
b100 0
b100 G
b100 q
12
b100 L
b100 U
b100 ]
b100 j
1P
0R
b0 5
b0 o
b0 9"
b10010000000000000000000000000 }
b10000000000000000000000000 ~
b10000000000000000000000000 z
b0 |
b10010000110010000000000000000 s
b0 u
b110 t
b10010000110010000000000000000 H
b10010000110010000000000000000 l
b101 m
b11 W
b11 Y
b11 \
b100 p
1+
#390000
0+
#395000
b1001 K
b1001 T
b1001 Z
b1001 _
b1001 H"
b0 F"
b110 '
b110 -
b110 J
b110 S
b110 X
b110 ^
b110 /"
b110 :"
b110 G"
b101 "
b101 0
b101 G
b101 q
02
b0 L
b0 U
b0 ]
b0 j
0P
19
b10 8
b10 n
b10 8"
06
b10 I
b10 k
b10 C"
b100001010000000000000000000000 '"
b100000000000000000000000000000 }
b0 ~
b10 !"
b100001010000000000000000000000 *"
b100001010000000000000000000000 H
b100001010000000000000000000000 l
b0 m
b101 p
b110 Q
b110 V
b110 [
b110 B"
1+
#400000
0+
#405000
b11 K
b11 T
b11 Z
b11 _
b11 H"
b0 '
b0 -
b0 J
b0 S
b0 X
b0 ^
b0 /"
b0 :"
b0 G"
b110 (
b110 M
b110 ="
b0 "
b0 0
b0 G
b0 q
1A
09
b0 8
b0 n
b0 8"
b0 I
b0 k
b0 C"
b10000000000000 v
b10000000000000 H
b10000000000000 l
b1 m
b110 @"
b0 p
1+
#410000
0+
#415000
b111 =
b111 `
b1 "
b1 0
b1 G
b1 q
0A
1<
b1000000000000000 y
b1000000000000000 H
b1000000000000000 l
b10 m
b111100000000000 %
b111100000000000 .
b111100000000000 C
b111100000000000 5"
b1 p
1+
#420000
0+
#425000
b10 "
b10 0
b10 G
b10 q
0<
b111 #"
b0 H
b0 l
b11 m
b1001100000010100 B
b1001100000010100 1"
b1001100000010100 4"
b10 p
b1001 #
b1001 /
b1001 :
b1001 2"
b1001 7"
1+
#430000
0+
#435000
b1001 K
b1001 T
b1001 Z
b1001 _
b1001 H"
b110 '
b110 -
b110 J
b110 S
b110 X
b110 ^
b110 /"
b110 :"
b110 G"
b110 F"
b110 7
b110 A"
b11 "
b11 0
b11 G
b11 q
1R
16
b10 5
b10 o
b10 9"
b1 I
b1 k
b1 C"
b11010001000000000000000000000 H
b11010001000000000000000000000 l
b11010000000000000000000000000 }
b1010000000000000000000000000 ~
b1 !"
b1010000000000000000000000000 z
b10 |
b11010001000000000000000000000 w
b100 m
b11 p
1+
#440000
0+
#445000
b0 F"
b101 7
b101 A"
b0 '
b0 -
b0 J
b0 S
b0 X
b0 ^
b0 /"
b0 :"
b0 G"
b111 K
b111 T
b111 Z
b111 _
b111 H"
b100 "
b100 0
b100 G
b100 q
12
b101 L
b101 U
b101 ]
b101 j
1P
0R
06
b0 5
b0 o
b0 9"
b0 I
b0 k
b0 C"
b0 }
b0 ~
b0 !"
b110110000000000000000 s
b111 t
b110110000000000000000 H
b110110000000000000000 l
b101 m
b110 W
b110 Y
b110 \
b100 p
1+
#450000
0+
#455000
b1101 K
b1101 T
b1101 Z
b1101 _
b1101 H"
b111 '
b111 -
b111 J
b111 S
b111 X
b111 ^
b111 /"
b111 :"
b111 G"
b101 "
b101 0
b101 G
b101 q
02
b0 L
b0 U
b0 ]
b0 j
0P
19
b10 8
b10 n
b10 8"
b10 I
b10 k
b10 C"
b100001010000000000000000000000 '"
b100000000000000000000000000000 }
b10 !"
b100001010000000000000000000000 *"
b100001010000000000000000000000 H
b100001010000000000000000000000 l
b0 m
b101 p
b111 Q
b111 V
b111 [
b111 B"
1+
#460000
0+
#465000
b110 K
b110 T
b110 Z
b110 _
b110 H"
b0 '
b0 -
b0 J
b0 S
b0 X
b0 ^
b0 /"
b0 :"
b0 G"
b111 (
b111 M
b111 ="
b0 "
b0 0
b0 G
b0 q
1A
09
b0 8
b0 n
b0 8"
b0 I
b0 k
b0 C"
b10000000000000 v
b10000000000000 H
b10000000000000 l
b1 m
b111 @"
b0 p
1+
#470000
0+
#475000
b10100 E
b10100 D"
b10100 D
b10100 ,"
b10100 6"
b1001 =
b1001 `
b1 "
b1 0
b1 G
b1 q
0A
1<
b1000000000000000 y
b1000000000000000 H
b1000000000000000 l
b10 m
b1001100000010100 %
b1001100000010100 .
b1001100000010100 C
b1001100000010100 5"
b1 p
1+
#480000
0+
