ldi.vcd
$date
	Thu May 14 04:42:15 2026
$end
$version
	Icarus Verilog
$end
$timescale
	1ps
$end
$scope module controller_ldi $end
$var wire 16 ! alu_bus [15:0] $end
$var wire 16 " reg_bus [15:0] $end
$var wire 16 # rf_out_bus [15:0] $end
$var wire 2 $ r2 [1:0] $end
$var wire 2 % r1 [1:0] $end
$var wire 2 & r0 [1:0] $end
$var wire 16 ' imm_bus [15:0] $end
$var wire 4 ( bus_sel [3:0] $end
$var wire 16 ) bus [15:0] $end
$var wire 5 * SR [4:0] $end
$var wire 2 + G [1:0] $end
$var wire 4 , ALU [3:0] $end
$var wire 2 - A [1:0] $end
$var reg 1 . clk $end
$var reg 16 / instruction [15:0] $end
$var reg 1 0 status_register $end
$var integer 32 1 fail [31:0] $end
$var integer 32 2 pass [31:0] $end
$scope module dut $end
$var wire 1 . clk $end
$var wire 16 3 instruction [15:0] $end
$var wire 1 0 status_register $end
$var wire 16 4 curr_comm_bus [15:0] $end
$var parameter 3 5 C_DECODE $end
$var parameter 3 6 C_EXECUTE $end
$var parameter 3 7 C_FETCH $end
$var parameter 3 8 C_LOAD $end
$var parameter 3 9 C_WRITE $end
$var reg 2 : A [1:0] $end
$var reg 4 ; ALU [3:0] $end
$var reg 2 < G [1:0] $end
$var reg 5 = SR [4:0] $end
$var reg 4 > bus_sel [3:0] $end
$var reg 24 ? control_plane [23:0] $end
$var reg 3 @ controller_state [2:0] $end
$var reg 4 A op_code [3:0] $end
$var reg 16 B out_comm_bus [15:0] $end
$var reg 12 C params [11:0] $end
$var reg 2 D r0 [1:0] $end
$var reg 2 E r1 [1:0] $end
$var reg 2 F r2 [1:0] $end
$scope task execute_step $end
$var reg 4 G Ry [3:0] $end
$var reg 24 H control_plane [23:0] $end
$var reg 4 I opcode [3:0] $end
$var reg 12 J params [11:0] $end
$upscope $end
$scope task get_register $end
$var reg 24 K curr_control_plane [23:0] $end
$var reg 1 L is_output $end
$var reg 24 M output_control_plane [23:0] $end
$var reg 4 N rx [3:0] $end
$upscope $end
$scope task load_step $end
$var reg 4 O Rx [3:0] $end
$var reg 24 P control_plane [23:0] $end
$var reg 4 Q opcode [3:0] $end
$var reg 12 R params [11:0] $end
$upscope $end
$scope task writeback_step $end
$var reg 16 S D [15:0] $end
$var reg 4 T Rx [3:0] $end
$var reg 4 U Ry [3:0] $end
$var reg 24 V control_plane [23:0] $end
$var reg 16 W imm_bus [15:0] $end
$var reg 4 X opcode [3:0] $end
$var reg 12 Y params [11:0] $end
$upscope $end
$upscope $end
$scope module mux $end
$var wire 16 Z alu [15:0] $end
$var wire 4 [ bus_sel [3:0] $end
$var wire 16 \ immediate [15:0] $end
$var wire 16 ] registers [15:0] $end
$var reg 16 ^ bus_out [15:0] $end
$upscope $end
$scope module rf $end
$var wire 1 . clk $end
$var wire 6 _ control_plane [5:0] $end
$var wire 16 ` input_bus [15:0] $end
$var wire 16 a output_bus [15:0] $end
$var wire 1 b rst $end
$var wire 1 c R3_tri $end
$var wire 1 d R3_en $end
$var wire 1 e R2_tri $end
$var wire 1 f R2_en $end
$var wire 1 g R1_tri $end
$var wire 1 h R1_en $end
$scope module R1 $end
$var wire 1 . clk $end
$var wire 16 i d [15:0] $end
$var wire 1 h load $end
$var wire 16 j o [15:0] $end
$var wire 1 g o_en $end
$var wire 1 b rst $end
$var reg 16 k data_wire [15:0] $end
$upscope $end
$scope module R2 $end
$var wire 1 . clk $end
$var wire 16 l d [15:0] $end
$var wire 1 f load $end
$var wire 16 m o [15:0] $end
$var wire 1 e o_en $end
$var wire 1 b rst $end
$var reg 16 n data_wire [15:0] $end
$upscope $end
$scope module R3 $end
$var wire 1 . clk $end
$var wire 16 o d [15:0] $end
$var wire 1 d load $end
$var wire 16 p o [15:0] $end
$var wire 1 c o_en $end
$var wire 1 b rst $end
$var reg 16 q data_wire [15:0] $end
$upscope $end
$upscope $end
$scope task check $end
$var reg 64 r cond [63:0] $end
$var reg 128 s msg [127:0] $end
$upscope $end
$scope task tick $end
$upscope $end
$upscope $end
$enddefinitions $end
$comment Show the parameter values. $end
$dumpall
b100 9
b10 8
b0 7
b11 6
b1 5
$end
#0
$dumpvars
bx s
bx r
bx q
bz p
b0 o
bx n
bz m
b0 l
bx k
bz j
b0 i
0h
0g
0f
0e
0d
0c
0b
bz a
b0 `
b0 _
b0 ^
b0 ]
bx \
b0 [
b0 Z
bx Y
bx X
bx W
bx V
bx U
bx T
bx S
bx R
bx Q
bx P
bx O
bx N
bx M
xL
bx K
bx J
bx I
bx H
bx G
b0 F
b0 E
b0 D
b0 C
bx B
b0 A
b0 @
b0 ?
b0 >
b0 =
b0 <
b0 ;
b0 :
b0 4
b100000100001101 3
b0 2
b0 1
x0
b100000100001101 /
0.
b0 -
b0 ,
b0 +
b0 *
b0 )
b0 (
bx '
b0 &
b0 %
b0 $
bz #
b0 "
b0 !
$end
#5000
b1 @
1.
#10000
0.
#15000
b1 O
b0 P
b100001101 R
b100 Q
b10 @
b100001101 C
b100 A
1.
#20000
0.
#25000
b0 G
b0 H
b100001101 J
b100 I
b11 @
1.
#30000
0.
#35000
b1101 )
b1101 4
b1101 ^
b1101 `
b1101 i
b1101 l
b1101 o
1h
b100000 _
b10 &
b10 D
b1 (
b1 >
b1 [
b1101 '
b1101 B
b1101 \
b110000000000000000000 ?
b1101 W
b10000000000000000000 M
b0 K
0L
b1 N
b1101 S
b0 U
b1 T
b110000000000000000000 V
b100001101 Y
b100 X
b100 @
1.
#40000
0.
#45000
b0 )
b0 4
b0 ^
b0 `
b0 i
b0 l
b0 o
0h
b0 _
b0 &
b0 D
b0 (
b0 >
b0 [
b0 ?
b0 @
b1101 k
1.
#50000
b1101 #
b1101 a
b1101 j
b1101 m
b1101 p
1g
b10000 _
0.
b1 &
b1 D
#51000
bz #
bz a
bz j
bz m
bz p
0g
b0 _
b100001110101011 /
b100001110101011 3
b0 &
b0 D
b1 2
b1100101001000000011000001111000001100000011000000110000010001000010000001101001011011100111010001101111001000000101001000110000 s
b1 r
#55000
b1 @
1.
#60000
0.
#65000
b11 O
b1110101011 R
b10 @
b1110101011 C
1.
#70000
0.
#75000
b1010 G
b1110101011 J
b11 @
1.
#80000
0.
#85000
b10101011 )
b10101011 4
b10101011 ^
b10101011 `
b10101011 i
b10101011 l
b10101011 o
1d
b10 _
b10 $
b10 F
b1 (
b1 >
b1 [
b10101011 '
b10101011 B
b10101011 \
b100001000000000000000 ?
b10101011 W
b1000000000000000 M
b11 N
b10101011 S
b1010 U
b11 T
b100001000000000000000 V
b1110101011 Y
b100 @
1.
#90000
0.
#95000
b0 )
b0 4
b0 ^
b0 `
b0 i
b0 l
b0 o
0d
b0 _
b0 $
b0 F
b0 (
b0 >
b0 [
b0 ?
b0 @
b10101011 q
1.
#100000
0.
#101000
b10101011 #
b10101011 a
b10101011 j
b10101011 m
b10101011 p
1c
b1 _
b1 $
b1 F
#102000
bz #
bz a
bz j
bz m
bz p
0c
b0 _
b0 $
b0 F
b10 2
b1100101001000000011000001111000001100000011000001000001010000100010000001101001011011100111010001101111001000000101001000110010 s
