mov.vcd
$date
	Thu May 14 04:51:09 2026
$end
$version
	Icarus Verilog
$end
$timescale
	1ps
$end
$scope module controller_mov $end
$var wire 16 ! alu_bus [15:0] $end
$var wire 16 " reg_bus [15:0] $end
$var wire 2 # r2 [1:0] $end
$var wire 2 $ r1 [1:0] $end
$var wire 2 % r0 [1:0] $end
$var wire 16 & imm_bus [15:0] $end
$var wire 4 ' bus_sel [3:0] $end
$var wire 16 ( bus [15:0] $end
$var wire 5 ) SR [4:0] $end
$var wire 2 * G [1:0] $end
$var wire 4 + ALU [3:0] $end
$var wire 2 , A [1:0] $end
$var reg 1 - clk $end
$var reg 16 . instruction [15:0] $end
$var reg 1 / status_register $end
$var integer 32 0 fail [31:0] $end
$var integer 32 1 pass [31:0] $end
$scope module dut $end
$var wire 1 - clk $end
$var wire 16 2 instruction [15:0] $end
$var wire 1 / status_register $end
$var wire 16 3 curr_comm_bus [15:0] $end
$var parameter 3 4 C_DECODE $end
$var parameter 3 5 C_EXECUTE $end
$var parameter 3 6 C_FETCH $end
$var parameter 3 7 C_LOAD $end
$var parameter 3 8 C_WRITE $end
$var reg 2 9 A [1:0] $end
$var reg 4 : ALU [3:0] $end
$var reg 2 ; G [1:0] $end
$var reg 5 < SR [4:0] $end
$var reg 4 = bus_sel [3:0] $end
$var reg 24 > control_plane [23:0] $end
$var reg 3 ? controller_state [2:0] $end
$var reg 4 @ op_code [3:0] $end
$var reg 16 A out_comm_bus [15:0] $end
$var reg 12 B params [11:0] $end
$var reg 2 C r0 [1:0] $end
$var reg 2 D r1 [1:0] $end
$var reg 2 E r2 [1:0] $end
$scope task execute_step $end
$var reg 4 F Ry [3:0] $end
$var reg 24 G control_plane [23:0] $end
$var reg 4 H opcode [3:0] $end
$var reg 12 I params [11:0] $end
$upscope $end
$scope task get_register $end
$var reg 24 J curr_control_plane [23:0] $end
$var reg 1 K is_output $end
$var reg 24 L output_control_plane [23:0] $end
$var reg 4 M rx [3:0] $end
$upscope $end
$scope task load_step $end
$var reg 4 N Rx [3:0] $end
$var reg 24 O control_plane [23:0] $end
$var reg 4 P opcode [3:0] $end
$var reg 12 Q params [11:0] $end
$upscope $end
$scope task writeback_step $end
$var reg 16 R D [15:0] $end
$var reg 4 S Rx [3:0] $end
$var reg 4 T Ry [3:0] $end
$var reg 24 U control_plane [23:0] $end
$var reg 16 V imm_bus [15:0] $end
$var reg 4 W opcode [3:0] $end
$var reg 12 X params [11:0] $end
$upscope $end
$upscope $end
$scope module mux $end
$var wire 16 Y alu [15:0] $end
$var wire 4 Z bus_sel [3:0] $end
$var wire 16 [ immediate [15:0] $end
$var wire 16 \ registers [15:0] $end
$var reg 16 ] bus_out [15:0] $end
$upscope $end
$scope module rf $end
$var wire 1 - clk $end
$var wire 6 ^ control_plane [5:0] $end
$var wire 16 _ input_bus [15:0] $end
$var wire 16 ` output_bus [15:0] $end
$var wire 1 a rst $end
$var wire 1 b R3_tri $end
$var wire 1 c R3_en $end
$var wire 1 d R2_tri $end
$var wire 1 e R2_en $end
$var wire 1 f R1_tri $end
$var wire 1 g R1_en $end
$scope module R1 $end
$var wire 1 - clk $end
$var wire 16 h d [15:0] $end
$var wire 1 g load $end
$var wire 16 i o [15:0] $end
$var wire 1 f o_en $end
$var wire 1 a rst $end
$var reg 16 j data_wire [15:0] $end
$upscope $end
$scope module R2 $end
$var wire 1 - clk $end
$var wire 16 k d [15:0] $end
$var wire 1 e load $end
$var wire 16 l o [15:0] $end
$var wire 1 d o_en $end
$var wire 1 a rst $end
$var reg 16 m data_wire [15:0] $end
$upscope $end
$scope module R3 $end
$var wire 1 - clk $end
$var wire 16 n d [15:0] $end
$var wire 1 c load $end
$var wire 16 o o [15:0] $end
$var wire 1 b o_en $end
$var wire 1 a rst $end
$var reg 16 p data_wire [15:0] $end
$upscope $end
$upscope $end
$scope task check $end
$var reg 64 q cond [63:0] $end
$var reg 128 r msg [127:0] $end
$upscope $end
$scope task tick $end
$upscope $end
$upscope $end
$enddefinitions $end
$comment Show the parameter values. $end
$dumpall
b100 8
b10 7
b0 6
b11 5
b1 4
$end
#0
$dumpvars
bx r
bx q
bx p
bz o
b0 n
bx m
bz l
b0 k
bx j
bz i
b0 h
0g
0f
0e
0d
0c
0b
0a
bz `
b0 _
b0 ^
b0 ]
bz \
bx [
b0 Z
b0 Y
bx X
bx W
bx V
bx U
bx T
bx S
bx R
bx Q
bx P
bx O
bx N
bx M
bx L
xK
bx J
bx I
bx H
bx G
bx F
b0 E
b0 D
b0 C
b0 B
bx A
b0 @
b0 ?
b0 >
b0 =
b0 <
b0 ;
b0 :
b0 9
b0 3
b100000100001101 2
b0 1
b0 0
0/
b100000100001101 .
0-
b0 ,
b0 +
b0 *
b0 )
b0 (
b0 '
bx &
b0 %
b0 $
b0 #
bz "
b0 !
$end
#5000
b1 ?
1-
#10000
0-
#15000
b1 N
b0 O
b100001101 Q
b100 P
b10 ?
b100001101 B
b100 @
1-
#20000
0-
#25000
b0 F
b0 G
b100001101 I
b100 H
b11 ?
1-
#30000
0-
#35000
b1101 (
b1101 3
b1101 ]
b1101 _
b1101 h
b1101 k
b1101 n
1g
b100000 ^
b10 %
b10 C
b1 '
b1 =
b1 Z
b1101 &
b1101 A
b1101 [
b110000000000000000000 >
b1101 V
b10000000000000000000 L
b0 J
0K
b1 M
b1101 R
b0 T
b1 S
b110000000000000000000 U
b100001101 X
b100 W
b100 ?
1-
#40000
0-
#45000
b0 (
b0 3
b0 ]
b0 _
b0 h
b0 k
b0 n
0g
b0 ^
b0 %
b0 C
b0 '
b0 =
b0 Z
b0 >
b0 ?
b1101 j
1-
#50000
b1101 "
b1101 \
b1101 `
b1101 i
b1101 l
b1101 o
1f
b10000 ^
0-
b1 %
b1 C
#51000
bz "
bz \
bz `
bz i
bz l
bz o
0f
b0 ^
b11000100100000 .
b11000100100000 2
b0 %
b0 C
b1 1
b1111000001100000011000000110000010001000010000001100010011001010110011001101111011100100110010100100000010011010100111101010110 r
b1 q
#55000
b1 ?
1-
#60000
0-
#65000
b100100000 Q
b11 P
b10 ?
b100100000 B
b11 @
1-
#70000
0-
#75000
b10 F
b100100000 I
b11 H
b11 ?
1-
#80000
0-
#85000
b1101 (
b1101 3
b1101 ]
b1101 _
b1101 h
b1101 k
b1101 n
b1101 "
b1101 \
b1101 `
b1101 i
b1101 l
b1101 o
1f
1e
b11000 ^
b10 $
b10 D
b1 %
b1 C
b11 '
b11 =
b11 Z
b1101100000000000000000 >
b1000000000000000000 J
b10 M
b1100000000000000000 L
0K
b100000 R
b10 T
b1101100000000000000000 U
b100100000 X
b11 W
b100 ?
1-
#90000
0-
#95000
b0 (
b0 3
b0 ]
b0 _
b0 h
b0 k
b0 n
bz "
bz \
bz `
bz i
bz l
bz o
0f
0e
b0 ^
b0 $
b0 D
b0 %
b0 C
b0 '
b0 =
b0 Z
b0 >
b0 ?
b1101 m
1-
#100000
0-
#101000
b1101 "
b1101 \
b1101 `
b1101 i
b1101 l
b1101 o
1d
b100 ^
b1 $
b1 D
#102000
b1101 "
b1101 \
b1101 `
b1101 i
b1101 l
b1101 o
1f
0d
b10000 ^
b1 %
b1 C
b0 $
b0 D
b10 1
b1110011001000000011000001111000001100000011000000110000010001000010000001101001011011100111010001101111001000000101001000110001 r
#103000
bz "
bz \
bz `
bz i
bz l
bz o
0f
b0 ^
b0 %
b0 C
b11 1
b110000011110000011000000110000001100000100010000100000011000010110011001110100011001010111001000100000010011010100111101010110 r
