LUKE AND JASON/luke/extension/processor_extension.vcd
$date
	Wed May 13 17:37:03 2026
$end
$version
	Icarus Verilog
$end
$timescale
	1ps
$end
$scope module processor_TB $end
$var wire 8 ! pc_debug [7:0] $end
$var wire 16 " instruction_debug [15:0] $end
$var wire 1 # done $end
$var wire 16 $ R2_debug [15:0] $end
$var wire 16 % R1_debug [15:0] $end
$var wire 16 & R0_debug [15:0] $end
$var reg 1 ' clk $end
$var reg 1 ( rst $end
$scope module uut $end
$var wire 16 ) R0_debug [15:0] $end
$var wire 16 * R1_debug [15:0] $end
$var wire 16 + R2_debug [15:0] $end
$var wire 1 ' clk $end
$var wire 16 , instruction_debug [15:0] $end
$var wire 8 - pc_debug [7:0] $end
$var wire 1 ( rst $end
$var wire 1 . zero_flag $end
$var wire 1 / status_en $end
$var wire 2 0 ry [1:0] $end
$var wire 2 1 rx [1:0] $end
$var wire 8 2 pc_out [7:0] $end
$var wire 1 3 pc_load $end
$var wire 1 4 pc_en $end
$var wire 4 5 opcode [3:0] $end
$var wire 16 6 memory_data [15:0] $end
$var wire 1 7 mem_write $end
$var wire 1 8 ir_en $end
$var wire 16 9 instruction_from_mem [15:0] $end
$var wire 16 : instruction [15:0] $end
$var wire 8 ; immediate [7:0] $end
$var wire 1 # done $end
$var wire 3 < bus_sel [2:0] $end
$var wire 16 = bus [15:0] $end
$var wire 16 > alu_result [15:0] $end
$var wire 3 ? alu_ctl [2:0] $end
$var wire 1 @ R2_en $end
$var wire 16 A R2_data [15:0] $end
$var wire 1 B R1_en $end
$var wire 16 C R1_data [15:0] $end
$var wire 1 D R0_en $end
$var wire 16 E R0_data [15:0] $end
$var wire 1 F G_en $end
$var wire 16 G G_data [15:0] $end
$var wire 1 H A_en $end
$var wire 16 I A_data [15:0] $end
$scope module A_reg $end
$var wire 1 ' clk $end
$var wire 1 ( rst $end
$var wire 1 H en $end
$var wire 16 J D [15:0] $end
$var reg 16 K Q [15:0] $end
$upscope $end
$scope module G_reg $end
$var wire 1 ' clk $end
$var wire 1 ( rst $end
$var wire 1 F en $end
$var wire 16 L D [15:0] $end
$var reg 16 M Q [15:0] $end
$upscope $end
$scope module alu $end
$var wire 16 N A [15:0] $end
$var wire 3 O alu_ctl [2:0] $end
$var wire 16 P B [15:0] $end
$var parameter 3 Q ALU_ADD $end
$var parameter 3 R ALU_AND $end
$var parameter 3 S ALU_INC $end
$var parameter 3 T ALU_OR $end
$var parameter 3 U ALU_SUB $end
$var parameter 3 V ALU_XOR $end
$var reg 16 W Y [15:0] $end
$upscope $end
$scope module controller $end
$var wire 1 ' clk $end
$var wire 4 X opcode [3:0] $end
$var wire 1 ( rst $end
$var wire 2 Y rx [1:0] $end
$var wire 2 Z ry [1:0] $end
$var wire 1 . zero_flag $end
$var parameter 4 [ ADD $end
$var parameter 3 \ ALU_ADD $end
$var parameter 3 ] ALU_AND $end
$var parameter 3 ^ ALU_INC $end
$var parameter 3 _ ALU_OR $end
$var parameter 3 ` ALU_SUB $end
$var parameter 3 a ALU_XOR $end
$var parameter 4 b AND_I $end
$var parameter 4 c BEQ $end
$var parameter 4 d BEQ_EXEC $end
$var parameter 3 e BUS_G $end
$var parameter 3 f BUS_IMM $end
$var parameter 3 g BUS_MEM $end
$var parameter 3 h BUS_R0 $end
$var parameter 3 i BUS_R1 $end
$var parameter 3 j BUS_R2 $end
$var parameter 4 k DECODE $end
$var parameter 4 l DONE $end
$var parameter 4 m EXEC1 $end
$var parameter 4 n EXEC2 $end
$var parameter 4 o EXEC3 $end
$var parameter 4 p FETCH $end
$var parameter 4 q HALT $end
$var parameter 4 r INC $end
$var parameter 4 s JMP $end
$var parameter 4 t JMP_EXEC $end
$var parameter 4 u LDI $end
$var parameter 4 v LOAD $end
$var parameter 4 w LOAD_EXEC $end
$var parameter 4 x MOV $end
$var parameter 4 y OR_I $end
$var parameter 4 z STOP $end
$var parameter 4 { STORE $end
$var parameter 4 | STORE_EXEC $end
$var parameter 4 } SUB $end
$var parameter 4 ~ XOR_I $end
$var reg 1 H A_en $end
$var reg 1 F G_en $end
$var reg 1 D R0_en $end
$var reg 1 B R1_en $end
$var reg 1 @ R2_en $end
$var reg 3 !" alu_ctl [2:0] $end
$var reg 3 "" bus_sel [2:0] $end
$var reg 1 # done $end
$var reg 1 8 ir_en $end
$var reg 1 7 mem_write $end
$var reg 4 #" next_state [3:0] $end
$var reg 1 4 pc_en $end
$var reg 1 3 pc_load $end
$var reg 4 $" state [3:0] $end
$var reg 1 / status_en $end
$upscope $end
$scope module dmem $end
$var wire 8 %" address [7:0] $end
$var wire 1 ' clk $end
$var wire 1 7 mem_write $end
$var wire 16 &" read_data [15:0] $end
$var wire 16 '" write_data [15:0] $end
$upscope $end
$scope module imem $end
$var wire 16 (" instruction [15:0] $end
$var wire 8 )" address [7:0] $end
$upscope $end
$scope module ir $end
$var wire 1 ' clk $end
$var wire 16 *" instruction_in [15:0] $end
$var wire 1 8 ir_en $end
$var wire 1 ( rst $end
$var reg 16 +" instruction_out [15:0] $end
$upscope $end
$scope module mux $end
$var wire 16 ," G_data [15:0] $end
$var wire 3 -" bus_sel [2:0] $end
$var wire 16 ." immediate [15:0] $end
$var wire 16 /" memory_data [15:0] $end
$var wire 16 0" R2_data [15:0] $end
$var wire 16 1" R1_data [15:0] $end
$var wire 16 2" R0_data [15:0] $end
$var parameter 3 3" BUS_G $end
$var parameter 3 4" BUS_IMM $end
$var parameter 3 5" BUS_MEM $end
$var parameter 3 6" BUS_R0 $end
$var parameter 3 7" BUS_R1 $end
$var parameter 3 8" BUS_R2 $end
$var reg 16 9" bus_out [15:0] $end
$upscope $end
$scope module pc_inst $end
$var wire 1 ' clk $end
$var wire 1 4 pc_en $end
$var wire 8 :" pc_in [7:0] $end
$var wire 1 3 pc_load $end
$var wire 1 ( rst $end
$var reg 8 ;" pc_out [7:0] $end
$upscope $end
$scope module reg_file $end
$var wire 1 D R0_en $end
$var wire 1 B R1_en $end
$var wire 1 @ R2_en $end
$var wire 16 <" bus_in [15:0] $end
$var wire 1 ' clk $end
$var wire 1 ( rst $end
$var wire 16 =" R2_out [15:0] $end
$var wire 16 >" R1_out [15:0] $end
$var wire 16 ?" R0_out [15:0] $end
$scope module R0_reg $end
$var wire 16 @" D [15:0] $end
$var wire 1 ' clk $end
$var wire 1 D en $end
$var wire 1 ( rst $end
$var reg 16 A" Q [15:0] $end
$upscope $end
$scope module R1_reg $end
$var wire 16 B" D [15:0] $end
$var wire 1 ' clk $end
$var wire 1 B en $end
$var wire 1 ( rst $end
$var reg 16 C" Q [15:0] $end
$upscope $end
$scope module R2_reg $end
$var wire 16 D" D [15:0] $end
$var wire 1 ' clk $end
$var wire 1 @ en $end
$var wire 1 ( rst $end
$var reg 16 E" Q [15:0] $end
$upscope $end
$upscope $end
$scope module status $end
$var wire 16 F" alu_result [15:0] $end
$var wire 1 ' clk $end
$var wire 1 ( rst $end
$var wire 1 / status_en $end
$var reg 1 . zero_flag $end
$upscope $end
$upscope $end
$upscope $end
$enddefinitions $end
$comment Show the parameter values. $end
$dumpall
b10 8"
b1 7"
b0 6"
b101 5"
b100 4"
b11 3"
b110 ~
b11 }
b110 |
b1001 {
b1010 z
b101 y
b1 x
b101 w
b1000 v
b0 u
b111 t
b1010 s
b111 r
b1111 q
b0 p
b100 o
b11 n
b10 m
b1001 l
b1 k
b10 j
b1 i
b0 h
b101 g
b100 f
b11 e
b1000 d
b1011 c
b100 b
b100 a
b1 `
b11 _
b101 ^
b10 ]
b0 \
b10 [
b100 V
b1 U
b11 T
b101 S
b10 R
b0 Q
$end
#0
$dumpvars
b0 F"
b0 E"
b0 D"
b0 C"
b0 B"
b0 A"
b0 @"
b0 ?"
b0 >"
b0 ="
b0 <"
b0 ;"
b0 :"
b0 9"
b0 2"
b0 1"
b0 0"
bx /"
b0 ."
b0 -"
b0 ,"
b0 +"
b101 *"
b0 )"
b101 ("
b0 '"
bx &"
b0 %"
b0 $"
b1 #"
b0 ""
b0 !"
b0 Z
b0 Y
b0 X
b0 W
b0 P
b0 O
b0 N
b0 M
b0 L
b0 K
b0 J
b0 I
0H
b0 G
0F
b0 E
0D
b0 C
0B
b0 A
0@
b0 ?
b0 >
b0 =
b0 <
b0 ;
b0 :
b101 9
18
07
bx 6
b0 5
14
03
b0 2
b0 1
b0 0
0/
0.
b0 -
b0 ,
b0 +
b0 *
b0 )
1(
0'
b0 &
b0 %
b0 $
0#
b0 "
b0 !
$end
#5000
1'
#10000
0'
#15000
1'
#20000
0'
0(
#25000
b101 >
b101 L
b101 W
b101 F"
b101 =
b101 J
b101 P
b101 '"
b101 9"
b101 <"
b101 @"
b101 B"
b101 D"
b101 ."
1D
b100 <
b100 ""
b100 -"
08
04
b1001 #"
b101 %"
b101 :"
b101 ;
b10000000011 9
b10000000011 ("
b10000000011 *"
b1 $"
b101 "
b101 ,
b101 :
b101 +"
b1 !
b1 -
b1 2
b1 )"
b1 ;"
1'
#30000
0'
#35000
1#
0D
b0 <
b0 ""
b0 -"
b0 #"
b1001 $"
b101 &
b101 )
b101 E
b101 2"
b101 ?"
b101 A"
1'
#40000
0'
#45000
14
18
0#
b1 #"
b0 $"
1'
#50000
0'
#55000
b11 >
b11 L
b11 W
b11 F"
b11 =
b11 J
b11 P
b11 '"
b11 9"
b11 <"
b11 @"
b11 B"
b11 D"
b11 ."
1B
b10000100000000 9
b10000100000000 ("
b10000100000000 *"
b11 %"
b11 :"
b11 ;
b1 1
b1 Y
0D
b100 <
b100 ""
b100 -"
08
04
b1001 #"
b10 !
b10 -
b10 2
b10 )"
b10 ;"
b10000000011 "
b10000000011 ,
b10000000011 :
b10000000011 +"
b1 $"
1'
#60000
0'
#65000
b101 >
b101 L
b101 W
b101 F"
b101 =
b101 J
b101 P
b101 '"
b101 9"
b101 <"
b101 @"
b101 B"
b101 D"
1#
0B
b0 <
b0 ""
b0 -"
b0 #"
b11 %
b11 *
b11 C
b11 1"
b11 >"
b11 C"
b1001 $"
1'
#70000
0'
#75000
14
18
0#
b1 #"
b0 $"
1'
#80000
0'
#85000
b0 ."
08
04
b10 #"
b0 %"
b0 :"
b0 ;
b1 0
b1 Z
b0 1
b0 Y
b10 5
b10 X
b11000100000000 9
b11000100000000 ("
b11000100000000 *"
b1 $"
b10000100000000 "
b10000100000000 ,
b10000100000000 :
b10000100000000 +"
b11 !
b11 -
b11 2
b11 )"
b11 ;"
1'
#90000
0'
#95000
1H
b11 #"
b10 $"
1'
#100000
0'
#105000
b11 =
b11 J
b11 P
b11 '"
b11 9"
b11 <"
b11 @"
b11 B"
b11 D"
b1000 >
b1000 L
b1000 W
b1000 F"
1/
1F
b1 <
b1 ""
b1 -"
0H
b100 #"
b101 I
b101 K
b101 N
b11 $"
1'
#110000
0'
#115000
b1101 >
b1101 L
b1101 W
b1101 F"
b1000 =
b1000 J
b1000 P
b1000 '"
b1000 9"
b1000 <"
b1000 @"
b1000 B"
b1000 D"
1D
0/
0F
b11 <
b11 ""
b11 -"
b1001 #"
b100 $"
b1000 G
b1000 M
b1000 ,"
1'
#120000
0'
#125000
1#
0D
b0 <
b0 ""
b0 -"
b0 #"
b1000 &
b1000 )
b1000 E
b1000 2"
b1000 ?"
b1000 A"
b1001 $"
1'
#130000
0'
#135000
14
18
0#
b1 #"
b0 $"
1'
#140000
0'
#145000
08
04
b10 #"
b11 5
b11 X
b1100000000000 9
b1100000000000 ("
b1100000000000 *"
b1 $"
b11000100000000 "
b11000100000000 ,
b11000100000000 :
b11000100000000 +"
b100 !
b100 -
b100 2
b100 )"
b100 ;"
1'
#150000
0'
#155000
1H
b11 #"
b10 $"
1'
#160000
0'
#165000
b11 =
b11 J
b11 P
b11 '"
b11 9"
b11 <"
b11 @"
b11 B"
b11 D"
b101 >
b101 L
b101 W
b101 F"
1/
1F
b1 ?
b1 O
b1 !"
b1 <
b1 ""
b1 -"
0H
b100 #"
b1000 I
b1000 K
b1000 N
b11 $"
1'
#170000
0'
#175000
b1101 >
b1101 L
b1101 W
b1101 F"
b101 =
b101 J
b101 P
b101 '"
b101 9"
b101 <"
b101 @"
b101 B"
b101 D"
1D
0/
b0 ?
b0 O
b0 !"
0F
b11 <
b11 ""
b11 -"
b1001 #"
b100 $"
b101 G
b101 M
b101 ,"
1'
#180000
0'
#185000
1#
0D
b0 <
b0 ""
b0 -"
b0 #"
b101 &
b101 )
b101 E
b101 2"
b101 ?"
b101 A"
b1001 $"
1'
#190000
0'
#195000
14
18
0#
b1 #"
b0 $"
1'
#200000
0'
#205000
1@
08
04
b1001 #"
b0 0
b0 Z
b10 1
b10 Y
b1 5
b1 X
bx 9
bx ("
bx *"
b1 $"
b1100000000000 "
b1100000000000 ,
b1100000000000 :
b1100000000000 +"
b101 !
b101 -
b101 2
b101 )"
b101 ;"
1'
#210000
0'
#215000
1#
0@
b0 #"
b1001 $"
b101 $
b101 +
b101 A
b101 0"
b101 ="
b101 E"
1'
#220000
0'
#225000
14
18
0#
b1 #"
b0 $"
1'
#230000
0'
#235000
b0xxxxxxxx ."
bx %"
bx :"
bx ;
bx 0
bx Z
bx 1
bx Y
bx 5
bx X
0@
08
04
b1001 #"
b110 !
b110 -
b110 2
b110 )"
b110 ;"
bx "
bx ,
bx :
bx +"
b1 $"
1'
#240000
0'
#245000
1#
b0 #"
b1001 $"
1'
#250000
0'
#255000
14
18
0#
b1 #"
b0 $"
1'
#260000
0'
#265000
08
04
b1001 #"
b1 $"
b111 !
b111 -
b111 2
b111 )"
b111 ;"
1'
#270000
0'
#275000
1#
b0 #"
b1001 $"
1'
#280000
0'
#285000
14
18
0#
b1 #"
b0 $"
1'
#290000
0'
#295000
08
04
b1001 #"
b1000 !
b1000 -
b1000 2
b1000 )"
b1000 ;"
b1 $"
1'
#300000
0'
#305000
1#
b0 #"
b1001 $"
1'
#310000
0'
#315000
14
18
0#
b1 #"
b0 $"
1'
#320000
0'
#325000
08
04
b1001 #"
b1 $"
b1001 !
b1001 -
b1001 2
b1001 )"
b1001 ;"
1'
#330000
0'
#335000
1#
b0 #"
b1001 $"
1'
#340000
0'
#345000
14
18
0#
b1 #"
b0 $"
1'
#350000
0'
#355000
08
04
b1001 #"
b1010 !
b1010 -
b1010 2
b1010 )"
b1010 ;"
b1 $"
1'
#360000
0'
#365000
1#
b0 #"
b1001 $"
1'
#370000
0'
#375000
14
18
0#
b1 #"
b0 $"
1'
#380000
0'
#385000
08
04
b1001 #"
b1 $"
b1011 !
b1011 -
b1011 2
b1011 )"
b1011 ;"
1'
#390000
0'
#395000
1#
b0 #"
b1001 $"
1'
#400000
0'
#405000
14
18
0#
b1 #"
b0 $"
1'
#410000
0'
#415000
08
04
b1001 #"
b1100 !
b1100 -
b1100 2
b1100 )"
b1100 ;"
b1 $"
1'
#420000
0'
#425000
1#
b0 #"
b1001 $"
1'
#430000
0'
#435000
14
18
0#
b1 #"
b0 $"
1'
#440000
0'
#445000
08
04
b1001 #"
b1 $"
b1101 !
b1101 -
b1101 2
b1101 )"
b1101 ;"
1'
#450000
0'
#455000
1#
b0 #"
b1001 $"
1'
#460000
0'
#465000
14
18
0#
b1 #"
b0 $"
1'
#470000
0'
#475000
08
04
b1001 #"
b1110 !
b1110 -
b1110 2
b1110 )"
b1110 ;"
b1 $"
1'
#480000
0'
#485000
1#
b0 #"
b1001 $"
1'
#490000
0'
#495000
14
18
0#
b1 #"
b0 $"
1'
#500000
0'
#505000
08
04
b1001 #"
b1 $"
b1111 !
b1111 -
b1111 2
b1111 )"
b1111 ;"
1'
#510000
0'
#515000
1#
b0 #"
b1001 $"
1'
#520000
0'
#525000
14
18
0#
b1 #"
b0 $"
1'
#530000
0'
#535000
08
04
b1001 #"
b10000 !
b10000 -
b10000 2
b10000 )"
b10000 ;"
b1 $"
1'
#540000
0'
#545000
1#
b0 #"
b1001 $"
1'
#550000
0'
#555000
14
18
0#
b1 #"
b0 $"
1'
#560000
0'
#565000
08
04
b1001 #"
b1 $"
b10001 !
b10001 -
b10001 2
b10001 )"
b10001 ;"
1'
#570000
0'
#575000
1#
b0 #"
b1001 $"
1'
#580000
0'
#585000
14
18
0#
b1 #"
b0 $"
1'
#590000
0'
#595000
08
04
b1001 #"
b10010 !
b10010 -
b10010 2
b10010 )"
b10010 ;"
b1 $"
1'
#600000
0'
#605000
1#
b0 #"
b1001 $"
1'
#610000
0'
#615000
14
18
0#
b1 #"
b0 $"
1'
#620000
0'
#625000
08
04
b1001 #"
b1 $"
b10011 !
b10011 -
b10011 2
b10011 )"
b10011 ;"
1'
#630000
0'
#635000
1#
b0 #"
b1001 $"
1'
#640000
0'
#645000
14
18
0#
b1 #"
b0 $"
1'
#650000
0'
#655000
08
04
b1001 #"
b10100 !
b10100 -
b10100 2
b10100 )"
b10100 ;"
b1 $"
1'
#660000
0'
#665000
1#
b0 #"
b1001 $"
1'
#670000
0'
#675000
14
18
0#
b1 #"
b0 $"
1'
#680000
0'
#685000
08
04
b1001 #"
b1 $"
b10101 !
b10101 -
b10101 2
b10101 )"
b10101 ;"
1'
#690000
0'
#695000
1#
b0 #"
b1001 $"
1'
#700000
0'
#705000
14
18
0#
b1 #"
b0 $"
1'
#710000
0'
#715000
08
04
b1001 #"
b10110 !
b10110 -
b10110 2
b10110 )"
b10110 ;"
b1 $"
1'
#720000
0'
#725000
1#
b0 #"
b1001 $"
1'
#730000
0'
#735000
14
18
0#
b1 #"
b0 $"
1'
#740000
0'
#745000
08
04
b1001 #"
b1 $"
b10111 !
b10111 -
b10111 2
b10111 )"
b10111 ;"
1'
#750000
0'
#755000
1#
b0 #"
b1001 $"
1'
#760000
0'
#765000
14
18
0#
b1 #"
b0 $"
1'
#770000
0'
#775000
08
04
b1001 #"
b11000 !
b11000 -
b11000 2
b11000 )"
b11000 ;"
b1 $"
1'
#780000
0'
#785000
1#
b0 #"
b1001 $"
1'
#790000
0'
#795000
14
18
0#
b1 #"
b0 $"
1'
#800000
0'
#805000
08
04
b1001 #"
b1 $"
b11001 !
b11001 -
b11001 2
b11001 )"
b11001 ;"
1'
#810000
0'
#815000
1#
b0 #"
b1001 $"
1'
#820000
0'
#825000
14
18
0#
b1 #"
b0 $"
1'
#830000
0'
#835000
08
04
b1001 #"
b11010 !
b11010 -
b11010 2
b11010 )"
b11010 ;"
b1 $"
1'
#840000
0'
#845000
1#
b0 #"
b1001 $"
1'
#850000
0'
#855000
14
18
0#
b1 #"
b0 $"
1'
#860000
0'
#865000
08
04
b1001 #"
b1 $"
b11011 !
b11011 -
b11011 2
b11011 )"
b11011 ;"
1'
#870000
0'
#875000
1#
b0 #"
b1001 $"
1'
#880000
0'
#885000
14
18
0#
b1 #"
b0 $"
1'
#890000
0'
#895000
08
04
b1001 #"
b11100 !
b11100 -
b11100 2
b11100 )"
b11100 ;"
b1 $"
1'
#900000
0'
#905000
1#
b0 #"
b1001 $"
1'
#910000
0'
#915000
14
18
0#
b1 #"
b0 $"
1'
#920000
0'
#925000
08
04
b1001 #"
b1 $"
b11101 !
b11101 -
b11101 2
b11101 )"
b11101 ;"
1'
#930000
0'
#935000
1#
b0 #"
b1001 $"
1'
#940000
0'
#945000
14
18
0#
b1 #"
b0 $"
1'
#950000
0'
#955000
08
04
b1001 #"
b11110 !
b11110 -
b11110 2
b11110 )"
b11110 ;"
b1 $"
1'
#960000
0'
#965000
1#
b0 #"
b1001 $"
1'
#970000
0'
#975000
14
18
0#
b1 #"
b0 $"
1'
#980000
0'
#985000
08
04
b1001 #"
b1 $"
b11111 !
b11111 -
b11111 2
b11111 )"
b11111 ;"
1'
#990000
0'
#995000
1#
b0 #"
b1001 $"
1'
#1000000
0'
#1005000
14
18
0#
b1 #"
b0 $"
1'
#1010000
0'
#1015000
08
04
b1001 #"
b100000 !
b100000 -
b100000 2
b100000 )"
b100000 ;"
b1 $"
1'
